%!PS-Adobe-3.0 EPSF-3.0
%%Creator: cairo 1.10.2 (http://cairographics.org)
%%CreationDate: Fri Jul  4 09:35:25 2014
%%Pages: 1
%%BoundingBox: 0 -1 77 65
%%DocumentData: Clean7Bit
%%LanguageLevel: 2
%%EndComments
%%BeginProlog
/cairo_eps_state save def
/dict_count countdictstack def
/op_count count 1 sub def
userdict begin
/q { gsave } bind def
/Q { grestore } bind def
/cm { 6 array astore concat } bind def
/w { setlinewidth } bind def
/J { setlinecap } bind def
/j { setlinejoin } bind def
/M { setmiterlimit } bind def
/d { setdash } bind def
/m { moveto } bind def
/l { lineto } bind def
/c { curveto } bind def
/h { closepath } bind def
/re { exch dup neg 3 1 roll 5 3 roll moveto 0 rlineto
      0 exch rlineto 0 rlineto closepath } bind def
/S { stroke } bind def
/f { fill } bind def
/f* { eofill } bind def
/n { newpath } bind def
/W { clip } bind def
/W* { eoclip } bind def
/BT { } bind def
/ET { } bind def
/pdfmark where { pop globaldict /?pdfmark /exec load put }
    { globaldict begin /?pdfmark /pop load def /pdfmark
    /cleartomark load def end } ifelse
/BDC { mark 3 1 roll /BDC pdfmark } bind def
/EMC { mark /EMC pdfmark } bind def
/cairo_store_point { /cairo_point_y exch def /cairo_point_x exch def } def
/Tj { show currentpoint cairo_store_point } bind def
/TJ {
  {
    dup
    type /stringtype eq
    { show } { -0.001 mul 0 cairo_font_matrix dtransform rmoveto } ifelse
  } forall
  currentpoint cairo_store_point
} bind def
/cairo_selectfont { cairo_font_matrix aload pop pop pop 0 0 6 array astore
    cairo_font exch selectfont cairo_point_x cairo_point_y moveto } bind def
/Tf { pop /cairo_font exch def /cairo_font_matrix where
      { pop cairo_selectfont } if } bind def
/Td { matrix translate cairo_font_matrix matrix concatmatrix dup
      /cairo_font_matrix exch def dup 4 get exch 5 get cairo_store_point
      /cairo_font where { pop cairo_selectfont } if } bind def
/Tm { 2 copy 8 2 roll 6 array astore /cairo_font_matrix exch def
      cairo_store_point /cairo_font where { pop cairo_selectfont } if } bind def
/g { setgray } bind def
/rg { setrgbcolor } bind def
/d1 { setcachedevice } bind def
%%EndProlog
%%Page: 1 1
%%BeginPageSetup
%%PageBoundingBox: 0 -1 77 65
%%EndPageSetup
q 0 -1 77 66 rectclip q
0 64.956 77 -65 re W n
0 g
74.977 6.932 m 74.828 7.265 l 72.277 12.929 l 70.719 8.819 l 61.934 
12.026 l 61.934 36.015 l 61.934 37.1 61.254 37.729 60.617 37.972 c 
59.98 38.214 40.422 45.655 40.422 45.655 c 40.422 58.479 l 44.809 
58.479 l 40.414 62.874 l 40.156 63.136 l 38.332 64.956 l 31.855 58.479 
l 36.246 58.479 l 36.246 45.64 l 16.441 38.077 l 15.418 37.733 14.742 
37.151 14.742 36.124 c 14.73 12.229 l 5.316 8.679 l 3.758 12.78 l 1.215 
7.124 l 1.059 6.784 l 0 4.429 l 2.348 3.37 l 2.707 3.21 l 8.355 0.671 l 
6.801 4.772 l 16.164 8.3 l 37.398 0.202 l 38.145 -0.114 38.594 -0.017 
39.262 0.202 c 60.246 8.202 l 69.238 4.917 l 67.684 0.815 l 73.367 3.37 
l 73.695 3.518 l 76.039 4.573 l h
36.242 5.167 m 18.957 11.757 l 18.957 32.917 l 36.242 26.339 l h
38.332 30.085 m 22.824 35.995 l 38.379 41.932 l 53.887 36.015 l h
57.711 11.757 m 40.469 5.182 l 40.469 26.37 l 57.711 32.948 l h
57.711 11.757 m f
Q Q
showpage
%%Trailer
count op_count sub {pop} repeat
countdictstack dict_count sub {end} repeat
cairo_eps_state restore
%%EOF
