%!PS-Adobe-3.0 EPSF-3.0
%%Creator: cairo 1.10.2 (http://cairographics.org)
%%CreationDate: Fri Jul  4 10:00:54 2014
%%Pages: 1
%%BoundingBox: 0 -1 20 26
%%DocumentData: Clean7Bit
%%LanguageLevel: 2
%%EndComments
%%BeginProlog
/cairo_eps_state save def
/dict_count countdictstack def
/op_count count 1 sub def
userdict begin
/q { gsave } bind def
/Q { grestore } bind def
/cm { 6 array astore concat } bind def
/w { setlinewidth } bind def
/J { setlinecap } bind def
/j { setlinejoin } bind def
/M { setmiterlimit } bind def
/d { setdash } bind def
/m { moveto } bind def
/l { lineto } bind def
/c { curveto } bind def
/h { closepath } bind def
/re { exch dup neg 3 1 roll 5 3 roll moveto 0 rlineto
      0 exch rlineto 0 rlineto closepath } bind def
/S { stroke } bind def
/f { fill } bind def
/f* { eofill } bind def
/n { newpath } bind def
/W { clip } bind def
/W* { eoclip } bind def
/BT { } bind def
/ET { } bind def
/pdfmark where { pop globaldict /?pdfmark /exec load put }
    { globaldict begin /?pdfmark /pop load def /pdfmark
    /cleartomark load def end } ifelse
/BDC { mark 3 1 roll /BDC pdfmark } bind def
/EMC { mark /EMC pdfmark } bind def
/cairo_store_point { /cairo_point_y exch def /cairo_point_x exch def } def
/Tj { show currentpoint cairo_store_point } bind def
/TJ {
  {
    dup
    type /stringtype eq
    { show } { -0.001 mul 0 cairo_font_matrix dtransform rmoveto } ifelse
  } forall
  currentpoint cairo_store_point
} bind def
/cairo_selectfont { cairo_font_matrix aload pop pop pop 0 0 6 array astore
    cairo_font exch selectfont cairo_point_x cairo_point_y moveto } bind def
/Tf { pop /cairo_font exch def /cairo_font_matrix where
      { pop cairo_selectfont } if } bind def
/Td { matrix translate cairo_font_matrix matrix concatmatrix dup
      /cairo_font_matrix exch def dup 4 get exch 5 get cairo_store_point
      /cairo_font where { pop cairo_selectfont } if } bind def
/Tm { 2 copy 8 2 roll 6 array astore /cairo_font_matrix exch def
      cairo_store_point /cairo_font where { pop cairo_selectfont } if } bind def
/g { setgray } bind def
/rg { setrgbcolor } bind def
/d1 { setcachedevice } bind def
%%EndProlog
%%Page: 1 1
%%BeginPageSetup
%%PageBoundingBox: 0 -1 20 26
%%EndPageSetup
q 0 -1 20 27 rectclip q
0 25.6 20 -26 re W n
0.2 g
16.801 15.202 m 16.801 18.401 l 16.801 22.377 13.578 25.6 9.602 25.6 c 
5.625 25.6 2.398 22.377 2.398 18.401 c 2.398 15.202 l 1.074 15.202 0 
14.127 0 12.799 c 0 7.202 l 0 3.225 3.223 -0.002 7.199 -0.002 c 12 
-0.002 l 15.977 -0.002 19.199 3.225 19.199 7.202 c 19.199 12.799 l 
19.199 14.127 18.125 15.202 16.801 15.202 c h
4 18.401 m 4 21.495 6.508 23.998 9.602 23.998 c 12.691 23.998 15.199 
21.495 15.199 18.401 c 15.199 15.202 l 13.602 15.202 l 13.602 18.397 l 
13.602 20.608 11.809 22.397 9.602 22.397 c 7.391 22.397 5.602 20.608 
5.602 18.397 c 5.602 15.202 l 4 15.202 l h
12.801 18.401 m 12.801 15.202 l 6.398 15.202 l 6.398 18.401 l 6.398 
20.166 7.832 21.6 9.602 21.6 c 11.367 21.6 12.801 20.166 12.801 18.401 
c h
17.602 10.401 m 17.602 7.202 l 17.602 4.112 15.086 1.6 12 1.6 c 7.199 
1.6 l 4.113 1.6 1.602 4.112 1.602 7.202 c 1.602 12.799 l 1.602 13.241 
1.957 13.6 2.398 13.6 c 16.801 13.6 l 17.242 13.6 17.602 13.241 17.602 
12.799 c h
17.602 10.401 m f
9.602 10.401 m 8.719 10.401 8 9.686 8 8.799 c 8 8.315 8.266 7.393 8.535 
6.663 c 8.75 6.069 9.023 5.6 9.602 5.6 c 10.227 5.6 10.449 6.065 10.668 
6.655 c 10.938 7.385 11.199 8.311 11.199 8.799 c 11.199 9.686 10.484 
10.401 9.602 10.401 c h
9.602 10.401 m f
Q Q
showpage
%%Trailer
count op_count sub {pop} repeat
countdictstack dict_count sub {end} repeat
cairo_eps_state restore
%%EOF
