%!PS-Adobe-3.0 EPSF-3.0
%%Creator: cairo 1.10.2 (http://cairographics.org)
%%CreationDate: Fri Jul  4 09:47:00 2014
%%Pages: 1
%%BoundingBox: 0 -1 12 15
%%DocumentData: Clean7Bit
%%LanguageLevel: 2
%%EndComments
%%BeginProlog
/cairo_eps_state save def
/dict_count countdictstack def
/op_count count 1 sub def
userdict begin
/q { gsave } bind def
/Q { grestore } bind def
/cm { 6 array astore concat } bind def
/w { setlinewidth } bind def
/J { setlinecap } bind def
/j { setlinejoin } bind def
/M { setmiterlimit } bind def
/d { setdash } bind def
/m { moveto } bind def
/l { lineto } bind def
/c { curveto } bind def
/h { closepath } bind def
/re { exch dup neg 3 1 roll 5 3 roll moveto 0 rlineto
      0 exch rlineto 0 rlineto closepath } bind def
/S { stroke } bind def
/f { fill } bind def
/f* { eofill } bind def
/n { newpath } bind def
/W { clip } bind def
/W* { eoclip } bind def
/BT { } bind def
/ET { } bind def
/pdfmark where { pop globaldict /?pdfmark /exec load put }
    { globaldict begin /?pdfmark /pop load def /pdfmark
    /cleartomark load def end } ifelse
/BDC { mark 3 1 roll /BDC pdfmark } bind def
/EMC { mark /EMC pdfmark } bind def
/cairo_store_point { /cairo_point_y exch def /cairo_point_x exch def } def
/Tj { show currentpoint cairo_store_point } bind def
/TJ {
  {
    dup
    type /stringtype eq
    { show } { -0.001 mul 0 cairo_font_matrix dtransform rmoveto } ifelse
  } forall
  currentpoint cairo_store_point
} bind def
/cairo_selectfont { cairo_font_matrix aload pop pop pop 0 0 6 array astore
    cairo_font exch selectfont cairo_point_x cairo_point_y moveto } bind def
/Tf { pop /cairo_font exch def /cairo_font_matrix where
      { pop cairo_selectfont } if } bind def
/Td { matrix translate cairo_font_matrix matrix concatmatrix dup
      /cairo_font_matrix exch def dup 4 get exch 5 get cairo_store_point
      /cairo_font where { pop cairo_selectfont } if } bind def
/Tm { 2 copy 8 2 roll 6 array astore /cairo_font_matrix exch def
      cairo_store_point /cairo_font where { pop cairo_selectfont } if } bind def
/g { setgray } bind def
/rg { setrgbcolor } bind def
/d1 { setcachedevice } bind def
%%EndProlog
%%Page: 1 1
%%BeginPageSetup
%%PageBoundingBox: 0 -1 12 15
%%EndPageSetup
q 0 -1 12 16 rectclip q
0 14.4 12 -15 re W n
0 g
8.801 0.002 m 2.398 0.002 l 1.078 0.002 0 1.076 0 2.4 c 0 12.002 l 0 
13.322 1.078 14.4 2.398 14.4 c 8.801 14.4 l 10.125 14.4 11.199 13.322 
11.199 12.002 c 11.199 2.4 l 11.199 1.076 10.125 0.002 8.801 0.002 c h
2.398 12.798 m 1.961 12.798 1.602 12.439 1.602 12.002 c 1.602 2.4 l 
1.602 1.959 1.961 1.599 2.398 1.599 c 8.801 1.599 l 9.242 1.599 9.602 
1.959 9.602 2.4 c 9.602 12.002 l 9.602 12.439 9.242 12.798 8.801 12.798 
c h
2.398 12.798 m f
4 8.002 m 4 7.556 3.641 7.201 3.199 7.201 c 2.758 7.201 2.398 7.556 
2.398 8.002 c 2.398 8.443 2.758 8.798 3.199 8.798 c 3.641 8.798 4 8.443 
4 8.002 c h
4 8.002 m f
6.398 8.002 m 6.398 7.556 6.043 7.201 5.602 7.201 c 5.156 7.201 4.801 
7.556 4.801 8.002 c 4.801 8.443 5.156 8.798 5.602 8.798 c 6.043 8.798 
6.398 8.443 6.398 8.002 c h
6.398 8.002 m f
8.801 8.002 m 8.801 7.556 8.441 7.201 8 7.201 c 7.559 7.201 7.199 7.556 
7.199 8.002 c 7.199 8.443 7.559 8.798 8 8.798 c 8.441 8.798 8.801 8.443 
8.801 8.002 c h
8.801 8.002 m f
4 5.599 m 4 5.158 3.641 4.798 3.199 4.798 c 2.758 4.798 2.398 5.158 
2.398 5.599 c 2.398 6.041 2.758 6.4 3.199 6.4 c 3.641 6.4 4 6.041 4 
5.599 c h
4 5.599 m f
6.398 5.599 m 6.398 5.158 6.043 4.798 5.602 4.798 c 5.156 4.798 4.801 
5.158 4.801 5.599 c 4.801 6.041 5.156 6.4 5.602 6.4 c 6.043 6.4 6.398 
6.041 6.398 5.599 c h
6.398 5.599 m f
8.801 5.599 m 8.801 5.158 8.441 4.798 8 4.798 c 7.559 4.798 7.199 5.158 
7.199 5.599 c 7.199 6.041 7.559 6.4 8 6.4 c 8.441 6.4 8.801 6.041 8.801 
5.599 c h
8.801 5.599 m f
4 3.201 m 4 2.759 3.641 2.4 3.199 2.4 c 2.758 2.4 2.398 2.759 2.398 
3.201 c 2.398 3.642 2.758 4.002 3.199 4.002 c 3.641 4.002 4 3.642 4 
3.201 c h
4 3.201 m f
6.398 3.201 m 6.398 2.759 6.043 2.4 5.602 2.4 c 5.156 2.4 4.801 2.759 
4.801 3.201 c 4.801 3.642 5.156 4.002 5.602 4.002 c 6.043 4.002 6.398 
3.642 6.398 3.201 c h
6.398 3.201 m f
8.801 3.201 m 8.801 2.759 8.441 2.4 8 2.4 c 7.559 2.4 7.199 2.759 7.199 
3.201 c 7.199 3.642 7.559 4.002 8 4.002 c 8.441 4.002 8.801 3.642 8.801 
3.201 c h
8.801 3.201 m f
8 11.201 m 8 10.4 l 3.199 10.4 l 3.199 11.201 l 8 11.201 l 8.801 12.002 
m 2.398 12.002 l 2.398 9.599 l 8.801 9.599 l h
8.801 12.002 m f
Q Q
showpage
%%Trailer
count op_count sub {pop} repeat
countdictstack dict_count sub {end} repeat
cairo_eps_state restore
%%EOF
