%!PS-Adobe-3.0 EPSF-3.0
%%Creator: cairo 1.10.2 (http://cairographics.org)
%%CreationDate: Fri Jul  4 09:42:54 2014
%%Pages: 1
%%BoundingBox: 0 -1 25 20
%%DocumentData: Clean7Bit
%%LanguageLevel: 2
%%EndComments
%%BeginProlog
/cairo_eps_state save def
/dict_count countdictstack def
/op_count count 1 sub def
userdict begin
/q { gsave } bind def
/Q { grestore } bind def
/cm { 6 array astore concat } bind def
/w { setlinewidth } bind def
/J { setlinecap } bind def
/j { setlinejoin } bind def
/M { setmiterlimit } bind def
/d { setdash } bind def
/m { moveto } bind def
/l { lineto } bind def
/c { curveto } bind def
/h { closepath } bind def
/re { exch dup neg 3 1 roll 5 3 roll moveto 0 rlineto
      0 exch rlineto 0 rlineto closepath } bind def
/S { stroke } bind def
/f { fill } bind def
/f* { eofill } bind def
/n { newpath } bind def
/W { clip } bind def
/W* { eoclip } bind def
/BT { } bind def
/ET { } bind def
/pdfmark where { pop globaldict /?pdfmark /exec load put }
    { globaldict begin /?pdfmark /pop load def /pdfmark
    /cleartomark load def end } ifelse
/BDC { mark 3 1 roll /BDC pdfmark } bind def
/EMC { mark /EMC pdfmark } bind def
/cairo_store_point { /cairo_point_y exch def /cairo_point_x exch def } def
/Tj { show currentpoint cairo_store_point } bind def
/TJ {
  {
    dup
    type /stringtype eq
    { show } { -0.001 mul 0 cairo_font_matrix dtransform rmoveto } ifelse
  } forall
  currentpoint cairo_store_point
} bind def
/cairo_selectfont { cairo_font_matrix aload pop pop pop 0 0 6 array astore
    cairo_font exch selectfont cairo_point_x cairo_point_y moveto } bind def
/Tf { pop /cairo_font exch def /cairo_font_matrix where
      { pop cairo_selectfont } if } bind def
/Td { matrix translate cairo_font_matrix matrix concatmatrix dup
      /cairo_font_matrix exch def dup 4 get exch 5 get cairo_store_point
      /cairo_font where { pop cairo_selectfont } if } bind def
/Tm { 2 copy 8 2 roll 6 array astore /cairo_font_matrix exch def
      cairo_store_point /cairo_font where { pop cairo_selectfont } if } bind def
/g { setgray } bind def
/rg { setrgbcolor } bind def
/d1 { setcachedevice } bind def
%%EndProlog
%%Page: 1 1
%%BeginPageSetup
%%PageBoundingBox: 0 -1 25 20
%%EndPageSetup
q 0 -1 25 21 rectclip q
0 19.48 25 -20 re W n
0 g
23.535 17.917 m 22.914 18.542 l 22.309 19.148 21.5 19.48 20.645 19.48 c 
19.785 19.48 18.977 19.148 18.371 18.542 c 8.824 8.992 l 6.098 11.718 l 
5.496 12.324 4.688 12.656 3.828 12.656 c 2.969 12.656 2.164 12.324 
1.559 11.714 c 0.938 11.097 l -0.312 9.843 -0.312 7.808 0.938 6.558 c 
6.551 0.941 l 7.156 0.332 7.965 -0 8.82 -0 c 9.68 -0 10.488 0.335 
11.094 0.941 c 23.535 13.382 l 24.785 14.632 24.785 16.667 23.535 
17.917 c h
22.512 14.406 m 10.066 1.964 l 9.723 1.621 9.273 1.449 8.82 1.449 c 
8.371 1.449 7.918 1.621 7.578 1.964 c 1.961 7.582 l 1.277 8.265 1.277 
9.386 1.961 10.07 c 2.582 10.691 l 2.926 11.035 3.379 11.207 3.828 
11.207 c 4.281 11.207 4.73 11.035 5.07 10.691 c 8.824 6.941 l 19.398 
17.515 l 19.742 17.859 20.191 18.031 20.645 18.031 c 21.094 18.031 
21.547 17.859 21.887 17.515 c 22.512 16.894 l 23.191 16.21 23.191 
15.089 22.512 14.406 c h
22.512 14.406 m f
Q Q
showpage
%%Trailer
count op_count sub {pop} repeat
countdictstack dict_count sub {end} repeat
cairo_eps_state restore
%%EOF
