%!PS-Adobe-3.0 EPSF-3.0
%%Creator: cairo 1.10.2 (http://cairographics.org)
%%CreationDate: Fri Jul  4 09:47:58 2014
%%Pages: 1
%%BoundingBox: 0 -1 15 13
%%DocumentData: Clean7Bit
%%LanguageLevel: 2
%%EndComments
%%BeginProlog
/cairo_eps_state save def
/dict_count countdictstack def
/op_count count 1 sub def
userdict begin
/q { gsave } bind def
/Q { grestore } bind def
/cm { 6 array astore concat } bind def
/w { setlinewidth } bind def
/J { setlinecap } bind def
/j { setlinejoin } bind def
/M { setmiterlimit } bind def
/d { setdash } bind def
/m { moveto } bind def
/l { lineto } bind def
/c { curveto } bind def
/h { closepath } bind def
/re { exch dup neg 3 1 roll 5 3 roll moveto 0 rlineto
      0 exch rlineto 0 rlineto closepath } bind def
/S { stroke } bind def
/f { fill } bind def
/f* { eofill } bind def
/n { newpath } bind def
/W { clip } bind def
/W* { eoclip } bind def
/BT { } bind def
/ET { } bind def
/pdfmark where { pop globaldict /?pdfmark /exec load put }
    { globaldict begin /?pdfmark /pop load def /pdfmark
    /cleartomark load def end } ifelse
/BDC { mark 3 1 roll /BDC pdfmark } bind def
/EMC { mark /EMC pdfmark } bind def
/cairo_store_point { /cairo_point_y exch def /cairo_point_x exch def } def
/Tj { show currentpoint cairo_store_point } bind def
/TJ {
  {
    dup
    type /stringtype eq
    { show } { -0.001 mul 0 cairo_font_matrix dtransform rmoveto } ifelse
  } forall
  currentpoint cairo_store_point
} bind def
/cairo_selectfont { cairo_font_matrix aload pop pop pop 0 0 6 array astore
    cairo_font exch selectfont cairo_point_x cairo_point_y moveto } bind def
/Tf { pop /cairo_font exch def /cairo_font_matrix where
      { pop cairo_selectfont } if } bind def
/Td { matrix translate cairo_font_matrix matrix concatmatrix dup
      /cairo_font_matrix exch def dup 4 get exch 5 get cairo_store_point
      /cairo_font where { pop cairo_selectfont } if } bind def
/Tm { 2 copy 8 2 roll 6 array astore /cairo_font_matrix exch def
      cairo_store_point /cairo_font where { pop cairo_selectfont } if } bind def
/g { setgray } bind def
/rg { setrgbcolor } bind def
/d1 { setcachedevice } bind def
%%EndProlog
%%Page: 1 1
%%BeginPageSetup
%%PageBoundingBox: 0 -1 15 13
%%EndPageSetup
q 0 -1 15 14 rectclip q
0 12.244 15 -13 re W n
0 g
5.203 5.127 m 5.121 5.127 5.047 5.096 4.988 5.037 c 4.93 4.982 4.898 
4.904 4.898 4.822 c 4.906 2.783 l 0.82 2.783 l 0.82 11.557 l 6.832 
11.557 l 6.832 10.471 l 6.953 10.553 7.098 10.599 7.258 10.599 c 7.695 
10.599 l 7.695 11.971 l 7.695 12.119 7.57 12.244 7.422 12.244 c 0.273 
12.244 l 0.125 12.244 0 12.123 0 11.971 c 0 2.334 l 0 2.182 0.121 2.06 
0.273 2.06 c 5.605 2.06 l 5.684 2.06 5.758 2.092 5.809 2.15 c 6.492 
2.916 l 6.492 5.127 l h
5.203 5.127 m f
4.383 6.01 m 6.152 7.471 l 6.152 7.471 6.289 7.588 6.164 7.717 c 5.992 
7.889 4.34 9.131 4.34 9.131 c 4.34 9.131 4.121 9.353 4.121 9.06 c 4.121 
8.299 l 1.582 8.299 l 1.582 8.299 1.477 8.303 1.477 8.166 c 1.477 7.006 
l 1.477 6.818 1.605 6.849 1.605 6.849 c 4.176 6.849 l 4.176 6.025 l 
4.172 5.787 4.383 6.01 4.383 6.01 c h
4.383 6.01 m f
14.191 10.185 m 7.043 10.185 l 6.891 10.185 6.77 10.06 6.77 9.912 c 
6.77 0.275 l 6.77 0.123 6.891 0.002 7.043 0.002 c 12.375 0.002 l 12.453 
0.002 12.527 0.033 12.578 0.092 c 14.395 2.123 l 14.441 2.174 14.465 
2.24 14.465 2.307 c 14.465 9.908 l 14.465 10.06 14.34 10.185 14.191 
10.185 c h
13.602 3.068 m 11.973 3.068 l 11.891 3.068 11.816 3.037 11.758 2.978 c 
11.699 2.924 11.668 2.846 11.668 2.764 c 11.676 0.724 l 7.594 0.724 l 
7.594 9.498 l 13.602 9.498 l h
13.602 3.068 m f
10.125 3.521 m 10.125 3.521 10.344 3.303 10.344 3.596 c 10.344 4.357 l 
12.879 4.357 l 12.879 4.357 12.988 4.353 12.988 4.486 c 12.988 5.646 l 
12.988 5.838 12.863 5.803 12.863 5.803 c 10.289 5.803 l 10.289 6.627 l 
10.289 6.869 10.082 6.646 10.082 6.646 c 8.312 5.185 l 8.312 5.185 
8.172 5.064 8.301 4.939 c 8.473 4.767 10.125 3.521 10.125 3.521 c h
10.125 3.521 m f
Q Q
showpage
%%Trailer
count op_count sub {pop} repeat
countdictstack dict_count sub {end} repeat
cairo_eps_state restore
%%EOF
