%!PS-Adobe-3.0 EPSF-3.0
%%Creator: cairo 1.10.2 (http://cairographics.org)
%%CreationDate: Fri Jul  4 09:48:18 2014
%%Pages: 1
%%BoundingBox: 0 -1 55 53
%%DocumentData: Clean7Bit
%%LanguageLevel: 2
%%EndComments
%%BeginProlog
/cairo_eps_state save def
/dict_count countdictstack def
/op_count count 1 sub def
userdict begin
/q { gsave } bind def
/Q { grestore } bind def
/cm { 6 array astore concat } bind def
/w { setlinewidth } bind def
/J { setlinecap } bind def
/j { setlinejoin } bind def
/M { setmiterlimit } bind def
/d { setdash } bind def
/m { moveto } bind def
/l { lineto } bind def
/c { curveto } bind def
/h { closepath } bind def
/re { exch dup neg 3 1 roll 5 3 roll moveto 0 rlineto
      0 exch rlineto 0 rlineto closepath } bind def
/S { stroke } bind def
/f { fill } bind def
/f* { eofill } bind def
/n { newpath } bind def
/W { clip } bind def
/W* { eoclip } bind def
/BT { } bind def
/ET { } bind def
/pdfmark where { pop globaldict /?pdfmark /exec load put }
    { globaldict begin /?pdfmark /pop load def /pdfmark
    /cleartomark load def end } ifelse
/BDC { mark 3 1 roll /BDC pdfmark } bind def
/EMC { mark /EMC pdfmark } bind def
/cairo_store_point { /cairo_point_y exch def /cairo_point_x exch def } def
/Tj { show currentpoint cairo_store_point } bind def
/TJ {
  {
    dup
    type /stringtype eq
    { show } { -0.001 mul 0 cairo_font_matrix dtransform rmoveto } ifelse
  } forall
  currentpoint cairo_store_point
} bind def
/cairo_selectfont { cairo_font_matrix aload pop pop pop 0 0 6 array astore
    cairo_font exch selectfont cairo_point_x cairo_point_y moveto } bind def
/Tf { pop /cairo_font exch def /cairo_font_matrix where
      { pop cairo_selectfont } if } bind def
/Td { matrix translate cairo_font_matrix matrix concatmatrix dup
      /cairo_font_matrix exch def dup 4 get exch 5 get cairo_store_point
      /cairo_font where { pop cairo_selectfont } if } bind def
/Tm { 2 copy 8 2 roll 6 array astore /cairo_font_matrix exch def
      cairo_store_point /cairo_font where { pop cairo_selectfont } if } bind def
/g { setgray } bind def
/rg { setrgbcolor } bind def
/d1 { setcachedevice } bind def
%%EndProlog
%%Page: 1 1
%%BeginPageSetup
%%PageBoundingBox: 0 -1 55 53
%%EndPageSetup
q 0 -1 55 54 rectclip q
0 52.145 55 -53 re W n
0 g
52.066 7.973 m 34.242 7.973 l 34.242 9.067 l 34.242 10.102 33.402 
10.942 32.363 10.942 c 22.203 10.942 l 21.168 10.942 20.328 10.102 
20.328 9.067 c 20.328 7.973 l 2.5 7.973 l 1.121 7.973 0 6.852 0 5.473 c 
0 4.09 1.121 2.969 2.5 2.969 c 20.328 2.969 l 20.328 1.875 l 20.328 
0.84 21.168 0 22.203 0 c 32.363 0 l 33.402 0 34.238 0.84 34.238 1.875 c 
34.238 2.969 l 52.066 2.969 l 53.445 2.969 54.566 4.09 54.566 5.473 c 
54.566 6.852 53.445 7.973 52.066 7.973 c h
30.488 7.192 m 30.488 3.75 l 24.078 3.75 l 24.078 7.192 l h
30.488 7.192 m f
43.832 29.43 m 10.734 29.43 l 10.734 24.27 l 43.832 24.27 l h
14.539 25.602 m 12.039 25.602 l 12.039 28.102 l 14.539 28.102 l h
18.293 25.602 m 15.789 25.602 l 15.789 28.102 l 18.293 28.102 l h
22.043 25.602 m 19.543 25.602 l 19.543 28.102 l 22.043 28.102 l h
22.043 25.602 m f
43.832 41.938 m 10.734 41.938 l 10.734 36.778 l 43.832 36.778 l h
14.539 38.106 m 12.039 38.106 l 12.039 40.61 l 14.539 40.61 l h
18.293 38.106 m 15.789 38.106 l 15.789 40.61 l 18.293 40.61 l h
22.043 38.106 m 19.543 38.106 l 19.543 40.61 l 22.043 40.61 l h
22.043 38.106 m f
50.465 52.145 m 4.105 52.145 l 3.445 52.145 2.812 51.883 2.348 51.418 c 
1.883 50.949 1.621 50.317 1.621 49.66 c 1.621 16.543 l 1.621 15.86 
1.898 15.239 2.348 14.789 c 2.797 14.34 3.418 14.059 4.105 14.059 c 
50.465 14.059 l 51.125 14.059 51.754 14.324 52.223 14.789 c 52.684 
15.254 52.949 15.887 52.949 16.543 c 52.949 49.66 l 52.949 51.032 
51.836 52.145 50.465 52.145 c h
46.332 21.77 m 8.234 21.77 l 8.234 31.93 l 46.332 31.93 l h
46.332 34.278 m 8.234 34.278 l 8.234 44.438 l 46.332 44.438 l h
46.332 34.278 m f
Q Q
showpage
%%Trailer
count op_count sub {pop} repeat
countdictstack dict_count sub {end} repeat
cairo_eps_state restore
%%EOF
