%!PS-Adobe-3.0 EPSF-3.0
%%Creator: cairo 1.10.2 (http://cairographics.org)
%%CreationDate: Fri Jul  4 09:43:13 2014
%%Pages: 1
%%BoundingBox: 0 -1 12 13
%%DocumentData: Clean7Bit
%%LanguageLevel: 2
%%EndComments
%%BeginProlog
/cairo_eps_state save def
/dict_count countdictstack def
/op_count count 1 sub def
userdict begin
/q { gsave } bind def
/Q { grestore } bind def
/cm { 6 array astore concat } bind def
/w { setlinewidth } bind def
/J { setlinecap } bind def
/j { setlinejoin } bind def
/M { setmiterlimit } bind def
/d { setdash } bind def
/m { moveto } bind def
/l { lineto } bind def
/c { curveto } bind def
/h { closepath } bind def
/re { exch dup neg 3 1 roll 5 3 roll moveto 0 rlineto
      0 exch rlineto 0 rlineto closepath } bind def
/S { stroke } bind def
/f { fill } bind def
/f* { eofill } bind def
/n { newpath } bind def
/W { clip } bind def
/W* { eoclip } bind def
/BT { } bind def
/ET { } bind def
/pdfmark where { pop globaldict /?pdfmark /exec load put }
    { globaldict begin /?pdfmark /pop load def /pdfmark
    /cleartomark load def end } ifelse
/BDC { mark 3 1 roll /BDC pdfmark } bind def
/EMC { mark /EMC pdfmark } bind def
/cairo_store_point { /cairo_point_y exch def /cairo_point_x exch def } def
/Tj { show currentpoint cairo_store_point } bind def
/TJ {
  {
    dup
    type /stringtype eq
    { show } { -0.001 mul 0 cairo_font_matrix dtransform rmoveto } ifelse
  } forall
  currentpoint cairo_store_point
} bind def
/cairo_selectfont { cairo_font_matrix aload pop pop pop 0 0 6 array astore
    cairo_font exch selectfont cairo_point_x cairo_point_y moveto } bind def
/Tf { pop /cairo_font exch def /cairo_font_matrix where
      { pop cairo_selectfont } if } bind def
/Td { matrix translate cairo_font_matrix matrix concatmatrix dup
      /cairo_font_matrix exch def dup 4 get exch 5 get cairo_store_point
      /cairo_font where { pop cairo_selectfont } if } bind def
/Tm { 2 copy 8 2 roll 6 array astore /cairo_font_matrix exch def
      cairo_store_point /cairo_font where { pop cairo_selectfont } if } bind def
/g { setgray } bind def
/rg { setrgbcolor } bind def
/d1 { setcachedevice } bind def
%%EndProlog
%%Page: 1 1
%%BeginPageSetup
%%PageBoundingBox: 0 -1 12 13
%%EndPageSetup
q 0 -1 12 14 rectclip q
0 12.8 12 -13 re W n
0 g
10.398 12.8 m 0.801 12.8 l 0.359 12.8 0 12.441 0 11.999 c 0 0.8 l 0 
0.359 0.359 -0.001 0.801 -0.001 c 10.398 -0.001 l 10.84 -0.001 11.199 
0.359 11.199 0.8 c 11.199 11.999 l 11.199 12.441 10.84 12.8 10.398 12.8 
c h
10.398 0.8 m 0.801 0.8 l 0.801 11.999 l 10.398 11.999 l h
10.398 0.8 m f
5.199 9.601 m 8.398 9.601 l 8.621 9.601 8.801 9.78 8.801 9.999 c 8.801 
10.222 8.621 10.402 8.398 10.402 c 5.199 10.402 l 4.98 10.402 4.801 
10.222 4.801 9.999 c 4.801 9.78 4.98 9.601 5.199 9.601 c h
5.199 9.601 m f
2.801 7.198 m 8.398 7.198 l 8.621 7.198 8.801 7.378 8.801 7.601 c 8.801 
7.82 8.621 7.999 8.398 7.999 c 2.801 7.999 l 2.578 7.999 2.398 7.82 
2.398 7.601 c 2.398 7.378 2.578 7.198 2.801 7.198 c h
2.801 7.198 m f
2.801 4.8 m 8.398 4.8 l 8.621 4.8 8.801 4.98 8.801 5.198 c 8.801 5.421 
8.621 5.601 8.398 5.601 c 2.801 5.601 l 2.578 5.601 2.398 5.421 2.398 
5.198 c 2.398 4.98 2.578 4.8 2.801 4.8 c h
2.801 4.8 m f
2.801 2.402 m 8.398 2.402 l 8.621 2.402 8.801 2.581 8.801 2.8 c 8.801 
3.019 8.621 3.198 8.398 3.198 c 2.801 3.198 l 2.578 3.198 2.398 3.019 
2.398 2.8 c 2.398 2.581 2.578 2.402 2.801 2.402 c h
2.801 2.402 m f
Q Q
showpage
%%Trailer
count op_count sub {pop} repeat
countdictstack dict_count sub {end} repeat
cairo_eps_state restore
%%EOF
