%!PS-Adobe-3.0 EPSF-3.0
%%Creator: cairo 1.10.2 (http://cairographics.org)
%%CreationDate: Fri Jul  4 10:14:38 2014
%%Pages: 1
%%BoundingBox: 0 -1 24 24
%%DocumentData: Clean7Bit
%%LanguageLevel: 2
%%EndComments
%%BeginProlog
/cairo_eps_state save def
/dict_count countdictstack def
/op_count count 1 sub def
userdict begin
/q { gsave } bind def
/Q { grestore } bind def
/cm { 6 array astore concat } bind def
/w { setlinewidth } bind def
/J { setlinecap } bind def
/j { setlinejoin } bind def
/M { setmiterlimit } bind def
/d { setdash } bind def
/m { moveto } bind def
/l { lineto } bind def
/c { curveto } bind def
/h { closepath } bind def
/re { exch dup neg 3 1 roll 5 3 roll moveto 0 rlineto
      0 exch rlineto 0 rlineto closepath } bind def
/S { stroke } bind def
/f { fill } bind def
/f* { eofill } bind def
/n { newpath } bind def
/W { clip } bind def
/W* { eoclip } bind def
/BT { } bind def
/ET { } bind def
/pdfmark where { pop globaldict /?pdfmark /exec load put }
    { globaldict begin /?pdfmark /pop load def /pdfmark
    /cleartomark load def end } ifelse
/BDC { mark 3 1 roll /BDC pdfmark } bind def
/EMC { mark /EMC pdfmark } bind def
/cairo_store_point { /cairo_point_y exch def /cairo_point_x exch def } def
/Tj { show currentpoint cairo_store_point } bind def
/TJ {
  {
    dup
    type /stringtype eq
    { show } { -0.001 mul 0 cairo_font_matrix dtransform rmoveto } ifelse
  } forall
  currentpoint cairo_store_point
} bind def
/cairo_selectfont { cairo_font_matrix aload pop pop pop 0 0 6 array astore
    cairo_font exch selectfont cairo_point_x cairo_point_y moveto } bind def
/Tf { pop /cairo_font exch def /cairo_font_matrix where
      { pop cairo_selectfont } if } bind def
/Td { matrix translate cairo_font_matrix matrix concatmatrix dup
      /cairo_font_matrix exch def dup 4 get exch 5 get cairo_store_point
      /cairo_font where { pop cairo_selectfont } if } bind def
/Tm { 2 copy 8 2 roll 6 array astore /cairo_font_matrix exch def
      cairo_store_point /cairo_font where { pop cairo_selectfont } if } bind def
/g { setgray } bind def
/rg { setrgbcolor } bind def
/d1 { setcachedevice } bind def
%%EndProlog
%%Page: 1 1
%%BeginPageSetup
%%PageBoundingBox: 0 -1 24 24
%%EndPageSetup
q 0 -1 24 25 rectclip q
0 23.984 24 -24 re W n
0 g
12.715 8.527 m 12.715 8.179 12.637 7.878 12.488 7.617 c 12.207 7.105 
11.691 6.832 10.945 6.796 c 10.945 10.242 l 11.492 10.093 11.879 9.937 
12.109 9.773 c 12.512 9.488 12.715 9.074 12.715 8.527 c h
9.094 14.144 m 8.848 13.816 8.727 13.476 8.727 13.117 c 8.727 12.683 
8.867 12.347 9.156 12.101 c 9.445 11.855 9.836 11.683 10.32 11.589 c 
10.32 14.668 l 9.746 14.644 9.336 14.472 9.094 14.144 c h
23.602 23.585 m 24.422 22.761 23.934 20.976 22.484 19.527 c 21.871 
18.918 21.207 18.488 20.574 18.242 c 20.32 13.238 l 20.27 12.304 19.691 
10.996 19.027 10.335 c 9.191 0.496 l 8.527 -0.165 7.445 -0.165 6.781 
0.496 c 0.496 6.785 l -0.164 7.445 -0.164 8.527 0.496 9.191 c 10.336 
19.031 l 10.996 19.691 12.305 20.273 13.238 20.32 c 18.266 20.574 l 
18.512 21.199 18.938 21.859 19.543 22.464 c 20.992 23.918 22.777 24.41 
23.602 23.585 c h
13.891 8.847 m 13.891 9.652 13.598 10.257 13.004 10.668 c 12.645 10.914 
11.957 11.183 10.945 11.464 c 10.945 14.656 l 11.547 14.632 11.984 
14.402 12.262 13.96 c 12.406 13.718 12.5 13.433 12.527 13.105 c 13.676 
13.105 l 13.652 13.843 13.41 14.441 12.945 14.89 c 12.48 15.339 11.812 
15.593 10.945 15.656 c 10.945 16.515 l 10.32 16.515 l 10.32 15.644 l 
9.445 15.632 8.766 15.363 8.277 14.828 c 7.789 14.296 7.547 13.699 
7.547 13.039 c 7.547 12.293 7.77 11.714 8.227 11.293 c 8.676 10.875 
9.375 10.578 10.32 10.394 c 10.32 6.828 l 9.582 6.89 9.078 7.168 8.805 
7.66 c 8.652 7.937 8.555 8.375 8.523 8.968 c 7.363 8.968 l 7.363 8.218 
7.488 7.621 7.738 7.183 c 8.191 6.367 9.055 5.918 10.32 5.832 c 10.32 
4.562 l 10.945 4.562 l 10.945 5.832 l 11.734 5.921 12.34 6.101 12.758 
6.371 c 13.512 6.863 13.891 7.687 13.891 8.847 c h
19.625 18.019 m 19.141 17.992 18.719 18.113 18.422 18.406 c 18.121 
18.707 18 19.14 18.031 19.636 c 17.965 19.589 17.898 19.543 17.84 19.48 
c 17.391 19.031 17.391 18.296 17.84 17.839 c 18.293 17.39 19.027 17.39 
19.48 17.839 c 19.535 17.898 19.582 17.957 19.625 18.019 c h
19.48 19.48 m 19.211 19.753 18.836 19.859 18.488 19.804 c 18.41 19.347 
18.48 18.957 18.727 18.707 c 18.969 18.464 19.352 18.394 19.801 18.464 
c 19.859 18.824 19.758 19.207 19.48 19.48 c h
19.844 22.164 m 19.348 21.671 18.977 21.121 18.738 20.601 c 19 20.613 l 
19.934 20.664 20.66 19.937 20.613 19 c 20.598 18.718 l 21.125 18.953 
21.68 19.328 22.18 19.828 c 23.422 21.07 23.93 22.652 23.297 23.285 c 
22.664 23.918 21.082 23.406 19.844 22.164 c h
19.844 22.164 m f
Q Q
showpage
%%Trailer
count op_count sub {pop} repeat
countdictstack dict_count sub {end} repeat
cairo_eps_state restore
%%EOF
