%!PS-Adobe-3.0 EPSF-3.0
%%Creator: cairo 1.10.2 (http://cairographics.org)
%%CreationDate: Mon Aug 11 09:22:05 2014
%%Pages: 1
%%BoundingBox: 0 -1 777 769
%%DocumentData: Clean7Bit
%%LanguageLevel: 2
%%EndComments
%%BeginProlog
/cairo_eps_state save def
/dict_count countdictstack def
/op_count count 1 sub def
userdict begin
/q { gsave } bind def
/Q { grestore } bind def
/cm { 6 array astore concat } bind def
/w { setlinewidth } bind def
/J { setlinecap } bind def
/j { setlinejoin } bind def
/M { setmiterlimit } bind def
/d { setdash } bind def
/m { moveto } bind def
/l { lineto } bind def
/c { curveto } bind def
/h { closepath } bind def
/re { exch dup neg 3 1 roll 5 3 roll moveto 0 rlineto
      0 exch rlineto 0 rlineto closepath } bind def
/S { stroke } bind def
/f { fill } bind def
/f* { eofill } bind def
/n { newpath } bind def
/W { clip } bind def
/W* { eoclip } bind def
/BT { } bind def
/ET { } bind def
/pdfmark where { pop globaldict /?pdfmark /exec load put }
    { globaldict begin /?pdfmark /pop load def /pdfmark
    /cleartomark load def end } ifelse
/BDC { mark 3 1 roll /BDC pdfmark } bind def
/EMC { mark /EMC pdfmark } bind def
/cairo_store_point { /cairo_point_y exch def /cairo_point_x exch def } def
/Tj { show currentpoint cairo_store_point } bind def
/TJ {
  {
    dup
    type /stringtype eq
    { show } { -0.001 mul 0 cairo_font_matrix dtransform rmoveto } ifelse
  } forall
  currentpoint cairo_store_point
} bind def
/cairo_selectfont { cairo_font_matrix aload pop pop pop 0 0 6 array astore
    cairo_font exch selectfont cairo_point_x cairo_point_y moveto } bind def
/Tf { pop /cairo_font exch def /cairo_font_matrix where
      { pop cairo_selectfont } if } bind def
/Td { matrix translate cairo_font_matrix matrix concatmatrix dup
      /cairo_font_matrix exch def dup 4 get exch 5 get cairo_store_point
      /cairo_font where { pop cairo_selectfont } if } bind def
/Tm { 2 copy 8 2 roll 6 array astore /cairo_font_matrix exch def
      cairo_store_point /cairo_font where { pop cairo_selectfont } if } bind def
/g { setgray } bind def
/rg { setrgbcolor } bind def
/d1 { setcachedevice } bind def
%%EndProlog
%%Page: 1 1
%%BeginPageSetup
%%PageBoundingBox: 0 -1 777 769
%%EndPageSetup
q 0 -1 777 770 rectclip q
0 768.502 777 -769 re W n
0 g
35.34 596.24 m 326.461 359.119 l 344.141 344.72 365.582 337.521 387.102 
337.521 c 408.621 337.521 430.062 344.72 447.742 359.119 c 741.102 
598.08 l 782.223 631.599 788.383 692.002 754.863 733.119 c 721.422 
774.24 660.941 780.4 619.82 746.959 c 387.102 557.361 l 156.621 745.119 
l 115.5 778.56 55.02 772.4 21.582 731.279 c -11.938 690.162 -5.699 
629.759 35.34 596.24 c h
35.34 596.24 m f
35.34 258.72 m 326.461 21.599 l 344.141 7.201 365.582 0.002 387.102 
0.002 c 408.621 0.002 430.062 7.201 447.742 21.599 c 741.102 260.56 l 
782.223 294.08 788.383 354.478 754.863 395.599 c 721.34 436.72 660.941 
442.88 619.82 409.361 c 387.102 219.841 l 156.621 407.521 l 115.5 
441.041 55.02 434.798 21.582 393.759 c -11.938 352.638 -5.699 292.162 
35.34 258.72 c h
35.34 258.72 m f
Q Q
showpage
%%Trailer
count op_count sub {pop} repeat
countdictstack dict_count sub {end} repeat
cairo_eps_state restore
%%EOF
