%!PS-Adobe-3.0 EPSF-3.0
%%Creator: cairo 1.10.2 (http://cairographics.org)
%%CreationDate: Mon Aug 25 07:15:58 2014
%%Pages: 1
%%BoundingBox: 0 -1 754 591
%%DocumentData: Clean7Bit
%%LanguageLevel: 2
%%EndComments
%%BeginProlog
/cairo_eps_state save def
/dict_count countdictstack def
/op_count count 1 sub def
userdict begin
/q { gsave } bind def
/Q { grestore } bind def
/cm { 6 array astore concat } bind def
/w { setlinewidth } bind def
/J { setlinecap } bind def
/j { setlinejoin } bind def
/M { setmiterlimit } bind def
/d { setdash } bind def
/m { moveto } bind def
/l { lineto } bind def
/c { curveto } bind def
/h { closepath } bind def
/re { exch dup neg 3 1 roll 5 3 roll moveto 0 rlineto
      0 exch rlineto 0 rlineto closepath } bind def
/S { stroke } bind def
/f { fill } bind def
/f* { eofill } bind def
/n { newpath } bind def
/W { clip } bind def
/W* { eoclip } bind def
/BT { } bind def
/ET { } bind def
/pdfmark where { pop globaldict /?pdfmark /exec load put }
    { globaldict begin /?pdfmark /pop load def /pdfmark
    /cleartomark load def end } ifelse
/BDC { mark 3 1 roll /BDC pdfmark } bind def
/EMC { mark /EMC pdfmark } bind def
/cairo_store_point { /cairo_point_y exch def /cairo_point_x exch def } def
/Tj { show currentpoint cairo_store_point } bind def
/TJ {
  {
    dup
    type /stringtype eq
    { show } { -0.001 mul 0 cairo_font_matrix dtransform rmoveto } ifelse
  } forall
  currentpoint cairo_store_point
} bind def
/cairo_selectfont { cairo_font_matrix aload pop pop pop 0 0 6 array astore
    cairo_font exch selectfont cairo_point_x cairo_point_y moveto } bind def
/Tf { pop /cairo_font exch def /cairo_font_matrix where
      { pop cairo_selectfont } if } bind def
/Td { matrix translate cairo_font_matrix matrix concatmatrix dup
      /cairo_font_matrix exch def dup 4 get exch 5 get cairo_store_point
      /cairo_font where { pop cairo_selectfont } if } bind def
/Tm { 2 copy 8 2 roll 6 array astore /cairo_font_matrix exch def
      cairo_store_point /cairo_font where { pop cairo_selectfont } if } bind def
/g { setgray } bind def
/rg { setrgbcolor } bind def
/d1 { setcachedevice } bind def
%%EndProlog
%%Page: 1 1
%%BeginPageSetup
%%PageBoundingBox: 0 -1 754 591
%%EndPageSetup
q 0 -1 754 592 rectclip q
0 590.4 754 -591 re W n
0.117647 0.0705882 0.0509804 rg
0 590.4 m 0 86.4 l 71.441 86.4 l 81.176 37.209 124.645 0.002 176.652 
0.002 c 228.656 0.002 272.129 37.209 281.863 86.4 c 471.738 86.4 l 
481.473 37.209 524.945 0.002 576.949 0.002 c 628.957 0.002 672.426 
37.209 682.16 86.4 c 753.602 86.4 l 753.602 358.74 l 513.93 590.4 l h
176.652 54.4 m 154.91 54.4 136.199 67.599 128.094 86.4 c 125.336 92.802 
123.801 99.849 123.801 107.252 c 123.801 119.978 128.324 131.666 
135.844 140.798 c 145.547 152.58 160.234 160.103 176.652 160.103 c 
193.066 160.103 207.758 152.58 217.457 140.798 c 224.98 131.67 229.504 
119.978 229.504 107.252 c 229.504 99.849 227.969 92.802 225.207 86.4 c 
217.102 67.599 198.391 54.4 176.652 54.4 c h
576.949 54.4 m 555.207 54.4 536.5 67.599 528.395 86.4 c 525.633 92.802 
524.098 99.849 524.098 107.252 c 524.098 119.978 528.621 131.666 
536.141 140.798 c 545.844 152.58 560.535 160.103 576.949 160.103 c 
593.363 160.103 608.055 152.58 617.754 140.798 c 625.277 131.67 629.801 
119.978 629.801 107.252 c 629.801 99.849 628.266 92.802 625.504 86.4 c 
617.398 67.599 598.688 54.4 576.949 54.4 c h
699.199 140.798 m 678.82 140.798 l 664.703 183.556 624.375 214.502 
576.949 214.502 c 529.523 214.502 489.195 183.556 475.078 140.798 c 
278.523 140.798 l 264.406 183.556 224.078 214.502 176.652 214.502 c 
129.227 214.502 88.898 183.556 74.781 140.798 c 54.398 140.798 l 54.398 
536.002 l 475.734 536.002 l 475.734 320.002 l 699.199 320.002 l h
530.133 374.4 m 530.133 499.08 l 659.121 374.4 l h
530.133 374.4 m f
91.805 320.002 m 440.801 320.002 l 440.801 505.693 l 91.805 505.693 l h
146.203 451.295 m 386.398 451.295 l 386.398 374.4 l 146.203 374.4 l h
146.203 451.295 m f
Q Q
showpage
%%Trailer
count op_count sub {pop} repeat
countdictstack dict_count sub {end} repeat
cairo_eps_state restore
%%EOF
