%!PS-Adobe-3.0 EPSF-3.0
%%Creator: cairo 1.10.2 (http://cairographics.org)
%%CreationDate: Fri Jul  4 09:11:56 2014
%%Pages: 1
%%BoundingBox: 0 -1 49 35
%%DocumentData: Clean7Bit
%%LanguageLevel: 2
%%EndComments
%%BeginProlog
/cairo_eps_state save def
/dict_count countdictstack def
/op_count count 1 sub def
userdict begin
/q { gsave } bind def
/Q { grestore } bind def
/cm { 6 array astore concat } bind def
/w { setlinewidth } bind def
/J { setlinecap } bind def
/j { setlinejoin } bind def
/M { setmiterlimit } bind def
/d { setdash } bind def
/m { moveto } bind def
/l { lineto } bind def
/c { curveto } bind def
/h { closepath } bind def
/re { exch dup neg 3 1 roll 5 3 roll moveto 0 rlineto
      0 exch rlineto 0 rlineto closepath } bind def
/S { stroke } bind def
/f { fill } bind def
/f* { eofill } bind def
/n { newpath } bind def
/W { clip } bind def
/W* { eoclip } bind def
/BT { } bind def
/ET { } bind def
/pdfmark where { pop globaldict /?pdfmark /exec load put }
    { globaldict begin /?pdfmark /pop load def /pdfmark
    /cleartomark load def end } ifelse
/BDC { mark 3 1 roll /BDC pdfmark } bind def
/EMC { mark /EMC pdfmark } bind def
/cairo_store_point { /cairo_point_y exch def /cairo_point_x exch def } def
/Tj { show currentpoint cairo_store_point } bind def
/TJ {
  {
    dup
    type /stringtype eq
    { show } { -0.001 mul 0 cairo_font_matrix dtransform rmoveto } ifelse
  } forall
  currentpoint cairo_store_point
} bind def
/cairo_selectfont { cairo_font_matrix aload pop pop pop 0 0 6 array astore
    cairo_font exch selectfont cairo_point_x cairo_point_y moveto } bind def
/Tf { pop /cairo_font exch def /cairo_font_matrix where
      { pop cairo_selectfont } if } bind def
/Td { matrix translate cairo_font_matrix matrix concatmatrix dup
      /cairo_font_matrix exch def dup 4 get exch 5 get cairo_store_point
      /cairo_font where { pop cairo_selectfont } if } bind def
/Tm { 2 copy 8 2 roll 6 array astore /cairo_font_matrix exch def
      cairo_store_point /cairo_font where { pop cairo_selectfont } if } bind def
/g { setgray } bind def
/rg { setrgbcolor } bind def
/d1 { setcachedevice } bind def
%%EndProlog
%%Page: 1 1
%%BeginPageSetup
%%PageBoundingBox: 0 -1 49 35
%%EndPageSetup
q 0 -1 49 36 rectclip q
0 34.945 49 -35 re W n
0 g
41.777 24.332 m 44.164 27.21 l 41.086 29.761 l 38.656 26.832 l 36.41 
28.374 33.984 29.55 31.453 30.332 c 31.926 34.492 l 27.949 34.945 l 
27.527 31.21 l 26.441 31.363 25.344 31.441 24.238 31.441 c 23.219 
31.441 22.203 31.367 21.195 31.238 c 20.777 34.945 l 16.801 34.496 l 
17.266 30.41 l 14.707 29.648 12.254 28.48 9.98 26.941 c 7.641 29.765 l 
4.562 27.21 l 6.84 24.46 l 4.766 22.582 2.898 20.367 1.32 17.839 c 0 
15.718 l 1.32 13.601 l 6.633 5.085 15.203 -0.001 24.238 -0.001 c 33.277 
-0.001 41.844 5.085 47.16 13.605 c 48.48 15.722 l 47.16 17.839 l 45.617 
20.308 43.797 22.476 41.777 24.332 c h
24.238 3.999 m 16.246 3.999 9.152 8.609 4.715 15.722 c 9.152 22.835 
16.246 27.441 24.238 27.441 c 32.234 27.441 39.328 22.835 43.766 15.718 
c 39.328 8.605 32.234 3.999 24.238 3.999 c h
24.238 3.999 m f
32.266 18.078 m 32.449 17.39 32.559 16.671 32.559 15.921 c 32.559 
11.335 28.828 7.605 24.238 7.605 c 19.652 7.605 15.922 11.335 15.922 
15.921 c 15.922 20.511 19.652 24.242 24.238 24.242 c 24.73 24.242 
25.203 24.191 25.672 24.109 c 26.133 24.64 26.719 25.058 27.379 25.324 
c 26.395 25.656 25.34 25.839 24.238 25.839 c 18.762 25.839 14.324 
21.402 14.324 15.921 c 14.324 10.445 18.762 6.007 24.238 6.007 c 29.719 
6.007 34.156 10.445 34.156 15.921 c 34.156 17.335 33.859 18.679 33.324 
19.894 c 33.117 19.207 32.75 18.585 32.266 18.078 c h
32.266 18.078 m f
24.566 21.175 m 24.566 21.613 24.633 22.035 24.75 22.433 c 24.582 
22.445 24.41 22.457 24.238 22.457 c 20.633 22.457 17.703 19.535 17.703 
15.921 c 17.703 12.316 20.629 9.386 24.238 9.386 c 27.848 9.386 30.773 
12.312 30.773 15.921 c 30.773 16.296 30.738 16.66 30.676 17.015 c 
30.168 16.816 29.617 16.703 29.039 16.703 c 26.57 16.703 24.566 18.703 
24.566 21.175 c h
24.566 21.175 m f
Q Q
showpage
%%Trailer
count op_count sub {pop} repeat
countdictstack dict_count sub {end} repeat
cairo_eps_state restore
%%EOF
