%!PS-Adobe-3.0 EPSF-3.0
%%Creator: cairo 1.10.2 (http://cairographics.org)
%%CreationDate: Tue Sep 23 15:27:27 2014
%%Pages: 1
%%BoundingBox: 0 -1 55 53
%%DocumentData: Clean7Bit
%%LanguageLevel: 2
%%EndComments
%%BeginProlog
/cairo_eps_state save def
/dict_count countdictstack def
/op_count count 1 sub def
userdict begin
/q { gsave } bind def
/Q { grestore } bind def
/cm { 6 array astore concat } bind def
/w { setlinewidth } bind def
/J { setlinecap } bind def
/j { setlinejoin } bind def
/M { setmiterlimit } bind def
/d { setdash } bind def
/m { moveto } bind def
/l { lineto } bind def
/c { curveto } bind def
/h { closepath } bind def
/re { exch dup neg 3 1 roll 5 3 roll moveto 0 rlineto
      0 exch rlineto 0 rlineto closepath } bind def
/S { stroke } bind def
/f { fill } bind def
/f* { eofill } bind def
/n { newpath } bind def
/W { clip } bind def
/W* { eoclip } bind def
/BT { } bind def
/ET { } bind def
/pdfmark where { pop globaldict /?pdfmark /exec load put }
    { globaldict begin /?pdfmark /pop load def /pdfmark
    /cleartomark load def end } ifelse
/BDC { mark 3 1 roll /BDC pdfmark } bind def
/EMC { mark /EMC pdfmark } bind def
/cairo_store_point { /cairo_point_y exch def /cairo_point_x exch def } def
/Tj { show currentpoint cairo_store_point } bind def
/TJ {
  {
    dup
    type /stringtype eq
    { show } { -0.001 mul 0 cairo_font_matrix dtransform rmoveto } ifelse
  } forall
  currentpoint cairo_store_point
} bind def
/cairo_selectfont { cairo_font_matrix aload pop pop pop 0 0 6 array astore
    cairo_font exch selectfont cairo_point_x cairo_point_y moveto } bind def
/Tf { pop /cairo_font exch def /cairo_font_matrix where
      { pop cairo_selectfont } if } bind def
/Td { matrix translate cairo_font_matrix matrix concatmatrix dup
      /cairo_font_matrix exch def dup 4 get exch 5 get cairo_store_point
      /cairo_font where { pop cairo_selectfont } if } bind def
/Tm { 2 copy 8 2 roll 6 array astore /cairo_font_matrix exch def
      cairo_store_point /cairo_font where { pop cairo_selectfont } if } bind def
/g { setgray } bind def
/rg { setrgbcolor } bind def
/d1 { setcachedevice } bind def
%%EndProlog
%%Page: 1 1
%%BeginPageSetup
%%PageBoundingBox: 0 -1 55 53
%%EndPageSetup
q 0 -1 55 54 rectclip q
0 52.666 55 -53 re W n
0 g
40.5 -0.002 m 39.621 -0.002 38.742 0.217 37.965 0.635 c 27.137 6.467 l 
16.309 0.639 l 14.555 -0.298 12.355 -0.173 10.738 0.936 c 9.078 2.08 
8.223 4.08 8.555 6.037 c 10.672 18.709 l 1.523 27.846 l 0.117 29.248 
-0.359 31.276 0.281 33.147 c 0.918 34.998 2.535 36.327 4.496 36.62 c 
16.945 38.471 l 22.355 49.698 l 23.227 51.502 25.102 52.666 27.137 
52.666 c 29.168 52.666 31.047 51.498 31.914 49.698 c 37.324 38.471 l 
49.77 36.62 l 51.734 36.327 53.352 34.998 53.988 33.147 c 54.629 31.276 
54.156 29.245 52.75 27.846 c 43.594 18.709 l 45.719 6.037 l 46.047 4.08 
45.191 2.077 43.535 0.936 c 42.637 0.323 41.586 -0.002 40.5 -0.002 c h
27.137 9.885 m 27.395 9.885 27.656 9.819 27.895 9.694 c 39.477 3.455 l 
40.172 3.084 41.07 3.131 41.723 3.577 c 42.363 4.018 42.688 4.76 42.562 
5.506 c 40.301 18.995 l 40.219 19.502 40.383 20.026 40.75 20.389 c 
50.488 30.112 l 51.023 30.643 51.203 31.409 50.961 32.108 c 50.715 
32.823 50.078 33.338 49.301 33.455 c 36.016 35.428 l 35.492 35.506 
35.039 35.838 34.809 36.319 c 29.031 48.307 l 28.691 49.01 27.949 
49.467 27.137 49.467 c 26.324 49.467 25.578 49.01 25.234 48.307 c 
19.461 36.319 l 19.234 35.838 18.781 35.506 18.258 35.428 c 4.969 
33.455 l 4.203 33.338 3.551 32.811 3.305 32.104 c 3.066 31.405 3.25 
30.643 3.781 30.112 c 13.52 20.389 l 13.887 20.026 14.051 19.502 13.965 
18.995 c 11.707 5.506 l 11.582 4.76 11.906 4.022 12.551 3.573 c 13.195 
3.135 14.09 3.08 14.797 3.459 c 26.379 9.694 l 26.613 9.819 26.875 
9.885 27.137 9.885 c h
27.137 9.885 m f
9.602 29.44 m 9.219 29.44 8.879 29.717 8.812 30.112 c 8.742 30.545 
9.039 30.959 9.477 31.03 c 10.008 31.116 l 10.445 31.19 10.855 30.889 
10.926 30.455 c 10.996 30.018 10.699 29.608 10.262 29.537 c 9.73 29.448 
l 9.688 29.444 9.645 29.44 9.602 29.44 c h
12.539 29.916 m 12.164 29.916 11.828 30.182 11.758 30.565 c 11.672 
30.998 11.957 31.42 12.391 31.502 c 21.047 33.17 l 24.312 40.662 l 
24.492 41.065 24.965 41.252 25.367 41.077 c 25.773 40.897 25.957 40.428 
25.781 40.022 c 22.348 32.147 l 22.242 31.905 22.023 31.729 21.766 
31.682 c 12.691 29.932 l 12.641 29.92 12.59 29.916 12.539 29.916 c h
12.539 29.916 m f
Q Q
showpage
%%Trailer
count op_count sub {pop} repeat
countdictstack dict_count sub {end} repeat
cairo_eps_state restore
%%EOF
