%!PS-Adobe-3.0 EPSF-3.0
%%Creator: cairo 1.10.2 (http://cairographics.org)
%%CreationDate: Fri Jul  4 09:39:27 2014
%%Pages: 1
%%BoundingBox: 0 -1 14 11
%%DocumentData: Clean7Bit
%%LanguageLevel: 2
%%EndComments
%%BeginProlog
/cairo_eps_state save def
/dict_count countdictstack def
/op_count count 1 sub def
userdict begin
/q { gsave } bind def
/Q { grestore } bind def
/cm { 6 array astore concat } bind def
/w { setlinewidth } bind def
/J { setlinecap } bind def
/j { setlinejoin } bind def
/M { setmiterlimit } bind def
/d { setdash } bind def
/m { moveto } bind def
/l { lineto } bind def
/c { curveto } bind def
/h { closepath } bind def
/re { exch dup neg 3 1 roll 5 3 roll moveto 0 rlineto
      0 exch rlineto 0 rlineto closepath } bind def
/S { stroke } bind def
/f { fill } bind def
/f* { eofill } bind def
/n { newpath } bind def
/W { clip } bind def
/W* { eoclip } bind def
/BT { } bind def
/ET { } bind def
/pdfmark where { pop globaldict /?pdfmark /exec load put }
    { globaldict begin /?pdfmark /pop load def /pdfmark
    /cleartomark load def end } ifelse
/BDC { mark 3 1 roll /BDC pdfmark } bind def
/EMC { mark /EMC pdfmark } bind def
/cairo_store_point { /cairo_point_y exch def /cairo_point_x exch def } def
/Tj { show currentpoint cairo_store_point } bind def
/TJ {
  {
    dup
    type /stringtype eq
    { show } { -0.001 mul 0 cairo_font_matrix dtransform rmoveto } ifelse
  } forall
  currentpoint cairo_store_point
} bind def
/cairo_selectfont { cairo_font_matrix aload pop pop pop 0 0 6 array astore
    cairo_font exch selectfont cairo_point_x cairo_point_y moveto } bind def
/Tf { pop /cairo_font exch def /cairo_font_matrix where
      { pop cairo_selectfont } if } bind def
/Td { matrix translate cairo_font_matrix matrix concatmatrix dup
      /cairo_font_matrix exch def dup 4 get exch 5 get cairo_store_point
      /cairo_font where { pop cairo_selectfont } if } bind def
/Tm { 2 copy 8 2 roll 6 array astore /cairo_font_matrix exch def
      cairo_store_point /cairo_font where { pop cairo_selectfont } if } bind def
/g { setgray } bind def
/rg { setrgbcolor } bind def
/d1 { setcachedevice } bind def
%%EndProlog
%%Page: 1 1
%%BeginPageSetup
%%PageBoundingBox: 0 -1 14 11
%%EndPageSetup
q 0 -1 14 12 rectclip q
0 10.322 14 -11 re W n
0 g
7.973 9.103 m 7.391 9.103 l 7.391 9.704 l 7.992 9.704 l 7.992 9.122 l 
9.18 9.122 l 9.18 8.521 l 7.973 8.521 l h
4.953 0.603 m 5.555 0.603 l 5.555 1.204 l 4.953 1.204 l h
0 6.107 m 0.602 6.107 l 0.602 7.318 l 0 7.318 l h
10.391 7.322 m 11.598 7.322 l 11.598 7.923 l 10.395 7.923 l 10.395 
8.513 l 9.191 8.513 l 9.191 7.911 l 10.391 7.911 l h
12.836 7.314 m 11.602 7.314 l 11.602 6.712 l 12.82 6.712 l 12.82 1.841 
l 11.652 1.841 l 11.652 1.24 l 13.477 1.24 l 13.477 7.314 l h
9.812 1.22 m 9.812 0.618 l 11.617 0.618 l 11.617 1.22 l h
6.719 1.822 m 6.719 2.423 l 4.336 2.423 l 4.336 1.826 l 4.332 1.826 l 
4.332 1.224 l 4.934 1.224 l 4.934 1.822 l h
6.09 3.654 m 6.09 4.255 l 3.707 4.255 l 3.707 3.658 l 3.703 3.658 l 
3.703 2.415 l 4.305 2.415 l 4.305 3.654 l h
6.137 5.482 m 6.137 6.083 l 0.605 6.083 l 0.605 5.482 l 3.086 5.482 l 
3.086 4.271 l 3.688 4.271 l 3.688 5.482 l h
5.559 8.49 m 6.16 8.49 l 6.16 9.72 l 7.379 9.72 l 7.379 10.322 l 5.555 
10.322 l 5.555 9.72 l 5.559 9.72 l h
5.574 0.599 m 5.574 0.001 l 9.777 0.001 l 9.777 0.599 l h
8.555 7.326 m 8.555 7.927 l 6.777 7.927 l 6.777 8.509 l 6.176 8.509 l 
6.176 7.927 l 0.598 7.927 l 0.598 7.326 l h
8.555 7.326 m f
Q Q
showpage
%%Trailer
count op_count sub {pop} repeat
countdictstack dict_count sub {end} repeat
cairo_eps_state restore
%%EOF
