%!PS-Adobe-3.0 EPSF-3.0
%%Creator: cairo 1.10.2 (http://cairographics.org)
%%CreationDate: Fri Jul  4 08:54:34 2014
%%Pages: 1
%%BoundingBox: 0 -1 359 410
%%DocumentData: Clean7Bit
%%LanguageLevel: 2
%%EndComments
%%BeginProlog
/cairo_eps_state save def
/dict_count countdictstack def
/op_count count 1 sub def
userdict begin
/q { gsave } bind def
/Q { grestore } bind def
/cm { 6 array astore concat } bind def
/w { setlinewidth } bind def
/J { setlinecap } bind def
/j { setlinejoin } bind def
/M { setmiterlimit } bind def
/d { setdash } bind def
/m { moveto } bind def
/l { lineto } bind def
/c { curveto } bind def
/h { closepath } bind def
/re { exch dup neg 3 1 roll 5 3 roll moveto 0 rlineto
      0 exch rlineto 0 rlineto closepath } bind def
/S { stroke } bind def
/f { fill } bind def
/f* { eofill } bind def
/n { newpath } bind def
/W { clip } bind def
/W* { eoclip } bind def
/BT { } bind def
/ET { } bind def
/pdfmark where { pop globaldict /?pdfmark /exec load put }
    { globaldict begin /?pdfmark /pop load def /pdfmark
    /cleartomark load def end } ifelse
/BDC { mark 3 1 roll /BDC pdfmark } bind def
/EMC { mark /EMC pdfmark } bind def
/cairo_store_point { /cairo_point_y exch def /cairo_point_x exch def } def
/Tj { show currentpoint cairo_store_point } bind def
/TJ {
  {
    dup
    type /stringtype eq
    { show } { -0.001 mul 0 cairo_font_matrix dtransform rmoveto } ifelse
  } forall
  currentpoint cairo_store_point
} bind def
/cairo_selectfont { cairo_font_matrix aload pop pop pop 0 0 6 array astore
    cairo_font exch selectfont cairo_point_x cairo_point_y moveto } bind def
/Tf { pop /cairo_font exch def /cairo_font_matrix where
      { pop cairo_selectfont } if } bind def
/Td { matrix translate cairo_font_matrix matrix concatmatrix dup
      /cairo_font_matrix exch def dup 4 get exch 5 get cairo_store_point
      /cairo_font where { pop cairo_selectfont } if } bind def
/Tm { 2 copy 8 2 roll 6 array astore /cairo_font_matrix exch def
      cairo_store_point /cairo_font where { pop cairo_selectfont } if } bind def
/g { setgray } bind def
/rg { setrgbcolor } bind def
/d1 { setcachedevice } bind def
%%EndProlog
%%Page: 1 1
%%BeginPageSetup
%%PageBoundingBox: 0 -1 359 410
%%EndPageSetup
q 0 -1 359 411 rectclip q
0 409.6 359 -410 re W n
0 g
331.246 334.354 m 283.156 382.448 l 268.219 397.381 238.719 409.6 
217.602 409.6 c 38.398 409.6 l 17.281 409.6 0 392.319 0 371.202 c 0 
38.401 l 0 17.28 17.281 -0.002 38.398 -0.002 c 320 -0.002 l 341.121 
-0.002 358.398 17.28 358.398 38.401 c 358.398 268.799 l 358.398 289.92 
346.18 319.42 331.246 334.354 c h
230.398 355.373 m 231.277 355.053 232.18 354.702 233.102 354.323 c 
240.328 351.327 245.344 347.85 246.949 346.245 c 295.043 298.147 l 
296.652 296.541 300.129 291.526 303.121 284.303 c 303.504 283.381 
303.855 282.479 304.176 281.6 c 230.398 281.6 l h
307.199 51.202 m 51.199 51.202 l 51.199 358.401 l 204.801 358.401 l 
204.801 255.998 l 307.199 255.998 l h
76.801 204.799 m 281.602 204.799 l 281.602 179.202 l 76.801 179.202 l h
76.801 153.6 m 281.602 153.6 l 281.602 127.998 l 76.801 127.998 l h
76.801 102.401 m 281.602 102.401 l 281.602 76.799 l 76.801 76.799 l h
76.801 102.401 m f
Q Q
showpage
%%Trailer
count op_count sub {pop} repeat
countdictstack dict_count sub {end} repeat
cairo_eps_state restore
%%EOF
