%!PS-Adobe-3.0 EPSF-3.0
%%Creator: cairo 1.10.2 (http://cairographics.org)
%%CreationDate: Fri Jul  4 10:07:48 2014
%%Pages: 1
%%BoundingBox: 0 -1 21 21
%%DocumentData: Clean7Bit
%%LanguageLevel: 2
%%EndComments
%%BeginProlog
/cairo_eps_state save def
/dict_count countdictstack def
/op_count count 1 sub def
userdict begin
/q { gsave } bind def
/Q { grestore } bind def
/cm { 6 array astore concat } bind def
/w { setlinewidth } bind def
/J { setlinecap } bind def
/j { setlinejoin } bind def
/M { setmiterlimit } bind def
/d { setdash } bind def
/m { moveto } bind def
/l { lineto } bind def
/c { curveto } bind def
/h { closepath } bind def
/re { exch dup neg 3 1 roll 5 3 roll moveto 0 rlineto
      0 exch rlineto 0 rlineto closepath } bind def
/S { stroke } bind def
/f { fill } bind def
/f* { eofill } bind def
/n { newpath } bind def
/W { clip } bind def
/W* { eoclip } bind def
/BT { } bind def
/ET { } bind def
/pdfmark where { pop globaldict /?pdfmark /exec load put }
    { globaldict begin /?pdfmark /pop load def /pdfmark
    /cleartomark load def end } ifelse
/BDC { mark 3 1 roll /BDC pdfmark } bind def
/EMC { mark /EMC pdfmark } bind def
/cairo_store_point { /cairo_point_y exch def /cairo_point_x exch def } def
/Tj { show currentpoint cairo_store_point } bind def
/TJ {
  {
    dup
    type /stringtype eq
    { show } { -0.001 mul 0 cairo_font_matrix dtransform rmoveto } ifelse
  } forall
  currentpoint cairo_store_point
} bind def
/cairo_selectfont { cairo_font_matrix aload pop pop pop 0 0 6 array astore
    cairo_font exch selectfont cairo_point_x cairo_point_y moveto } bind def
/Tf { pop /cairo_font exch def /cairo_font_matrix where
      { pop cairo_selectfont } if } bind def
/Td { matrix translate cairo_font_matrix matrix concatmatrix dup
      /cairo_font_matrix exch def dup 4 get exch 5 get cairo_store_point
      /cairo_font where { pop cairo_selectfont } if } bind def
/Tm { 2 copy 8 2 roll 6 array astore /cairo_font_matrix exch def
      cairo_store_point /cairo_font where { pop cairo_selectfont } if } bind def
/g { setgray } bind def
/rg { setrgbcolor } bind def
/d1 { setcachedevice } bind def
%%EndProlog
%%Page: 1 1
%%BeginPageSetup
%%PageBoundingBox: 0 -1 21 21
%%EndPageSetup
q 0 -1 21 22 rectclip q
0 20.8 21 -21 re W n
0 g
12 11.198 m 12 1.87 l 9.395 2.913 l 9.086 3.034 8.801 3.472 8.801 3.667 
c 8.801 11.198 l 12 11.198 l 12 12.8 m 8.801 12.8 l 7.918 12.8 7.199 
12.081 7.199 11.198 c 7.199 3.667 l 7.199 2.784 7.918 1.78 8.801 1.425 
c 12 0.144 l 12.211 0.062 12.41 0.023 12.594 0.023 c 13.184 0.023 
13.602 0.433 13.602 1.105 c 13.602 11.198 l 13.602 12.081 12.883 12.8 
12 12.8 c h
12 12.8 m f
18.648 19.198 m 12.887 12.8 l 7.914 12.8 l 2.152 19.198 l 18.648 19.198 
l 19.199 20.8 m 1.602 20.8 l 0.719 20.8 0 20.081 0 19.198 c 7.199 
11.198 l 13.602 11.198 l 20.801 19.198 l 20.801 20.081 20.082 20.8 
19.199 20.8 c h
19.199 20.8 m f
Q Q
showpage
%%Trailer
count op_count sub {pop} repeat
countdictstack dict_count sub {end} repeat
cairo_eps_state restore
%%EOF
