%!PS-Adobe-3.0 EPSF-3.0
%%Creator: cairo 1.10.2 (http://cairographics.org)
%%CreationDate: Fri Jul  4 09:11:05 2014
%%Pages: 1
%%BoundingBox: 0 -1 359 405
%%DocumentData: Clean7Bit
%%LanguageLevel: 2
%%EndComments
%%BeginProlog
/cairo_eps_state save def
/dict_count countdictstack def
/op_count count 1 sub def
userdict begin
/q { gsave } bind def
/Q { grestore } bind def
/cm { 6 array astore concat } bind def
/w { setlinewidth } bind def
/J { setlinecap } bind def
/j { setlinejoin } bind def
/M { setmiterlimit } bind def
/d { setdash } bind def
/m { moveto } bind def
/l { lineto } bind def
/c { curveto } bind def
/h { closepath } bind def
/re { exch dup neg 3 1 roll 5 3 roll moveto 0 rlineto
      0 exch rlineto 0 rlineto closepath } bind def
/S { stroke } bind def
/f { fill } bind def
/f* { eofill } bind def
/n { newpath } bind def
/W { clip } bind def
/W* { eoclip } bind def
/BT { } bind def
/ET { } bind def
/pdfmark where { pop globaldict /?pdfmark /exec load put }
    { globaldict begin /?pdfmark /pop load def /pdfmark
    /cleartomark load def end } ifelse
/BDC { mark 3 1 roll /BDC pdfmark } bind def
/EMC { mark /EMC pdfmark } bind def
/cairo_store_point { /cairo_point_y exch def /cairo_point_x exch def } def
/Tj { show currentpoint cairo_store_point } bind def
/TJ {
  {
    dup
    type /stringtype eq
    { show } { -0.001 mul 0 cairo_font_matrix dtransform rmoveto } ifelse
  } forall
  currentpoint cairo_store_point
} bind def
/cairo_selectfont { cairo_font_matrix aload pop pop pop 0 0 6 array astore
    cairo_font exch selectfont cairo_point_x cairo_point_y moveto } bind def
/Tf { pop /cairo_font exch def /cairo_font_matrix where
      { pop cairo_selectfont } if } bind def
/Td { matrix translate cairo_font_matrix matrix concatmatrix dup
      /cairo_font_matrix exch def dup 4 get exch 5 get cairo_store_point
      /cairo_font where { pop cairo_selectfont } if } bind def
/Tm { 2 copy 8 2 roll 6 array astore /cairo_font_matrix exch def
      cairo_store_point /cairo_font where { pop cairo_selectfont } if } bind def
/g { setgray } bind def
/rg { setrgbcolor } bind def
/d1 { setcachedevice } bind def
%%EndProlog
%%Page: 1 1
%%BeginPageSetup
%%PageBoundingBox: 0 -1 359 405
%%EndPageSetup
q 0 -1 359 406 rectclip q
0 404.823 359 -405 re W n
0 g
283.008 281.601 m 290.258 286.753 297.211 292.487 303.586 298.858 c 
316.945 312.222 325.883 328.659 328.75 345.147 c 331.895 363.222 
327.281 380.003 316.098 391.19 c 307.176 400.108 295.094 404.823 
281.152 404.823 c 261.301 404.823 240.383 395.292 223.77 378.679 c 
197.176 352.089 181.676 315.382 173.336 289.19 c 167.16 315.511 154.855 
351.046 130.93 374.972 c 118.094 387.811 101.684 394.401 86.191 394.401 
c 73.531 394.401 61.48 389.999 52.488 381.007 c 32.492 361.011 35.195 
325.894 58.523 302.565 c 66.84 294.249 76.562 287.339 86.809 281.601 c 
0 281.601 l 0 179.198 l 25.602 179.198 l 25.602 -0.001 l 332.801 -0.001 
l 332.801 179.202 l 358.398 179.202 l 358.398 281.601 l h
244.129 358.315 m 255.219 369.401 269.059 376.022 281.148 376.022 c 
285.43 376.022 291.434 375.12 295.73 370.823 c 306.141 360.413 300.297 
336.3 283.219 319.226 c 265.641 301.647 241.996 289.558 221.445 281.601 
c 201.176 281.601 l 208.605 304.62 222 336.183 244.129 358.315 c h
67.973 345.245 m 67.691 348.894 67.953 355.745 72.852 360.644 c 76.949 
364.741 82.367 365.601 86.191 365.601 c 94.695 365.601 103.578 361.593 
110.562 354.608 c 124.113 341.061 135.27 319.499 142.832 292.257 c 
143.035 291.522 143.234 290.792 143.43 290.065 c 142.703 290.257 
141.973 290.456 141.234 290.663 c 113.992 298.226 92.434 309.382 78.887 
322.929 c 72.555 329.261 68.578 337.394 67.973 345.245 c h
153.602 25.601 m 51.199 25.601 l 51.199 191.999 l 153.602 191.999 l h
153.602 204.8 m 25.602 204.8 l 25.602 255.999 l 153.602 255.999 l h
307.199 25.601 m 204.801 25.601 l 204.801 191.999 l 307.199 191.999 l h
332.801 204.8 m 204.801 204.8 l 204.801 255.999 l 332.801 255.999 l h
332.801 204.8 m f
Q Q
showpage
%%Trailer
count op_count sub {pop} repeat
countdictstack dict_count sub {end} repeat
cairo_eps_state restore
%%EOF
