%!PS-Adobe-3.0 EPSF-3.0
%%Creator: cairo 1.10.2 (http://cairographics.org)
%%CreationDate: Fri Jul  4 09:27:51 2014
%%Pages: 1
%%BoundingBox: 0 -1 41 41
%%DocumentData: Clean7Bit
%%LanguageLevel: 2
%%EndComments
%%BeginProlog
/cairo_eps_state save def
/dict_count countdictstack def
/op_count count 1 sub def
userdict begin
/q { gsave } bind def
/Q { grestore } bind def
/cm { 6 array astore concat } bind def
/w { setlinewidth } bind def
/J { setlinecap } bind def
/j { setlinejoin } bind def
/M { setmiterlimit } bind def
/d { setdash } bind def
/m { moveto } bind def
/l { lineto } bind def
/c { curveto } bind def
/h { closepath } bind def
/re { exch dup neg 3 1 roll 5 3 roll moveto 0 rlineto
      0 exch rlineto 0 rlineto closepath } bind def
/S { stroke } bind def
/f { fill } bind def
/f* { eofill } bind def
/n { newpath } bind def
/W { clip } bind def
/W* { eoclip } bind def
/BT { } bind def
/ET { } bind def
/pdfmark where { pop globaldict /?pdfmark /exec load put }
    { globaldict begin /?pdfmark /pop load def /pdfmark
    /cleartomark load def end } ifelse
/BDC { mark 3 1 roll /BDC pdfmark } bind def
/EMC { mark /EMC pdfmark } bind def
/cairo_store_point { /cairo_point_y exch def /cairo_point_x exch def } def
/Tj { show currentpoint cairo_store_point } bind def
/TJ {
  {
    dup
    type /stringtype eq
    { show } { -0.001 mul 0 cairo_font_matrix dtransform rmoveto } ifelse
  } forall
  currentpoint cairo_store_point
} bind def
/cairo_selectfont { cairo_font_matrix aload pop pop pop 0 0 6 array astore
    cairo_font exch selectfont cairo_point_x cairo_point_y moveto } bind def
/Tf { pop /cairo_font exch def /cairo_font_matrix where
      { pop cairo_selectfont } if } bind def
/Td { matrix translate cairo_font_matrix matrix concatmatrix dup
      /cairo_font_matrix exch def dup 4 get exch 5 get cairo_store_point
      /cairo_font where { pop cairo_selectfont } if } bind def
/Tm { 2 copy 8 2 roll 6 array astore /cairo_font_matrix exch def
      cairo_store_point /cairo_font where { pop cairo_selectfont } if } bind def
/g { setgray } bind def
/rg { setrgbcolor } bind def
/d1 { setcachedevice } bind def
%%EndProlog
%%Page: 1 1
%%BeginPageSetup
%%PageBoundingBox: 0 -1 41 41
%%EndPageSetup
q 0 -1 41 42 rectclip q
0 40.8 41 -41 re W n
0 g
38.801 40.8 m 2 40.8 l 0.898 40.8 0 39.902 0 38.8 c 0 1.999 l 0 0.898 
0.898 -0.001 2 -0.001 c 38.801 -0.001 l 39.902 -0.001 40.801 0.898 
40.801 1.999 c 40.801 38.8 l 40.801 39.902 39.902 40.8 38.801 40.8 c h
38.398 2.402 m 2.398 2.402 l 2.398 38.402 l 38.398 38.402 l h
38.398 2.402 m f
6.219 4.402 m 34.582 4.402 l 35.586 4.402 36.398 5.214 36.398 6.218 c 
36.398 34.581 l 36.398 35.585 35.586 36.402 34.582 36.402 c 6.219 
36.402 l 5.215 36.402 4.398 35.585 4.398 34.581 c 4.398 6.218 l 4.398 
5.214 5.215 4.402 6.219 4.402 c h
6.801 33.999 m 34 33.999 l 34 6.8 l 6.801 6.8 l h
6.801 33.999 m f
23.141 23.714 m 23.141 23.78 23.141 23.808 23.078 23.808 c 22.832 
23.808 17.781 23.093 16.098 22.968 c 16.066 22.128 16.035 21.159 16.035 
20.32 c 18.031 20.226 l 18.031 12.558 l 18.031 12.495 18 12.433 17.906 
12.402 c 16.254 12.339 l 16.223 11.53 16.223 10.593 16.223 9.753 c 17.5 
9.753 19.152 9.784 20.461 9.784 c 24.762 9.784 l 24.762 12.37 l 23.047 
12.433 l 23.047 15.55 23.113 20.351 23.141 23.714 c h
23.141 23.714 m f
20.121 25.648 m 21.68 25.648 23.047 26.773 23.047 28.456 c 23.047 
29.765 22.082 30.98 20.273 30.98 c 18.562 30.98 17.41 29.702 17.41 
28.394 c 17.41 26.804 18.777 25.648 20.121 25.648 c h
20.121 25.648 m f
Q Q
showpage
%%Trailer
count op_count sub {pop} repeat
countdictstack dict_count sub {end} repeat
cairo_eps_state restore
%%EOF
