%!PS-Adobe-3.0 EPSF-3.0
%%Creator: cairo 1.10.2 (http://cairographics.org)
%%CreationDate: Fri Jul  4 10:07:16 2014
%%Pages: 1
%%BoundingBox: 0 -1 38 36
%%DocumentData: Clean7Bit
%%LanguageLevel: 2
%%EndComments
%%BeginProlog
/cairo_eps_state save def
/dict_count countdictstack def
/op_count count 1 sub def
userdict begin
/q { gsave } bind def
/Q { grestore } bind def
/cm { 6 array astore concat } bind def
/w { setlinewidth } bind def
/J { setlinecap } bind def
/j { setlinejoin } bind def
/M { setmiterlimit } bind def
/d { setdash } bind def
/m { moveto } bind def
/l { lineto } bind def
/c { curveto } bind def
/h { closepath } bind def
/re { exch dup neg 3 1 roll 5 3 roll moveto 0 rlineto
      0 exch rlineto 0 rlineto closepath } bind def
/S { stroke } bind def
/f { fill } bind def
/f* { eofill } bind def
/n { newpath } bind def
/W { clip } bind def
/W* { eoclip } bind def
/BT { } bind def
/ET { } bind def
/pdfmark where { pop globaldict /?pdfmark /exec load put }
    { globaldict begin /?pdfmark /pop load def /pdfmark
    /cleartomark load def end } ifelse
/BDC { mark 3 1 roll /BDC pdfmark } bind def
/EMC { mark /EMC pdfmark } bind def
/cairo_store_point { /cairo_point_y exch def /cairo_point_x exch def } def
/Tj { show currentpoint cairo_store_point } bind def
/TJ {
  {
    dup
    type /stringtype eq
    { show } { -0.001 mul 0 cairo_font_matrix dtransform rmoveto } ifelse
  } forall
  currentpoint cairo_store_point
} bind def
/cairo_selectfont { cairo_font_matrix aload pop pop pop 0 0 6 array astore
    cairo_font exch selectfont cairo_point_x cairo_point_y moveto } bind def
/Tf { pop /cairo_font exch def /cairo_font_matrix where
      { pop cairo_selectfont } if } bind def
/Td { matrix translate cairo_font_matrix matrix concatmatrix dup
      /cairo_font_matrix exch def dup 4 get exch 5 get cairo_store_point
      /cairo_font where { pop cairo_selectfont } if } bind def
/Tm { 2 copy 8 2 roll 6 array astore /cairo_font_matrix exch def
      cairo_store_point /cairo_font where { pop cairo_selectfont } if } bind def
/g { setgray } bind def
/rg { setrgbcolor } bind def
/d1 { setcachedevice } bind def
%%EndProlog
%%Page: 1 1
%%BeginPageSetup
%%PageBoundingBox: 0 -1 38 36
%%EndPageSetup
q 0 -1 38 37 rectclip q
0 35.868 38 -36 re W n
0 g
32.109 15.224 m 32.113 15.239 32.113 15.259 32.117 15.275 c 32.445 
17.095 32.113 23.693 31.621 25.22 c 31.09 26.857 30.395 28.689 28.883 
29.857 c 28.484 31.122 27.789 32.321 26.789 33.329 c 23.438 36.7 17.992 
36.716 14.617 33.368 c 12.203 30.97 11.52 27.493 12.551 24.478 c 11.121 
23.056 l 12.211 21.954 l 12.191 21.935 l 9.871 21.837 l 10.141 19.9 l 
9.852 19.611 l 7.441 19.529 l 7.715 17.489 l 7.473 17.251 l 5.316 
17.419 l 5.5 15.29 l 5.098 14.892 l 2.961 14.868 l 2.586 12.396 l 1.961 
11.779 l 0.301 12.435 l 0 9.829 l 0.598 9.228 l 1.047 8.775 l 13.258 
20.9 l 13.867 20.286 l 1.656 8.157 l 3.484 6.321 l 15.695 18.446 l 
16.406 17.732 l 17.836 19.15 l 20.246 18.31 22.945 18.583 25.168 19.943 
c 25.391 19.388 25.613 18.829 25.844 18.271 c 26.012 17.857 26.168 
17.478 26.305 17.142 c 26.418 16.853 26.527 16.493 26.645 16.107 c 
26.746 15.782 26.852 15.443 26.969 15.111 c 19.918 12.446 l 23.16 
11.431 l 20.711 3.611 l 32.246 0.001 l 34.695 7.821 l 37.551 6.931 l h
25.172 28.45 m 24.789 28.068 24.305 27.861 23.805 27.802 c 23.812 
28.364 23.914 28.825 24.156 29.126 c 24.68 29.786 25.238 30.126 25.848 
30.2 c 25.875 29.568 25.656 28.927 25.172 28.45 c h
21.898 31.743 m 22.809 32.65 24.277 32.642 25.18 31.736 c 25.398 31.513 
25.562 31.259 25.676 30.989 c 24.883 30.876 24.168 30.427 23.527 29.626 
c 23.184 29.193 23.031 28.579 23.02 27.837 c 22.602 27.931 22.207 
28.134 21.887 28.458 c 20.984 29.372 20.988 30.841 21.898 31.743 c h
27.41 16.341 m 27.285 16.751 27.168 17.13 27.043 17.443 c 26.91 17.779 
26.754 18.157 26.582 18.575 c 26.363 19.114 26.109 19.732 25.852 20.392 
c 26.16 20.622 26.461 20.876 26.746 21.157 c 28.738 23.138 29.551 
25.849 29.199 28.435 c 30.008 27.435 30.477 26.15 30.859 24.974 c 31.25 
23.775 31.543 18.677 31.414 16.286 c 31.148 16.693 l 27.715 15.396 l 
27.602 15.712 27.504 16.04 27.41 16.341 c h
31.039 13.943 m 30.98 13.798 30.914 13.665 30.82 13.568 c 30.617 13.353 
30.289 13.31 30.051 13.31 c 29.512 13.31 28.875 13.536 28.539 13.849 c 
28.504 13.88 28.473 13.923 28.441 13.958 c 30.512 14.743 l h
33.645 9.829 m 31.195 2.005 l 22.715 4.657 l 25.164 12.482 l 24.82 
12.591 l 27.66 13.661 l 27.762 13.517 27.871 13.38 27.996 13.263 c 
28.48 12.814 29.305 12.509 30.051 12.509 c 30.617 12.509 31.086 12.685 
31.402 13.017 c 31.453 13.071 31.484 13.138 31.527 13.196 c 33.758 
9.794 l h
33.645 9.829 m f
Q Q
showpage
%%Trailer
count op_count sub {pop} repeat
countdictstack dict_count sub {end} repeat
cairo_eps_state restore
%%EOF
