%!PS-Adobe-3.0 EPSF-3.0
%%Creator: cairo 1.10.2 (http://cairographics.org)
%%CreationDate: Fri Jul 11 07:15:05 2014
%%Pages: 1
%%BoundingBox: 0 -1 26 26
%%DocumentData: Clean7Bit
%%LanguageLevel: 2
%%EndComments
%%BeginProlog
/cairo_eps_state save def
/dict_count countdictstack def
/op_count count 1 sub def
userdict begin
/q { gsave } bind def
/Q { grestore } bind def
/cm { 6 array astore concat } bind def
/w { setlinewidth } bind def
/J { setlinecap } bind def
/j { setlinejoin } bind def
/M { setmiterlimit } bind def
/d { setdash } bind def
/m { moveto } bind def
/l { lineto } bind def
/c { curveto } bind def
/h { closepath } bind def
/re { exch dup neg 3 1 roll 5 3 roll moveto 0 rlineto
      0 exch rlineto 0 rlineto closepath } bind def
/S { stroke } bind def
/f { fill } bind def
/f* { eofill } bind def
/n { newpath } bind def
/W { clip } bind def
/W* { eoclip } bind def
/BT { } bind def
/ET { } bind def
/pdfmark where { pop globaldict /?pdfmark /exec load put }
    { globaldict begin /?pdfmark /pop load def /pdfmark
    /cleartomark load def end } ifelse
/BDC { mark 3 1 roll /BDC pdfmark } bind def
/EMC { mark /EMC pdfmark } bind def
/cairo_store_point { /cairo_point_y exch def /cairo_point_x exch def } def
/Tj { show currentpoint cairo_store_point } bind def
/TJ {
  {
    dup
    type /stringtype eq
    { show } { -0.001 mul 0 cairo_font_matrix dtransform rmoveto } ifelse
  } forall
  currentpoint cairo_store_point
} bind def
/cairo_selectfont { cairo_font_matrix aload pop pop pop 0 0 6 array astore
    cairo_font exch selectfont cairo_point_x cairo_point_y moveto } bind def
/Tf { pop /cairo_font exch def /cairo_font_matrix where
      { pop cairo_selectfont } if } bind def
/Td { matrix translate cairo_font_matrix matrix concatmatrix dup
      /cairo_font_matrix exch def dup 4 get exch 5 get cairo_store_point
      /cairo_font where { pop cairo_selectfont } if } bind def
/Tm { 2 copy 8 2 roll 6 array astore /cairo_font_matrix exch def
      cairo_store_point /cairo_font where { pop cairo_selectfont } if } bind def
/g { setgray } bind def
/rg { setrgbcolor } bind def
/d1 { setcachedevice } bind def
%%EndProlog
%%Page: 1 1
%%BeginPageSetup
%%PageBoundingBox: 0 -1 26 26
%%EndPageSetup
q 0 -1 26 27 rectclip q
0 25.6 26 -26 re W n
0 g
14.648 16.588 m 14.367 16.768 14.043 16.815 13.738 16.748 c 13.441 
16.682 13.168 16.502 12.988 16.225 c 12.809 15.944 12.762 15.62 12.828 
15.323 c 12.895 15.022 13.074 14.745 13.352 14.569 c 14.508 13.827 
15.199 12.565 15.199 11.202 c 15.199 10.131 14.785 9.127 14.027 8.373 c 
9.23 3.573 l 8.473 2.815 7.469 2.401 6.398 2.401 c 4.195 2.401 2.398 
4.194 2.398 6.401 c 2.398 7.467 2.816 8.471 3.57 9.229 c 5.848 11.506 l 
6.09 11.745 6.203 12.061 6.199 12.377 c 6.195 12.674 6.078 12.975 5.848 
13.202 c 5.613 13.436 5.305 13.553 5 13.553 c 4.691 13.553 4.387 13.436 
4.152 13.202 c 1.875 10.924 l 0.664 9.717 0 8.108 0 6.401 c 0 2.87 
2.871 -0.002 6.398 -0.002 c 8.109 -0.002 9.719 0.666 10.926 1.873 c 
15.727 6.674 l 16.934 7.881 17.602 9.491 17.602 11.202 c 17.602 13.389 
16.496 15.401 14.648 16.588 c h
19.199 25.6 m 17.492 25.6 15.883 24.936 14.676 23.725 c 9.875 18.924 l 
8.664 17.717 8 16.108 8 14.401 c 8 12.213 9.102 10.198 10.953 9.014 c 
11.23 8.834 11.559 8.784 11.859 8.854 c 12.16 8.916 12.434 9.096 12.609 
9.373 c 12.789 9.655 12.84 9.979 12.773 10.28 c 12.707 10.58 12.527 
10.854 12.246 11.034 c 11.09 11.776 10.398 13.034 10.398 14.401 c 
10.398 15.471 10.816 16.475 11.57 17.229 c 16.371 22.03 l 17.129 22.784 
18.133 23.202 19.199 23.202 c 21.406 23.202 23.199 21.405 23.199 19.202 
c 23.199 18.131 22.785 17.127 22.027 16.373 c 19.754 14.096 l 19.512 
13.858 19.395 13.541 19.398 13.225 c 19.406 12.924 19.523 12.627 19.754 
12.401 c 19.988 12.166 20.293 12.049 20.602 12.049 c 20.906 12.049 
21.215 12.166 21.449 12.401 c 23.727 14.678 l 24.934 15.881 25.602 
17.491 25.602 19.202 c 25.602 22.729 22.73 25.6 19.199 25.6 c h
19.199 25.6 m f*
Q Q
showpage
%%Trailer
count op_count sub {pop} repeat
countdictstack dict_count sub {end} repeat
cairo_eps_state restore
%%EOF
