%!PS-Adobe-3.0 EPSF-3.0
%%Creator: cairo 1.10.2 (http://cairographics.org)
%%CreationDate: Mon Sep  1 07:10:59 2014
%%Pages: 1
%%BoundingBox: 0 -1 791 792
%%DocumentData: Clean7Bit
%%LanguageLevel: 2
%%EndComments
%%BeginProlog
/cairo_eps_state save def
/dict_count countdictstack def
/op_count count 1 sub def
userdict begin
/q { gsave } bind def
/Q { grestore } bind def
/cm { 6 array astore concat } bind def
/w { setlinewidth } bind def
/J { setlinecap } bind def
/j { setlinejoin } bind def
/M { setmiterlimit } bind def
/d { setdash } bind def
/m { moveto } bind def
/l { lineto } bind def
/c { curveto } bind def
/h { closepath } bind def
/re { exch dup neg 3 1 roll 5 3 roll moveto 0 rlineto
      0 exch rlineto 0 rlineto closepath } bind def
/S { stroke } bind def
/f { fill } bind def
/f* { eofill } bind def
/n { newpath } bind def
/W { clip } bind def
/W* { eoclip } bind def
/BT { } bind def
/ET { } bind def
/pdfmark where { pop globaldict /?pdfmark /exec load put }
    { globaldict begin /?pdfmark /pop load def /pdfmark
    /cleartomark load def end } ifelse
/BDC { mark 3 1 roll /BDC pdfmark } bind def
/EMC { mark /EMC pdfmark } bind def
/cairo_store_point { /cairo_point_y exch def /cairo_point_x exch def } def
/Tj { show currentpoint cairo_store_point } bind def
/TJ {
  {
    dup
    type /stringtype eq
    { show } { -0.001 mul 0 cairo_font_matrix dtransform rmoveto } ifelse
  } forall
  currentpoint cairo_store_point
} bind def
/cairo_selectfont { cairo_font_matrix aload pop pop pop 0 0 6 array astore
    cairo_font exch selectfont cairo_point_x cairo_point_y moveto } bind def
/Tf { pop /cairo_font exch def /cairo_font_matrix where
      { pop cairo_selectfont } if } bind def
/Td { matrix translate cairo_font_matrix matrix concatmatrix dup
      /cairo_font_matrix exch def dup 4 get exch 5 get cairo_store_point
      /cairo_font where { pop cairo_selectfont } if } bind def
/Tm { 2 copy 8 2 roll 6 array astore /cairo_font_matrix exch def
      cairo_store_point /cairo_font where { pop cairo_selectfont } if } bind def
/g { setgray } bind def
/rg { setrgbcolor } bind def
/d1 { setcachedevice } bind def
%%EndProlog
%%Page: 1 1
%%BeginPageSetup
%%PageBoundingBox: 0 -1 791 792
%%EndPageSetup
q 0 -1 791 793 rectclip q
0 791.9 791 -792 re W n
0.129412 0.0980392 0.0823529 rg
169.035 791.502 m 76.395 791.502 l 34.484 791.502 0.395 757.412 0.395 
715.502 c 0.395 622.861 l 0.395 580.955 34.484 546.861 76.395 546.861 c 
169.035 546.861 l 210.941 546.861 245.035 580.955 245.035 622.861 c 
245.035 715.502 l 245.035 757.412 210.941 791.502 169.035 791.502 c h
189.035 622.861 m 189.035 611.818 180.078 602.861 169.035 602.861 c 
76.395 602.861 l 65.348 602.861 56.395 611.818 56.395 622.861 c 56.395 
715.502 l 56.395 726.548 65.348 735.502 76.395 735.502 c 169.035 
735.502 l 180.078 735.502 189.035 726.548 189.035 715.502 c h
189.035 622.861 m f
0 g
0.8 w
0 J
0 j
[] 0.0 d
10 M q 1 0 0 -1 0 791.900024 cm
169.035 0.398 m 76.395 0.398 l 34.484 0.398 0.395 34.488 0.395 76.398 c 
0.395 169.039 l 0.395 210.945 34.484 245.039 76.395 245.039 c 169.035 
245.039 l 210.941 245.039 245.035 210.945 245.035 169.039 c 245.035 
76.398 l 245.035 34.488 210.941 0.398 169.035 0.398 c h
189.035 169.039 m 189.035 180.082 180.078 189.039 169.035 189.039 c 
76.395 189.039 l 65.348 189.039 56.395 180.082 56.395 169.039 c 56.395 
76.398 l 56.395 65.352 65.348 56.398 76.395 56.398 c 169.035 56.398 l 
180.078 56.398 189.035 65.352 189.035 76.398 c h
189.035 169.039 m S Q
0.129412 0.0980392 0.0823529 rg
76.395 273.63 m 169.035 273.63 l 210.941 273.63 245.035 307.724 245.035 
349.63 c 245.035 442.275 l 245.035 484.181 210.941 518.275 169.035 
518.275 c 76.395 518.275 l 34.484 518.275 0.395 484.181 0.395 442.275 c 
0.395 349.634 l 0.395 307.724 34.488 273.63 76.395 273.63 c h
56.395 442.275 m 56.395 453.318 65.348 462.275 76.395 462.275 c 169.035 
462.275 l 180.078 462.275 189.035 453.318 189.035 442.275 c 189.035 
349.634 l 189.035 338.588 180.078 329.634 169.035 329.634 c 76.395 
329.634 l 65.348 329.634 56.395 338.588 56.395 349.634 c h
56.395 442.275 m f
0 g
q 1 0 0 -1 0 791.900024 cm
76.395 518.27 m 169.035 518.27 l 210.941 518.27 245.035 484.176 245.035 
442.27 c 245.035 349.625 l 245.035 307.719 210.941 273.625 169.035 
273.625 c 76.395 273.625 l 34.484 273.625 0.395 307.719 0.395 349.625 c 
0.395 442.266 l 0.395 484.176 34.488 518.27 76.395 518.27 c h
56.395 349.625 m 56.395 338.582 65.348 329.625 76.395 329.625 c 169.035 
329.625 l 180.078 329.625 189.035 338.582 189.035 349.625 c 189.035 
442.266 l 189.035 453.312 180.078 462.266 169.035 462.266 c 76.395 
462.266 l 65.348 462.266 56.395 453.312 56.395 442.266 c h
56.395 349.625 m S Q
0.129412 0.0980392 0.0823529 rg
0.395 76.404 m 0.395 34.498 34.484 0.404 76.395 0.404 c 169.035 0.404 l 
210.941 0.404 245.035 34.498 245.035 76.404 c 245.035 169.045 l 245.035 
210.951 210.941 245.045 169.035 245.045 c 76.395 245.045 l 34.484 
245.045 0.395 210.951 0.395 169.045 c h
56.395 169.045 m 56.395 180.088 65.348 189.045 76.395 189.045 c 169.035 
189.045 l 180.078 189.045 189.035 180.088 189.035 169.045 c 189.035 
76.4 l 189.035 65.357 180.078 56.4 169.035 56.4 c 76.395 56.4 l 65.348 
56.4 56.395 65.357 56.395 76.4 c h
56.395 169.045 m f
0 g
q 1 0 0 -1 0 791.900024 cm
0.395 715.496 m 0.395 757.402 34.484 791.496 76.395 791.496 c 169.035 
791.496 l 210.941 791.496 245.035 757.402 245.035 715.496 c 245.035 
622.855 l 245.035 580.949 210.941 546.855 169.035 546.855 c 76.395 
546.855 l 34.484 546.855 0.395 580.949 0.395 622.855 c h
56.395 622.855 m 56.395 611.812 65.348 602.855 76.395 602.855 c 169.035 
602.855 l 180.078 602.855 189.035 611.812 189.035 622.855 c 189.035 
715.5 l 189.035 726.543 180.078 735.5 169.035 735.5 c 76.395 735.5 l 
65.348 735.5 56.395 726.543 56.395 715.5 c h
56.395 622.855 m S Q
0.129412 0.0980392 0.0823529 rg
714.164 791.502 m 347.559 791.502 l 305.652 791.502 271.559 757.412 
271.559 715.502 c 271.559 622.861 l 271.559 580.955 305.652 546.861 
347.559 546.861 c 714.164 546.861 l 756.07 546.861 790.164 580.955 
790.164 622.861 c 790.164 715.502 l 790.164 757.412 756.07 791.502 
714.164 791.502 c h
734.164 622.861 m 734.164 611.818 725.211 602.861 714.164 602.861 c 
347.559 602.861 l 336.512 602.861 327.559 611.818 327.559 622.861 c 
327.559 715.502 l 327.559 726.548 336.512 735.502 347.559 735.502 c 
714.164 735.502 l 725.211 735.502 734.164 726.548 734.164 715.502 c h
734.164 622.861 m f
0 g
q 1 0 0 -1 0 791.900024 cm
714.164 0.398 m 347.559 0.398 l 305.652 0.398 271.559 34.488 271.559 
76.398 c 271.559 169.039 l 271.559 210.945 305.652 245.039 347.559 
245.039 c 714.164 245.039 l 756.07 245.039 790.164 210.945 790.164 
169.039 c 790.164 76.398 l 790.164 34.488 756.07 0.398 714.164 0.398 c 
h
734.164 169.039 m 734.164 180.082 725.211 189.039 714.164 189.039 c 
347.559 189.039 l 336.512 189.039 327.559 180.082 327.559 169.039 c 
327.559 76.398 l 327.559 65.352 336.512 56.398 347.559 56.398 c 714.164 
56.398 l 725.211 56.398 734.164 65.352 734.164 76.398 c h
734.164 169.039 m S Q
0.129412 0.0980392 0.0823529 rg
714.164 518.275 m 347.559 518.275 l 305.652 518.275 271.559 484.181 
271.559 442.275 c 271.559 349.634 l 271.559 307.728 305.652 273.634 
347.559 273.634 c 714.164 273.634 l 756.07 273.634 790.164 307.728 
790.164 349.634 c 790.164 442.275 l 790.164 484.181 756.07 518.275 
714.164 518.275 c h
734.164 349.63 m 734.164 338.588 725.211 329.63 714.164 329.63 c 
347.559 329.63 l 336.512 329.63 327.559 338.588 327.559 349.63 c 
327.559 442.275 l 327.559 453.318 336.512 462.275 347.559 462.275 c 
714.164 462.275 l 725.211 462.275 734.164 453.318 734.164 442.275 c h
734.164 349.63 m f
0 g
q 1 0 0 -1 0 791.900024 cm
714.164 273.625 m 347.559 273.625 l 305.652 273.625 271.559 307.719 
271.559 349.625 c 271.559 442.266 l 271.559 484.172 305.652 518.266 
347.559 518.266 c 714.164 518.266 l 756.07 518.266 790.164 484.172 
790.164 442.266 c 790.164 349.625 l 790.164 307.719 756.07 273.625 
714.164 273.625 c h
734.164 442.27 m 734.164 453.312 725.211 462.27 714.164 462.27 c 
347.559 462.27 l 336.512 462.27 327.559 453.312 327.559 442.27 c 
327.559 349.625 l 327.559 338.582 336.512 329.625 347.559 329.625 c 
714.164 329.625 l 725.211 329.625 734.164 338.582 734.164 349.625 c h
734.164 442.27 m S Q
0.129412 0.0980392 0.0823529 rg
714.164 245.045 m 347.559 245.045 l 305.652 245.045 271.559 210.951 
271.559 169.045 c 271.559 76.4 l 271.559 34.494 305.652 0.4 347.559 0.4 
c 714.164 0.4 l 756.07 0.4 790.164 34.494 790.164 76.4 c 790.164 
169.045 l 790.164 210.951 756.07 245.045 714.164 245.045 c h
734.164 76.404 m 734.164 65.357 725.211 56.404 714.164 56.404 c 347.559 
56.404 l 336.512 56.404 327.559 65.357 327.559 76.404 c 327.559 169.045 
l 327.559 180.088 336.512 189.045 347.559 189.045 c 714.164 189.045 l 
725.211 189.045 734.164 180.088 734.164 169.045 c h
734.164 76.404 m f
0 g
q 1 0 0 -1 0 791.900024 cm
714.164 546.855 m 347.559 546.855 l 305.652 546.855 271.559 580.949 
271.559 622.855 c 271.559 715.5 l 271.559 757.406 305.652 791.5 347.559 
791.5 c 714.164 791.5 l 756.07 791.5 790.164 757.406 790.164 715.5 c 
790.164 622.855 l 790.164 580.949 756.07 546.855 714.164 546.855 c h
734.164 715.496 m 734.164 726.543 725.211 735.496 714.164 735.496 c 
347.559 735.496 l 336.512 735.496 327.559 726.543 327.559 715.496 c 
327.559 622.855 l 327.559 611.812 336.512 602.855 347.559 602.855 c 
714.164 602.855 l 725.211 602.855 734.164 611.812 734.164 622.855 c h
734.164 715.496 m S Q
Q Q
showpage
%%Trailer
count op_count sub {pop} repeat
countdictstack dict_count sub {end} repeat
cairo_eps_state restore
%%EOF
