%!PS-Adobe-3.0 EPSF-3.0
%%Creator: cairo 1.10.2 (http://cairographics.org)
%%CreationDate: Tue Aug 12 07:12:50 2014
%%Pages: 1
%%BoundingBox: 0 -1 99 97
%%DocumentData: Clean7Bit
%%LanguageLevel: 2
%%EndComments
%%BeginProlog
/cairo_eps_state save def
/dict_count countdictstack def
/op_count count 1 sub def
userdict begin
/q { gsave } bind def
/Q { grestore } bind def
/cm { 6 array astore concat } bind def
/w { setlinewidth } bind def
/J { setlinecap } bind def
/j { setlinejoin } bind def
/M { setmiterlimit } bind def
/d { setdash } bind def
/m { moveto } bind def
/l { lineto } bind def
/c { curveto } bind def
/h { closepath } bind def
/re { exch dup neg 3 1 roll 5 3 roll moveto 0 rlineto
      0 exch rlineto 0 rlineto closepath } bind def
/S { stroke } bind def
/f { fill } bind def
/f* { eofill } bind def
/n { newpath } bind def
/W { clip } bind def
/W* { eoclip } bind def
/BT { } bind def
/ET { } bind def
/pdfmark where { pop globaldict /?pdfmark /exec load put }
    { globaldict begin /?pdfmark /pop load def /pdfmark
    /cleartomark load def end } ifelse
/BDC { mark 3 1 roll /BDC pdfmark } bind def
/EMC { mark /EMC pdfmark } bind def
/cairo_store_point { /cairo_point_y exch def /cairo_point_x exch def } def
/Tj { show currentpoint cairo_store_point } bind def
/TJ {
  {
    dup
    type /stringtype eq
    { show } { -0.001 mul 0 cairo_font_matrix dtransform rmoveto } ifelse
  } forall
  currentpoint cairo_store_point
} bind def
/cairo_selectfont { cairo_font_matrix aload pop pop pop 0 0 6 array astore
    cairo_font exch selectfont cairo_point_x cairo_point_y moveto } bind def
/Tf { pop /cairo_font exch def /cairo_font_matrix where
      { pop cairo_selectfont } if } bind def
/Td { matrix translate cairo_font_matrix matrix concatmatrix dup
      /cairo_font_matrix exch def dup 4 get exch 5 get cairo_store_point
      /cairo_font where { pop cairo_selectfont } if } bind def
/Tm { 2 copy 8 2 roll 6 array astore /cairo_font_matrix exch def
      cairo_store_point /cairo_font where { pop cairo_selectfont } if } bind def
/g { setgray } bind def
/rg { setrgbcolor } bind def
/d1 { setcachedevice } bind def
%%EndProlog
%%Page: 1 1
%%BeginPageSetup
%%PageBoundingBox: 0 -1 99 97
%%EndPageSetup
q 0 -1 99 98 rectclip q
0 96.022 99 -97 re W n
0 g
68.801 74.663 m 68.801 91.221 l 68.801 93.862 66.641 96.022 64 96.022 c 
4.801 96.022 l 2.16 96.022 0 93.862 0 91.221 c 0 23.381 l 0 21.624 
1.039 19.944 2.559 19.143 c 39.039 0.26 l 40.641 -0.537 42.559 0.581 
42.559 2.421 c 42.559 20.823 l 64 20.823 l 66.641 20.823 68.801 22.983 
68.801 25.624 c 68.801 51.862 l 59.199 51.862 l 59.199 32.823 l 59.199 
31.463 58.16 30.421 56.801 30.421 c 42.641 30.421 l 42.641 71.143 l 
42.641 72.901 41.602 74.581 40.078 75.381 c 18.559 86.421 l 56.801 
86.421 l 58.16 86.421 59.199 85.381 59.199 84.022 c 59.199 74.581 l 
68.801 74.581 l h
68.801 74.663 m f
81.121 82.503 m 96.719 66.901 l 98.719 64.901 98.719 61.944 96.719 
59.944 c 81.121 44.342 l 79.121 42.342 76.078 42.26 74.078 44.26 c 
72.16 46.182 72.398 49.381 74.238 51.303 c 81.281 58.26 l 54 58.26 l 
52.641 58.26 51.281 58.823 50.398 59.862 c 48.16 62.26 48.719 66.503 
51.602 68.1 c 52.32 68.503 53.199 68.741 54 68.741 c 81.281 68.741 l 
81.281 68.741 74.32 75.702 74.238 75.702 c 72.398 77.542 72.16 80.823 
74.078 82.663 c 76 84.581 79.121 84.503 81.121 82.503 c h
81.121 82.503 m f
Q Q
showpage
%%Trailer
count op_count sub {pop} repeat
countdictstack dict_count sub {end} repeat
cairo_eps_state restore
%%EOF
