%!PS-Adobe-3.0 EPSF-3.0
%%Creator: cairo 1.10.2 (http://cairographics.org)
%%CreationDate: Fri Jul  4 08:46:44 2014
%%Pages: 1
%%BoundingBox: 0 -1 15 17
%%DocumentData: Clean7Bit
%%LanguageLevel: 2
%%EndComments
%%BeginProlog
/cairo_eps_state save def
/dict_count countdictstack def
/op_count count 1 sub def
userdict begin
/q { gsave } bind def
/Q { grestore } bind def
/cm { 6 array astore concat } bind def
/w { setlinewidth } bind def
/J { setlinecap } bind def
/j { setlinejoin } bind def
/M { setmiterlimit } bind def
/d { setdash } bind def
/m { moveto } bind def
/l { lineto } bind def
/c { curveto } bind def
/h { closepath } bind def
/re { exch dup neg 3 1 roll 5 3 roll moveto 0 rlineto
      0 exch rlineto 0 rlineto closepath } bind def
/S { stroke } bind def
/f { fill } bind def
/f* { eofill } bind def
/n { newpath } bind def
/W { clip } bind def
/W* { eoclip } bind def
/BT { } bind def
/ET { } bind def
/pdfmark where { pop globaldict /?pdfmark /exec load put }
    { globaldict begin /?pdfmark /pop load def /pdfmark
    /cleartomark load def end } ifelse
/BDC { mark 3 1 roll /BDC pdfmark } bind def
/EMC { mark /EMC pdfmark } bind def
/cairo_store_point { /cairo_point_y exch def /cairo_point_x exch def } def
/Tj { show currentpoint cairo_store_point } bind def
/TJ {
  {
    dup
    type /stringtype eq
    { show } { -0.001 mul 0 cairo_font_matrix dtransform rmoveto } ifelse
  } forall
  currentpoint cairo_store_point
} bind def
/cairo_selectfont { cairo_font_matrix aload pop pop pop 0 0 6 array astore
    cairo_font exch selectfont cairo_point_x cairo_point_y moveto } bind def
/Tf { pop /cairo_font exch def /cairo_font_matrix where
      { pop cairo_selectfont } if } bind def
/Td { matrix translate cairo_font_matrix matrix concatmatrix dup
      /cairo_font_matrix exch def dup 4 get exch 5 get cairo_store_point
      /cairo_font where { pop cairo_selectfont } if } bind def
/Tm { 2 copy 8 2 roll 6 array astore /cairo_font_matrix exch def
      cairo_store_point /cairo_font where { pop cairo_selectfont } if } bind def
/g { setgray } bind def
/rg { setrgbcolor } bind def
/d1 { setcachedevice } bind def
%%EndProlog
%%Page: 1 1
%%BeginPageSetup
%%PageBoundingBox: 0 -1 15 17
%%EndPageSetup
q 0 -1 15 18 rectclip q
0 16.4 15 -17 re W n
0 g
1.121 12.334 m 13.457 12.334 l 14.074 12.334 14.578 12.837 14.578 
13.455 c 14.578 15.279 l 14.578 15.896 14.074 16.4 13.457 16.4 c 1.121 
16.4 l 0.504 16.4 0 15.896 0 15.279 c 0 13.455 l 0 12.837 0.504 12.334 
1.121 12.334 c h
1.121 12.334 m f
14.578 2.943 m 14.578 3.56 14.074 4.064 13.457 4.064 c 1.121 4.064 l 
0.504 4.064 0 3.56 0 2.943 c 0 1.123 l 0 0.505 0.504 0.002 1.121 0.002 
c 13.457 0.002 l 14.074 0.002 14.578 0.505 14.578 1.123 c h
14.578 2.943 m f
14.578 9.111 m 14.578 9.728 14.074 10.232 13.457 10.232 c 1.121 10.232 
l 0.504 10.232 0 9.728 0 9.111 c 0 7.291 l 0 6.673 0.504 6.166 1.121 
6.166 c 13.457 6.166 l 14.074 6.166 14.578 6.673 14.578 7.291 c h
14.578 9.111 m f
Q Q
showpage
%%Trailer
count op_count sub {pop} repeat
countdictstack dict_count sub {end} repeat
cairo_eps_state restore
%%EOF
