%!PS-Adobe-3.0 EPSF-3.0
%%Creator: cairo 1.10.2 (http://cairographics.org)
%%CreationDate: Fri Jul  4 09:45:13 2014
%%Pages: 1
%%BoundingBox: 0 -1 409 287
%%DocumentData: Clean7Bit
%%LanguageLevel: 2
%%EndComments
%%BeginProlog
/cairo_eps_state save def
/dict_count countdictstack def
/op_count count 1 sub def
userdict begin
/q { gsave } bind def
/Q { grestore } bind def
/cm { 6 array astore concat } bind def
/w { setlinewidth } bind def
/J { setlinecap } bind def
/j { setlinejoin } bind def
/M { setmiterlimit } bind def
/d { setdash } bind def
/m { moveto } bind def
/l { lineto } bind def
/c { curveto } bind def
/h { closepath } bind def
/re { exch dup neg 3 1 roll 5 3 roll moveto 0 rlineto
      0 exch rlineto 0 rlineto closepath } bind def
/S { stroke } bind def
/f { fill } bind def
/f* { eofill } bind def
/n { newpath } bind def
/W { clip } bind def
/W* { eoclip } bind def
/BT { } bind def
/ET { } bind def
/pdfmark where { pop globaldict /?pdfmark /exec load put }
    { globaldict begin /?pdfmark /pop load def /pdfmark
    /cleartomark load def end } ifelse
/BDC { mark 3 1 roll /BDC pdfmark } bind def
/EMC { mark /EMC pdfmark } bind def
/cairo_store_point { /cairo_point_y exch def /cairo_point_x exch def } def
/Tj { show currentpoint cairo_store_point } bind def
/TJ {
  {
    dup
    type /stringtype eq
    { show } { -0.001 mul 0 cairo_font_matrix dtransform rmoveto } ifelse
  } forall
  currentpoint cairo_store_point
} bind def
/cairo_selectfont { cairo_font_matrix aload pop pop pop 0 0 6 array astore
    cairo_font exch selectfont cairo_point_x cairo_point_y moveto } bind def
/Tf { pop /cairo_font exch def /cairo_font_matrix where
      { pop cairo_selectfont } if } bind def
/Td { matrix translate cairo_font_matrix matrix concatmatrix dup
      /cairo_font_matrix exch def dup 4 get exch 5 get cairo_store_point
      /cairo_font where { pop cairo_selectfont } if } bind def
/Tm { 2 copy 8 2 roll 6 array astore /cairo_font_matrix exch def
      cairo_store_point /cairo_font where { pop cairo_selectfont } if } bind def
/g { setgray } bind def
/rg { setrgbcolor } bind def
/d1 { setcachedevice } bind def
%%EndProlog
%%Page: 1 1
%%BeginPageSetup
%%PageBoundingBox: 0 -1 409 287
%%EndPageSetup
q 0 -1 409 288 rectclip q
0 286.4 409 -287 re W n
0 g
392.398 185.599 m 370.801 185.599 l 370.801 228.798 l 370.801 237.599 
363.598 244.798 354.801 244.798 c 198.801 244.798 l 178 278.4 l 174.801 
283.201 170.801 286.4 165.199 286.4 c 49.199 286.4 l 40.398 286.4 34 
279.201 34 270.4 c 34 185.599 l 16.398 185.599 l 6.801 185.599 -2 
176.798 0.398 166.4 c 34 12.798 l 35.598 5.599 42 0.002 49.199 0.002 c 
354.801 0.002 l 362 0.002 369.199 4.798 370.801 12.002 c 407.598 166.4 
l 410 176.798 402 185.599 392.398 185.599 c h
65.199 255.201 m 155.598 255.201 l 176.398 220.798 l 179.598 216.002 
184.398 213.599 190 213.599 c 339.598 213.599 l 339.598 185.599 l 
65.199 185.599 l h
342.801 32.002 m 62 32.002 l 35.598 154.4 l 372.398 154.4 l h
342.801 32.002 m f
Q Q
showpage
%%Trailer
count op_count sub {pop} repeat
countdictstack dict_count sub {end} repeat
cairo_eps_state restore
%%EOF
