%!PS-Adobe-3.0 EPSF-3.0
%%Creator: cairo 1.10.2 (http://cairographics.org)
%%CreationDate: Fri Jul  4 10:21:01 2014
%%Pages: 1
%%BoundingBox: 0 0 72 73
%%DocumentData: Clean7Bit
%%LanguageLevel: 2
%%EndComments
%%BeginProlog
/cairo_eps_state save def
/dict_count countdictstack def
/op_count count 1 sub def
userdict begin
/q { gsave } bind def
/Q { grestore } bind def
/cm { 6 array astore concat } bind def
/w { setlinewidth } bind def
/J { setlinecap } bind def
/j { setlinejoin } bind def
/M { setmiterlimit } bind def
/d { setdash } bind def
/m { moveto } bind def
/l { lineto } bind def
/c { curveto } bind def
/h { closepath } bind def
/re { exch dup neg 3 1 roll 5 3 roll moveto 0 rlineto
      0 exch rlineto 0 rlineto closepath } bind def
/S { stroke } bind def
/f { fill } bind def
/f* { eofill } bind def
/n { newpath } bind def
/W { clip } bind def
/W* { eoclip } bind def
/BT { } bind def
/ET { } bind def
/pdfmark where { pop globaldict /?pdfmark /exec load put }
    { globaldict begin /?pdfmark /pop load def /pdfmark
    /cleartomark load def end } ifelse
/BDC { mark 3 1 roll /BDC pdfmark } bind def
/EMC { mark /EMC pdfmark } bind def
/cairo_store_point { /cairo_point_y exch def /cairo_point_x exch def } def
/Tj { show currentpoint cairo_store_point } bind def
/TJ {
  {
    dup
    type /stringtype eq
    { show } { -0.001 mul 0 cairo_font_matrix dtransform rmoveto } ifelse
  } forall
  currentpoint cairo_store_point
} bind def
/cairo_selectfont { cairo_font_matrix aload pop pop pop 0 0 6 array astore
    cairo_font exch selectfont cairo_point_x cairo_point_y moveto } bind def
/Tf { pop /cairo_font exch def /cairo_font_matrix where
      { pop cairo_selectfont } if } bind def
/Td { matrix translate cairo_font_matrix matrix concatmatrix dup
      /cairo_font_matrix exch def dup 4 get exch 5 get cairo_store_point
      /cairo_font where { pop cairo_selectfont } if } bind def
/Tm { 2 copy 8 2 roll 6 array astore /cairo_font_matrix exch def
      cairo_store_point /cairo_font where { pop cairo_selectfont } if } bind def
/g { setgray } bind def
/rg { setrgbcolor } bind def
/d1 { setcachedevice } bind def
%%EndProlog
%%Page: 1 1
%%BeginPageSetup
%%PageBoundingBox: 0 0 72 73
%%EndPageSetup
q 0 0 72 73 rectclip q
0 g
27.203 26.918 m 11.199 33.321 l 11.199 27.903 l 27.203 21.504 l h
27.203 43.536 m 11.199 49.934 l 11.199 44.52 l 27.203 38.118 l h
70.242 71.313 m 69.145 72.055 67.746 72.207 66.516 71.715 c 36 59.508 l 
5.484 71.715 l 4.25 72.207 2.855 72.055 1.758 71.313 c 0.656 70.571 0 
69.329 0 68 c 0 16.801 l 0 15.164 0.996 13.692 2.512 13.086 c 34.445 
0.313 l 34.445 0.313 35.102 0.102 35.223 0.079 c 35.48 0.028 35.738 0 
36 0 c 36.258 0 36.52 0.028 36.777 0.079 c 36.898 0.102 37.559 0.317 
37.559 0.317 c 69.488 13.086 l 71.004 13.692 72 15.164 72 16.801 c 72 
68 l 72 69.329 71.34 70.571 70.242 71.313 c h
32 8.184 m 6.398 18.422 l 6.398 63.254 l 32 53.012 l h
65.602 18.422 m 40 8.184 l 40 53.016 l 65.602 63.254 l h
60.801 33.321 m 44.797 26.918 l 44.797 21.504 l 60.801 27.903 l h
60.801 49.934 m 44.797 43.536 l 44.797 38.118 l 60.801 44.52 l h
60.801 49.934 m f
Q Q
showpage
%%Trailer
count op_count sub {pop} repeat
countdictstack dict_count sub {end} repeat
cairo_eps_state restore
%%EOF
