%!PS-Adobe-3.0 EPSF-3.0
%%Creator: cairo 1.10.2 (http://cairographics.org)
%%CreationDate: Fri Jul  4 10:14:14 2014
%%Pages: 1
%%BoundingBox: 0 -1 11 13
%%DocumentData: Clean7Bit
%%LanguageLevel: 2
%%EndComments
%%BeginProlog
/cairo_eps_state save def
/dict_count countdictstack def
/op_count count 1 sub def
userdict begin
/q { gsave } bind def
/Q { grestore } bind def
/cm { 6 array astore concat } bind def
/w { setlinewidth } bind def
/J { setlinecap } bind def
/j { setlinejoin } bind def
/M { setmiterlimit } bind def
/d { setdash } bind def
/m { moveto } bind def
/l { lineto } bind def
/c { curveto } bind def
/h { closepath } bind def
/re { exch dup neg 3 1 roll 5 3 roll moveto 0 rlineto
      0 exch rlineto 0 rlineto closepath } bind def
/S { stroke } bind def
/f { fill } bind def
/f* { eofill } bind def
/n { newpath } bind def
/W { clip } bind def
/W* { eoclip } bind def
/BT { } bind def
/ET { } bind def
/pdfmark where { pop globaldict /?pdfmark /exec load put }
    { globaldict begin /?pdfmark /pop load def /pdfmark
    /cleartomark load def end } ifelse
/BDC { mark 3 1 roll /BDC pdfmark } bind def
/EMC { mark /EMC pdfmark } bind def
/cairo_store_point { /cairo_point_y exch def /cairo_point_x exch def } def
/Tj { show currentpoint cairo_store_point } bind def
/TJ {
  {
    dup
    type /stringtype eq
    { show } { -0.001 mul 0 cairo_font_matrix dtransform rmoveto } ifelse
  } forall
  currentpoint cairo_store_point
} bind def
/cairo_selectfont { cairo_font_matrix aload pop pop pop 0 0 6 array astore
    cairo_font exch selectfont cairo_point_x cairo_point_y moveto } bind def
/Tf { pop /cairo_font exch def /cairo_font_matrix where
      { pop cairo_selectfont } if } bind def
/Td { matrix translate cairo_font_matrix matrix concatmatrix dup
      /cairo_font_matrix exch def dup 4 get exch 5 get cairo_store_point
      /cairo_font where { pop cairo_selectfont } if } bind def
/Tm { 2 copy 8 2 roll 6 array astore /cairo_font_matrix exch def
      cairo_store_point /cairo_font where { pop cairo_selectfont } if } bind def
/g { setgray } bind def
/rg { setrgbcolor } bind def
/d1 { setcachedevice } bind def
%%EndProlog
%%Page: 1 1
%%BeginPageSetup
%%PageBoundingBox: 0 -1 11 13
%%EndPageSetup
q 0 -1 11 14 rectclip q
0 12.804 11 -13 re W n
0.129412 0.0980392 0.0823529 rg
10.031 12.804 m 5.762 12.804 l 5.641 12.796 5.363 12.605 5.324 12.57 c 
0.234 7.48 l -0.078 7.167 -0.078 6.663 0.234 6.351 c 0.871 5.714 l 
0.234 5.077 l -0.078 4.769 -0.078 4.261 0.234 3.949 c 3.949 0.234 l 
4.105 0.077 4.312 -0.001 4.516 -0.001 c 4.719 -0.001 4.926 0.077 5.082 
0.234 c 10.172 5.324 l 10.207 5.363 10.402 5.609 10.402 5.761 c 10.402 
12.406 l 10.41 12.628 10.25 12.804 10.031 12.804 c h
9.609 5.898 m 9.605 5.89 l 4.516 0.796 l 0.801 4.511 l 1.434 5.148 l 
3.949 2.632 l 4.105 2.476 4.312 2.398 4.516 2.398 c 4.719 2.398 4.926 
2.476 5.082 2.632 c 9.609 7.159 l h
9.609 9.605 m 9.609 8.296 l 9.605 8.288 l 4.516 3.199 l 0.801 6.913 l 
5.855 11.968 l 5.91 12.003 l 9.609 12.003 l h
9.609 9.605 m f
8.809 10.808 m 8.809 10.585 8.633 10.406 8.41 10.406 c 8.188 10.406 
8.012 10.585 8.012 10.808 c 8.012 11.027 8.188 11.206 8.41 11.206 c 
8.633 11.206 8.809 11.027 8.809 10.808 c h
8.809 10.808 m f
Q Q
showpage
%%Trailer
count op_count sub {pop} repeat
countdictstack dict_count sub {end} repeat
cairo_eps_state restore
%%EOF
