%!PS-Adobe-3.0 EPSF-3.0
%%Creator: cairo 1.10.2 (http://cairographics.org)
%%CreationDate: Fri Jul  4 10:12:43 2014
%%Pages: 1
%%BoundingBox: 0 -1 32 31
%%DocumentData: Clean7Bit
%%LanguageLevel: 2
%%EndComments
%%BeginProlog
/cairo_eps_state save def
/dict_count countdictstack def
/op_count count 1 sub def
userdict begin
/q { gsave } bind def
/Q { grestore } bind def
/cm { 6 array astore concat } bind def
/w { setlinewidth } bind def
/J { setlinecap } bind def
/j { setlinejoin } bind def
/M { setmiterlimit } bind def
/d { setdash } bind def
/m { moveto } bind def
/l { lineto } bind def
/c { curveto } bind def
/h { closepath } bind def
/re { exch dup neg 3 1 roll 5 3 roll moveto 0 rlineto
      0 exch rlineto 0 rlineto closepath } bind def
/S { stroke } bind def
/f { fill } bind def
/f* { eofill } bind def
/n { newpath } bind def
/W { clip } bind def
/W* { eoclip } bind def
/BT { } bind def
/ET { } bind def
/pdfmark where { pop globaldict /?pdfmark /exec load put }
    { globaldict begin /?pdfmark /pop load def /pdfmark
    /cleartomark load def end } ifelse
/BDC { mark 3 1 roll /BDC pdfmark } bind def
/EMC { mark /EMC pdfmark } bind def
/cairo_store_point { /cairo_point_y exch def /cairo_point_x exch def } def
/Tj { show currentpoint cairo_store_point } bind def
/TJ {
  {
    dup
    type /stringtype eq
    { show } { -0.001 mul 0 cairo_font_matrix dtransform rmoveto } ifelse
  } forall
  currentpoint cairo_store_point
} bind def
/cairo_selectfont { cairo_font_matrix aload pop pop pop 0 0 6 array astore
    cairo_font exch selectfont cairo_point_x cairo_point_y moveto } bind def
/Tf { pop /cairo_font exch def /cairo_font_matrix where
      { pop cairo_selectfont } if } bind def
/Td { matrix translate cairo_font_matrix matrix concatmatrix dup
      /cairo_font_matrix exch def dup 4 get exch 5 get cairo_store_point
      /cairo_font where { pop cairo_selectfont } if } bind def
/Tm { 2 copy 8 2 roll 6 array astore /cairo_font_matrix exch def
      cairo_store_point /cairo_font where { pop cairo_selectfont } if } bind def
/g { setgray } bind def
/rg { setrgbcolor } bind def
/d1 { setcachedevice } bind def
%%EndProlog
%%Page: 1 1
%%BeginPageSetup
%%PageBoundingBox: 0 -1 32 31
%%EndPageSetup
q 0 -1 32 32 rectclip q
0 30.836 32 -31 re W n
0 g
31.445 18.891 m 31.367 19.266 31.047 19.543 30.664 19.563 c 25.52 
19.832 l 25.465 19.836 25.414 19.832 25.363 19.824 c 21.312 21.84 l 
21.199 21.566 21.031 21.309 20.812 21.09 c 20.219 20.496 l 23.41 18.906 
l 15.16 14.801 l 7.16 18.785 l 9.879 20.137 l 8.926 21.09 l 8.793 
21.227 8.676 21.375 8.582 21.531 c 5.418 19.957 l 2.406 22.375 l 10.852 
26.574 l 10.852 28.426 l 10.77 28.41 10.691 28.387 10.617 28.348 c 
0.469 23.297 l 0.211 23.168 0.035 22.918 0.004 22.633 c -0.027 22.344 
0.094 22.063 0.316 21.883 c 4.262 18.715 l 4.262 5.895 l 4.262 5.574 
4.445 5.281 4.73 5.137 c 14.879 0.09 l 14.996 0.031 15.125 0 15.254 0 c 
15.383 0 15.516 0.031 15.633 0.09 c 25.781 5.137 l 26.066 5.281 26.25 
5.574 26.25 5.895 c 26.25 15.602 l 30.996 17.961 l 31.34 18.133 31.523 
18.512 31.445 18.891 c h
14.414 2.207 m 5.957 6.418 l 5.957 17.492 l 14.414 13.285 l h
20.293 14.524 m 18.754 14.606 l 25.781 18.102 l 25.793 18.109 25.805 
18.117 25.816 18.125 c 27.363 18.043 l h
19.766 22.137 m 15.469 17.836 l 15.301 17.672 15.086 17.59 14.871 17.59 
c 14.652 17.59 14.438 17.672 14.27 17.836 c 9.973 22.137 l 9.73 22.379 
9.66 22.742 9.789 23.059 c 9.922 23.371 10.23 23.578 10.57 23.578 c 
12.332 23.578 l 12.332 29.992 l 12.332 30.457 12.711 30.836 13.18 
30.836 c 16.562 30.836 l 17.027 30.836 17.406 30.457 17.406 29.992 c 
17.406 23.578 l 19.168 23.578 l 19.512 23.578 19.82 23.371 19.949 
23.059 c 20.082 22.742 20.008 22.379 19.766 22.137 c h
19.766 22.137 m f
Q Q
showpage
%%Trailer
count op_count sub {pop} repeat
countdictstack dict_count sub {end} repeat
cairo_eps_state restore
%%EOF
