%!PS-Adobe-3.0 EPSF-3.0
%%Creator: cairo 1.10.2 (http://cairographics.org)
%%CreationDate: Fri Jul  4 08:45:29 2014
%%Pages: 1
%%BoundingBox: 0 -1 21 21
%%DocumentData: Clean7Bit
%%LanguageLevel: 2
%%EndComments
%%BeginProlog
/cairo_eps_state save def
/dict_count countdictstack def
/op_count count 1 sub def
userdict begin
/q { gsave } bind def
/Q { grestore } bind def
/cm { 6 array astore concat } bind def
/w { setlinewidth } bind def
/J { setlinecap } bind def
/j { setlinejoin } bind def
/M { setmiterlimit } bind def
/d { setdash } bind def
/m { moveto } bind def
/l { lineto } bind def
/c { curveto } bind def
/h { closepath } bind def
/re { exch dup neg 3 1 roll 5 3 roll moveto 0 rlineto
      0 exch rlineto 0 rlineto closepath } bind def
/S { stroke } bind def
/f { fill } bind def
/f* { eofill } bind def
/n { newpath } bind def
/W { clip } bind def
/W* { eoclip } bind def
/BT { } bind def
/ET { } bind def
/pdfmark where { pop globaldict /?pdfmark /exec load put }
    { globaldict begin /?pdfmark /pop load def /pdfmark
    /cleartomark load def end } ifelse
/BDC { mark 3 1 roll /BDC pdfmark } bind def
/EMC { mark /EMC pdfmark } bind def
/cairo_store_point { /cairo_point_y exch def /cairo_point_x exch def } def
/Tj { show currentpoint cairo_store_point } bind def
/TJ {
  {
    dup
    type /stringtype eq
    { show } { -0.001 mul 0 cairo_font_matrix dtransform rmoveto } ifelse
  } forall
  currentpoint cairo_store_point
} bind def
/cairo_selectfont { cairo_font_matrix aload pop pop pop 0 0 6 array astore
    cairo_font exch selectfont cairo_point_x cairo_point_y moveto } bind def
/Tf { pop /cairo_font exch def /cairo_font_matrix where
      { pop cairo_selectfont } if } bind def
/Td { matrix translate cairo_font_matrix matrix concatmatrix dup
      /cairo_font_matrix exch def dup 4 get exch 5 get cairo_store_point
      /cairo_font where { pop cairo_selectfont } if } bind def
/Tm { 2 copy 8 2 roll 6 array astore /cairo_font_matrix exch def
      cairo_store_point /cairo_font where { pop cairo_selectfont } if } bind def
/g { setgray } bind def
/rg { setrgbcolor } bind def
/d1 { setcachedevice } bind def
%%EndProlog
%%Page: 1 1
%%BeginPageSetup
%%PageBoundingBox: 0 -1 21 21
%%EndPageSetup
q 0 -1 21 22 rectclip q
0 20.8 21 -21 re W n
0 g
7.215 12.62 m 7.215 11.87 3.215 9.206 3.215 12.62 c 3.215 17.277 6.223 
20.773 11.09 20.773 c 11.238 20.773 11.246 20.737 11.117 20.663 c 
10.359 20.195 7.215 18.777 7.215 12.62 c h
7.215 12.62 m f
0.418 12.402 m 5.215 6.253 l 10.016 12.402 l h
0.418 12.402 m f
0.8 w
1 J
1 j
[] 0.0 d
10 M q 1 0 0 -1 0 20.799999 cm
0.418 8.398 m 5.215 14.547 l 10.016 8.398 l h
0.418 8.398 m S Q
13.617 8.183 m 13.617 8.933 17.617 11.597 17.617 8.183 c 17.617 3.527 
14.609 0.03 9.742 0.03 c 9.594 0.03 9.586 0.062 9.715 0.14 c 10.473 
0.605 13.617 2.027 13.617 8.183 c h
13.617 8.183 m f
20.418 8.402 m 15.617 14.546 l 10.816 8.402 l h
20.418 8.402 m f
q 1 0 0 -1 0 20.799999 cm
20.418 12.398 m 15.617 6.254 l 10.816 12.398 l h
20.418 12.398 m S Q
Q Q
showpage
%%Trailer
count op_count sub {pop} repeat
countdictstack dict_count sub {end} repeat
cairo_eps_state restore
%%EOF
