%!PS-Adobe-3.0 EPSF-3.0
%%Creator: cairo 1.10.2 (http://cairographics.org)
%%CreationDate: Fri Jul  4 08:46:31 2014
%%Pages: 1
%%BoundingBox: 0 -1 408 215
%%DocumentData: Clean7Bit
%%LanguageLevel: 2
%%EndComments
%%BeginProlog
/cairo_eps_state save def
/dict_count countdictstack def
/op_count count 1 sub def
userdict begin
/q { gsave } bind def
/Q { grestore } bind def
/cm { 6 array astore concat } bind def
/w { setlinewidth } bind def
/J { setlinecap } bind def
/j { setlinejoin } bind def
/M { setmiterlimit } bind def
/d { setdash } bind def
/m { moveto } bind def
/l { lineto } bind def
/c { curveto } bind def
/h { closepath } bind def
/re { exch dup neg 3 1 roll 5 3 roll moveto 0 rlineto
      0 exch rlineto 0 rlineto closepath } bind def
/S { stroke } bind def
/f { fill } bind def
/f* { eofill } bind def
/n { newpath } bind def
/W { clip } bind def
/W* { eoclip } bind def
/BT { } bind def
/ET { } bind def
/pdfmark where { pop globaldict /?pdfmark /exec load put }
    { globaldict begin /?pdfmark /pop load def /pdfmark
    /cleartomark load def end } ifelse
/BDC { mark 3 1 roll /BDC pdfmark } bind def
/EMC { mark /EMC pdfmark } bind def
/cairo_store_point { /cairo_point_y exch def /cairo_point_x exch def } def
/Tj { show currentpoint cairo_store_point } bind def
/TJ {
  {
    dup
    type /stringtype eq
    { show } { -0.001 mul 0 cairo_font_matrix dtransform rmoveto } ifelse
  } forall
  currentpoint cairo_store_point
} bind def
/cairo_selectfont { cairo_font_matrix aload pop pop pop 0 0 6 array astore
    cairo_font exch selectfont cairo_point_x cairo_point_y moveto } bind def
/Tf { pop /cairo_font exch def /cairo_font_matrix where
      { pop cairo_selectfont } if } bind def
/Td { matrix translate cairo_font_matrix matrix concatmatrix dup
      /cairo_font_matrix exch def dup 4 get exch 5 get cairo_store_point
      /cairo_font where { pop cairo_selectfont } if } bind def
/Tm { 2 copy 8 2 roll 6 array astore /cairo_font_matrix exch def
      cairo_store_point /cairo_font where { pop cairo_selectfont } if } bind def
/g { setgray } bind def
/rg { setrgbcolor } bind def
/d1 { setcachedevice } bind def
%%EndProlog
%%Page: 1 1
%%BeginPageSetup
%%PageBoundingBox: 0 -1 408 215
%%EndPageSetup
q 0 -1 408 216 rectclip q
0 214.4 408 -215 re W n
0 g
402.199 86.4 m 409.398 79.201 409.398 68.002 402.199 60.798 c 347 5.599 
l 343.801 2.4 339 0.002 334.199 0.002 c 329.398 0.002 324.602 2.4 
321.398 5.599 c 266.199 60.798 l 259 68.002 259 79.201 266.199 86.4 c 
273.398 93.599 283.801 93.599 291 86.4 c 316.602 60.798 l 316.602 178.4 
l 159 178.4 l 149.398 178.4 141.398 187.201 141.398 196.798 c 141.398 
206.4 149.398 214.4 159 214.4 c 334.199 214.4 l 343.801 214.4 351.801 
206.4 351.801 196.798 c 351.801 60.798 l 377.398 86.4 l 384.602 93.599 
395 93.599 402.199 86.4 c h
402.199 86.4 m f
248.602 36.002 m 258.199 36.002 266.199 27.201 266.199 17.599 c 266.199 
8.002 258.199 0.002 248.602 0.002 c 73.398 0.002 l 63.801 0.002 55.801 
8.002 55.801 17.599 c 55.801 153.599 l 30.199 128.002 l 23 120.798 
12.602 120.798 5.398 128.002 c -1.801 135.201 -1.801 146.4 5.398 
153.599 c 60.602 209.599 l 63.801 212.798 68.602 214.4 73.398 214.4 c 
78.199 214.4 83 212.798 86.199 209.599 c 141.398 153.599 l 148.602 
146.4 148.602 135.201 141.398 128.002 c 138.199 124.798 133.398 123.201 
128.602 123.201 c 123.801 123.201 119.801 124.798 116.602 128.002 c 91 
153.599 l 91 36.002 l h
248.602 36.002 m f
Q Q
showpage
%%Trailer
count op_count sub {pop} repeat
countdictstack dict_count sub {end} repeat
cairo_eps_state restore
%%EOF
