%!PS-Adobe-3.0 EPSF-3.0
%%Creator: cairo 1.10.2 (http://cairographics.org)
%%CreationDate: Fri Jul  4 09:54:24 2014
%%Pages: 1
%%BoundingBox: 0 -1 24 19
%%DocumentData: Clean7Bit
%%LanguageLevel: 2
%%EndComments
%%BeginProlog
/cairo_eps_state save def
/dict_count countdictstack def
/op_count count 1 sub def
userdict begin
/q { gsave } bind def
/Q { grestore } bind def
/cm { 6 array astore concat } bind def
/w { setlinewidth } bind def
/J { setlinecap } bind def
/j { setlinejoin } bind def
/M { setmiterlimit } bind def
/d { setdash } bind def
/m { moveto } bind def
/l { lineto } bind def
/c { curveto } bind def
/h { closepath } bind def
/re { exch dup neg 3 1 roll 5 3 roll moveto 0 rlineto
      0 exch rlineto 0 rlineto closepath } bind def
/S { stroke } bind def
/f { fill } bind def
/f* { eofill } bind def
/n { newpath } bind def
/W { clip } bind def
/W* { eoclip } bind def
/BT { } bind def
/ET { } bind def
/pdfmark where { pop globaldict /?pdfmark /exec load put }
    { globaldict begin /?pdfmark /pop load def /pdfmark
    /cleartomark load def end } ifelse
/BDC { mark 3 1 roll /BDC pdfmark } bind def
/EMC { mark /EMC pdfmark } bind def
/cairo_store_point { /cairo_point_y exch def /cairo_point_x exch def } def
/Tj { show currentpoint cairo_store_point } bind def
/TJ {
  {
    dup
    type /stringtype eq
    { show } { -0.001 mul 0 cairo_font_matrix dtransform rmoveto } ifelse
  } forall
  currentpoint cairo_store_point
} bind def
/cairo_selectfont { cairo_font_matrix aload pop pop pop 0 0 6 array astore
    cairo_font exch selectfont cairo_point_x cairo_point_y moveto } bind def
/Tf { pop /cairo_font exch def /cairo_font_matrix where
      { pop cairo_selectfont } if } bind def
/Td { matrix translate cairo_font_matrix matrix concatmatrix dup
      /cairo_font_matrix exch def dup 4 get exch 5 get cairo_store_point
      /cairo_font where { pop cairo_selectfont } if } bind def
/Tm { 2 copy 8 2 roll 6 array astore /cairo_font_matrix exch def
      cairo_store_point /cairo_font where { pop cairo_selectfont } if } bind def
/g { setgray } bind def
/rg { setrgbcolor } bind def
/d1 { setcachedevice } bind def
%%EndProlog
%%Page: 1 1
%%BeginPageSetup
%%PageBoundingBox: 0 -1 24 19
%%EndPageSetup
q 0 -1 24 20 rectclip q
0 18.273 24 -19 re W n
0 g
19.895 12.835 m 14.875 12.851 l 14.953 12.941 15.012 13.042 15.109 
13.113 c 15.441 13.367 15.508 13.843 15.254 14.179 c 15 14.511 14.523 
14.577 14.191 14.324 c 13.695 13.945 13.336 13.437 13.145 12.855 c 
10.883 12.863 l 9.914 12.863 8.887 12.109 8.547 11.144 c 6.828 6.308 l 
6.645 5.796 6.691 5.292 6.949 4.925 c 7.195 4.574 7.602 4.382 8.09 
4.378 c 12.688 4.363 l 12.535 3.835 12.207 3.382 11.734 3.097 c 11.238 
2.796 10.652 2.71 10.086 2.851 c 9.68 2.949 9.27 2.702 9.168 2.296 c 
9.066 1.89 9.312 1.48 9.723 1.378 c 10.02 1.3 10.32 1.265 10.617 1.265 
c 11.281 1.265 11.938 1.449 12.52 1.8 c 13.367 2.308 13.961 3.12 14.199 
4.081 c 14.223 4.175 14.223 4.269 14.211 4.359 c 17.094 4.351 l 17.098 
4.351 l 17.398 4.351 17.695 4.441 17.984 4.57 c 18.004 4.519 18.02 
4.464 18.051 4.417 c 18.391 3.941 18.523 3.363 18.426 2.788 c 18.332 
2.214 18.016 1.714 17.543 1.374 c 17.199 1.132 17.121 0.66 17.363 0.32 
c 17.512 0.109 17.746 -0.001 17.98 -0.001 c 18.133 -0.001 18.289 0.042 
18.422 0.14 c 19.227 0.71 19.762 1.562 19.926 2.535 c 20.09 3.511 
19.863 4.492 19.285 5.3 c 19.238 5.37 19.172 5.421 19.105 5.468 c 
19.238 5.656 19.359 5.851 19.434 6.066 c 21.152 10.902 l 21.336 11.413 
21.289 11.917 21.031 12.285 c 20.785 12.64 20.383 12.835 19.895 12.835 
c h
20.582 11.109 m 18.863 6.273 l 18.766 5.992 18.562 5.742 18.332 5.527 c 
18.297 5.507 18.262 5.499 18.227 5.476 c 18.16 5.429 18.109 5.363 
18.062 5.3 c 17.758 5.097 17.422 4.96 17.102 4.96 c 17.102 4.656 l 
17.094 4.96 l 13.711 4.968 l 13.688 4.976 13.668 4.995 13.645 5.003 c 
13.5 5.038 13.359 5.015 13.227 4.972 c 10.195 4.98 l 10.316 5.324 l 
10.371 5.48 10.289 5.656 10.133 5.71 c 9.977 5.765 9.801 5.687 9.742 
5.527 c 9.551 4.984 l 8.09 4.988 l 7.805 4.988 7.574 5.089 7.445 5.273 
c 7.301 5.48 7.281 5.777 7.398 6.105 c 9.117 10.941 l 9.371 11.652 
10.18 12.253 10.887 12.253 c 12.133 12.249 l 11.934 11.683 l 11.875 
11.527 11.957 11.355 12.117 11.296 c 12.148 11.285 12.184 11.281 12.219 
11.281 c 12.344 11.281 12.461 11.359 12.504 11.484 c 12.758 12.199 l 
12.762 12.214 12.754 12.23 12.754 12.245 c 13.012 12.245 l 12.918 
11.456 13.129 10.675 13.617 10.042 c 14.219 9.261 15.129 8.847 16.051 
8.847 c 16.699 8.847 17.352 9.05 17.902 9.472 c 18.234 9.726 18.301 
10.202 18.047 10.535 c 17.793 10.87 17.32 10.933 16.984 10.679 c 16.309 
10.163 15.336 10.296 14.82 10.968 c 14.57 11.292 14.465 11.695 14.52 
12.101 c 14.523 12.152 14.555 12.195 14.566 12.242 c 19.891 12.226 l 
20.176 12.226 20.402 12.124 20.535 11.941 c 20.68 11.738 20.699 11.433 
20.582 11.109 c h
20.582 11.109 m f
11.004 8.175 m 10.848 8.23 10.676 8.148 10.617 7.992 c 10.18 6.761 l 
10.125 6.601 10.207 6.429 10.363 6.37 c 10.398 6.359 10.434 6.355 
10.465 6.355 c 10.59 6.355 10.707 6.433 10.754 6.558 c 11.191 7.788 l 
11.246 7.945 11.164 8.12 11.004 8.175 c h
11.004 8.175 m f
11.883 10.64 m 11.727 10.695 11.551 10.613 11.496 10.452 c 11.059 9.222 
l 11 9.066 11.082 8.89 11.238 8.835 c 11.273 8.824 11.309 8.816 11.34 
8.816 c 11.465 8.816 11.582 8.898 11.629 9.019 c 12.066 10.253 l 12.121 
10.41 12.039 10.581 11.883 10.64 c h
11.883 10.64 m f
23.695 11.921 m 22.18 11.925 l 22.176 11.925 l 22.012 11.925 21.875 
11.788 21.871 11.62 c 21.871 11.452 22.008 11.316 22.176 11.316 c 
23.695 11.312 l 23.863 11.312 23.996 11.449 24 11.617 c 24 11.785 
23.863 11.921 23.695 11.921 c h
23.695 11.921 m f
22.453 12.941 m 22.516 12.941 22.578 12.96 22.633 12.999 c 23.855 
13.898 l 23.992 13.999 24.02 14.187 23.922 14.324 c 23.824 14.46 23.633 
14.488 23.496 14.386 c 22.273 13.488 l 22.141 13.39 22.109 13.199 
22.211 13.062 c 22.27 12.984 22.359 12.941 22.453 12.941 c h
22.453 12.941 m f
21.312 15.402 m 21.156 15.456 20.984 15.374 20.93 15.218 c 20.418 
13.785 l 20.363 13.628 20.445 13.456 20.602 13.398 c 20.637 13.386 
20.672 13.382 20.703 13.382 c 20.832 13.382 20.945 13.46 20.992 13.581 
c 21.5 15.015 l 21.555 15.171 21.473 15.343 21.312 15.402 c h
21.312 15.402 m f
1.793 10.855 m 7.418 10.855 l 7.586 10.855 7.723 10.992 7.723 11.16 c 
7.723 11.327 7.586 11.464 7.418 11.464 c 1.793 11.464 l 1.625 11.464 
1.488 11.327 1.488 11.16 c 1.488 10.992 1.625 10.855 1.793 10.855 c h
1.793 10.855 m f
6.977 8.976 m 6.977 9.144 6.84 9.281 6.672 9.281 c 1.047 9.281 l 0.879 
9.281 0.742 9.144 0.742 8.976 c 0.742 8.808 0.879 8.671 1.047 8.671 c 
6.672 8.671 l 6.84 8.671 6.977 8.808 6.977 8.976 c h
6.977 8.976 m f
5.93 7.097 m 0.305 7.097 l 0.137 7.097 0 6.96 0 6.792 c 0 6.628 0.137 
6.492 0.305 6.492 c 5.93 6.492 l 6.098 6.492 6.234 6.628 6.234 6.792 c 
6.234 6.96 6.098 7.097 5.93 7.097 c h
5.93 7.097 m f
19.465 16.093 m 19.465 14.886 18.488 13.91 17.285 13.91 c 16.078 13.91 
15.102 14.886 15.102 16.093 c 15.102 17.296 16.078 18.273 17.285 18.273 
c 18.488 18.273 19.465 17.296 19.465 16.093 c h
19.465 16.093 m f
Q Q
showpage
%%Trailer
count op_count sub {pop} repeat
countdictstack dict_count sub {end} repeat
cairo_eps_state restore
%%EOF
