%!PS-Adobe-3.0 EPSF-3.0
%%Creator: cairo 1.10.2 (http://cairographics.org)
%%CreationDate: Fri Jul  4 10:16:09 2014
%%Pages: 1
%%BoundingBox: 0 -1 90 90
%%DocumentData: Clean7Bit
%%LanguageLevel: 2
%%EndComments
%%BeginProlog
/cairo_eps_state save def
/dict_count countdictstack def
/op_count count 1 sub def
userdict begin
/q { gsave } bind def
/Q { grestore } bind def
/cm { 6 array astore concat } bind def
/w { setlinewidth } bind def
/J { setlinecap } bind def
/j { setlinejoin } bind def
/M { setmiterlimit } bind def
/d { setdash } bind def
/m { moveto } bind def
/l { lineto } bind def
/c { curveto } bind def
/h { closepath } bind def
/re { exch dup neg 3 1 roll 5 3 roll moveto 0 rlineto
      0 exch rlineto 0 rlineto closepath } bind def
/S { stroke } bind def
/f { fill } bind def
/f* { eofill } bind def
/n { newpath } bind def
/W { clip } bind def
/W* { eoclip } bind def
/BT { } bind def
/ET { } bind def
/pdfmark where { pop globaldict /?pdfmark /exec load put }
    { globaldict begin /?pdfmark /pop load def /pdfmark
    /cleartomark load def end } ifelse
/BDC { mark 3 1 roll /BDC pdfmark } bind def
/EMC { mark /EMC pdfmark } bind def
/cairo_store_point { /cairo_point_y exch def /cairo_point_x exch def } def
/Tj { show currentpoint cairo_store_point } bind def
/TJ {
  {
    dup
    type /stringtype eq
    { show } { -0.001 mul 0 cairo_font_matrix dtransform rmoveto } ifelse
  } forall
  currentpoint cairo_store_point
} bind def
/cairo_selectfont { cairo_font_matrix aload pop pop pop 0 0 6 array astore
    cairo_font exch selectfont cairo_point_x cairo_point_y moveto } bind def
/Tf { pop /cairo_font exch def /cairo_font_matrix where
      { pop cairo_selectfont } if } bind def
/Td { matrix translate cairo_font_matrix matrix concatmatrix dup
      /cairo_font_matrix exch def dup 4 get exch 5 get cairo_store_point
      /cairo_font where { pop cairo_selectfont } if } bind def
/Tm { 2 copy 8 2 roll 6 array astore /cairo_font_matrix exch def
      cairo_store_point /cairo_font where { pop cairo_selectfont } if } bind def
/g { setgray } bind def
/rg { setrgbcolor } bind def
/d1 { setcachedevice } bind def
%%EndProlog
%%Page: 1 1
%%BeginPageSetup
%%PageBoundingBox: 0 -1 90 90
%%EndPageSetup
q 0 -1 90 91 rectclip q
0 89.6 90 -90 re W n
0 g
39.207 46.311 m 40.766 40.553 l 37.578 40.553 l 39.133 46.311 l h
77.609 36.006 m 83.598 22.401 l 68.82 20.78 l 67.199 6.002 l 53.594 
11.987 l 44.801 -0.002 l 36.008 11.991 l 22.398 6.002 l 20.781 20.78 l 
6.004 22.401 l 11.988 36.006 l 0 44.799 l 11.992 53.592 l 6.004 67.202 
l 20.781 68.819 l 22.398 83.596 l 36.008 77.612 l 44.801 89.6 l 53.594 
77.608 l 67.199 83.596 l 68.82 68.819 l 83.598 67.202 l 77.613 53.592 l 
89.602 44.799 l h
30.844 38.592 m 30.844 40.092 30.379 41.291 29.449 42.178 c 28.52 
43.065 27.148 43.803 25.336 44.385 c 24.273 44.854 23.523 45.291 23.086 
45.694 c 22.652 46.092 22.43 46.596 22.43 47.209 c 22.43 47.877 22.625 
48.432 23.008 48.877 c 23.395 49.323 23.934 49.545 24.629 49.545 c 
25.434 49.545 26.055 49.303 26.488 48.819 c 26.922 48.33 27.137 47.62 
27.137 46.682 c 30.66 46.682 l 30.688 46.756 l 30.723 48.436 30.184 
49.768 29.078 50.768 c 27.973 51.772 26.512 52.268 24.691 52.268 c 
22.977 52.268 21.562 51.799 20.461 50.866 c 19.352 49.932 18.797 48.721 
18.797 47.233 c 18.797 45.737 19.281 44.577 20.254 43.745 c 21.223 
42.916 22.668 42.17 24.59 41.514 c 25.578 41.116 26.266 40.705 26.645 
40.287 c 27.027 39.87 27.215 39.299 27.215 38.573 c 27.215 37.881 27.02 
37.33 26.629 36.916 c 26.238 36.502 25.652 36.295 24.871 36.295 c 
23.941 36.295 23.242 36.541 22.766 37.041 c 22.293 37.541 22.051 38.358 
22.051 39.498 c 18.512 39.498 l 18.488 39.42 l 18.445 37.463 19.055 
36.002 20.316 35.041 c 21.578 34.08 23.094 33.6 24.871 33.6 c 26.676 
33.6 28.121 34.045 29.211 34.932 c 30.301 35.823 30.844 37.041 30.844 
38.592 c h
46.379 33.862 m 41.062 52.006 l 37.305 52.006 l 31.988 33.862 l 35.773 
33.862 l 36.828 37.784 l 41.512 37.784 l 42.578 33.862 l h
58.5 36.604 m 51.512 36.604 l 51.512 52.006 l 47.887 52.006 l 47.887 
33.862 l 58.5 33.862 l h
71.164 36.6 m 64.305 36.6 l 64.305 41.873 l 70.035 41.873 l 70.035 
44.612 l 64.305 44.612 l 64.305 49.252 l 71.141 49.252 l 71.141 52.006 
l 60.68 52.006 l 60.68 33.862 l 71.164 33.862 l h
71.164 36.6 m f
Q Q
showpage
%%Trailer
count op_count sub {pop} repeat
countdictstack dict_count sub {end} repeat
cairo_eps_state restore
%%EOF
