%!PS-Adobe-3.0 EPSF-3.0
%%Creator: cairo 1.10.2 (http://cairographics.org)
%%CreationDate: Fri Jul  4 09:42:05 2014
%%Pages: 1
%%BoundingBox: 0 -1 26 26
%%DocumentData: Clean7Bit
%%LanguageLevel: 2
%%EndComments
%%BeginProlog
/cairo_eps_state save def
/dict_count countdictstack def
/op_count count 1 sub def
userdict begin
/q { gsave } bind def
/Q { grestore } bind def
/cm { 6 array astore concat } bind def
/w { setlinewidth } bind def
/J { setlinecap } bind def
/j { setlinejoin } bind def
/M { setmiterlimit } bind def
/d { setdash } bind def
/m { moveto } bind def
/l { lineto } bind def
/c { curveto } bind def
/h { closepath } bind def
/re { exch dup neg 3 1 roll 5 3 roll moveto 0 rlineto
      0 exch rlineto 0 rlineto closepath } bind def
/S { stroke } bind def
/f { fill } bind def
/f* { eofill } bind def
/n { newpath } bind def
/W { clip } bind def
/W* { eoclip } bind def
/BT { } bind def
/ET { } bind def
/pdfmark where { pop globaldict /?pdfmark /exec load put }
    { globaldict begin /?pdfmark /pop load def /pdfmark
    /cleartomark load def end } ifelse
/BDC { mark 3 1 roll /BDC pdfmark } bind def
/EMC { mark /EMC pdfmark } bind def
/cairo_store_point { /cairo_point_y exch def /cairo_point_x exch def } def
/Tj { show currentpoint cairo_store_point } bind def
/TJ {
  {
    dup
    type /stringtype eq
    { show } { -0.001 mul 0 cairo_font_matrix dtransform rmoveto } ifelse
  } forall
  currentpoint cairo_store_point
} bind def
/cairo_selectfont { cairo_font_matrix aload pop pop pop 0 0 6 array astore
    cairo_font exch selectfont cairo_point_x cairo_point_y moveto } bind def
/Tf { pop /cairo_font exch def /cairo_font_matrix where
      { pop cairo_selectfont } if } bind def
/Td { matrix translate cairo_font_matrix matrix concatmatrix dup
      /cairo_font_matrix exch def dup 4 get exch 5 get cairo_store_point
      /cairo_font where { pop cairo_selectfont } if } bind def
/Tm { 2 copy 8 2 roll 6 array astore /cairo_font_matrix exch def
      cairo_store_point /cairo_font where { pop cairo_selectfont } if } bind def
/g { setgray } bind def
/rg { setrgbcolor } bind def
/d1 { setcachedevice } bind def
%%EndProlog
%%Page: 1 1
%%BeginPageSetup
%%PageBoundingBox: 0 -1 26 26
%%EndPageSetup
q 0 -1 26 27 rectclip q
0 25.601 26 -26 re W n
0 g
9.355 11.558 m 6.695 12.038 6.027 14.609 6 14.726 c 5.867 15.277 5.324 
15.613 4.77 15.488 c 4.219 15.359 3.875 14.804 4.004 14.257 c 4.043 
14.093 4.98 10.265 8.988 9.538 c 9.055 9.527 9.113 9.523 9.172 9.523 c 
9.66 9.523 10.094 9.87 10.18 10.366 c 10.281 10.921 9.914 11.456 9.355 
11.558 c h
9.355 11.558 m f
21.207 8.741 m 20.918 9.03 20.527 9.191 20.121 9.191 c 19.715 9.191 
19.324 9.03 19.035 8.741 c 17.973 9.804 l 20.809 13.691 20.477 19.183 
16.969 22.691 c 15.09 24.566 12.594 25.601 9.941 25.601 c 7.285 25.601 
4.789 24.566 2.914 22.691 c 1.031 20.812 0 18.316 0 15.659 c 0 13.007 
1.031 10.511 2.91 8.632 c 4.789 6.753 7.285 5.722 9.938 5.722 c 12.074 
5.722 14.105 6.39 15.797 7.628 c 16.859 6.566 l 16.57 6.277 16.41 5.886 
16.41 5.48 c 16.41 5.073 16.57 4.683 16.859 4.394 c 20.773 0.48 l 
21.414 -0.161 22.449 -0.161 23.09 0.48 c 25.121 2.511 l 25.762 3.152 
25.762 4.187 25.121 4.827 c h
9.938 8.796 m 8.105 8.796 6.379 9.511 5.086 10.808 c 3.789 12.105 3.074 
13.827 3.074 15.659 c 3.074 17.495 3.789 19.218 5.086 20.515 c 6.379 
21.812 8.105 22.527 9.938 22.527 c 11.773 22.527 13.496 21.812 14.793 
20.515 c 17.469 17.839 17.469 13.484 14.793 10.808 c 13.496 9.511 
11.773 8.796 9.938 8.796 c h
9.938 8.796 m f
6.219 17.562 m 6.219 17.007 5.77 16.558 5.215 16.558 c 4.66 16.558 
4.211 17.007 4.211 17.562 c 4.211 18.116 4.66 18.566 5.215 18.566 c 
5.77 18.566 6.219 18.116 6.219 17.562 c h
6.219 17.562 m f
Q Q
showpage
%%Trailer
count op_count sub {pop} repeat
countdictstack dict_count sub {end} repeat
cairo_eps_state restore
%%EOF
