%!PS-Adobe-3.0 EPSF-3.0
%%Creator: cairo 1.10.2 (http://cairographics.org)
%%CreationDate: Fri Jul  4 09:49:21 2014
%%Pages: 1
%%BoundingBox: 0 -1 19 19
%%DocumentData: Clean7Bit
%%LanguageLevel: 2
%%EndComments
%%BeginProlog
/cairo_eps_state save def
/dict_count countdictstack def
/op_count count 1 sub def
userdict begin
/q { gsave } bind def
/Q { grestore } bind def
/cm { 6 array astore concat } bind def
/w { setlinewidth } bind def
/J { setlinecap } bind def
/j { setlinejoin } bind def
/M { setmiterlimit } bind def
/d { setdash } bind def
/m { moveto } bind def
/l { lineto } bind def
/c { curveto } bind def
/h { closepath } bind def
/re { exch dup neg 3 1 roll 5 3 roll moveto 0 rlineto
      0 exch rlineto 0 rlineto closepath } bind def
/S { stroke } bind def
/f { fill } bind def
/f* { eofill } bind def
/n { newpath } bind def
/W { clip } bind def
/W* { eoclip } bind def
/BT { } bind def
/ET { } bind def
/pdfmark where { pop globaldict /?pdfmark /exec load put }
    { globaldict begin /?pdfmark /pop load def /pdfmark
    /cleartomark load def end } ifelse
/BDC { mark 3 1 roll /BDC pdfmark } bind def
/EMC { mark /EMC pdfmark } bind def
/cairo_store_point { /cairo_point_y exch def /cairo_point_x exch def } def
/Tj { show currentpoint cairo_store_point } bind def
/TJ {
  {
    dup
    type /stringtype eq
    { show } { -0.001 mul 0 cairo_font_matrix dtransform rmoveto } ifelse
  } forall
  currentpoint cairo_store_point
} bind def
/cairo_selectfont { cairo_font_matrix aload pop pop pop 0 0 6 array astore
    cairo_font exch selectfont cairo_point_x cairo_point_y moveto } bind def
/Tf { pop /cairo_font exch def /cairo_font_matrix where
      { pop cairo_selectfont } if } bind def
/Td { matrix translate cairo_font_matrix matrix concatmatrix dup
      /cairo_font_matrix exch def dup 4 get exch 5 get cairo_store_point
      /cairo_font where { pop cairo_selectfont } if } bind def
/Tm { 2 copy 8 2 roll 6 array astore /cairo_font_matrix exch def
      cairo_store_point /cairo_font where { pop cairo_selectfont } if } bind def
/g { setgray } bind def
/rg { setrgbcolor } bind def
/d1 { setcachedevice } bind def
%%EndProlog
%%Page: 1 1
%%BeginPageSetup
%%PageBoundingBox: 0 -1 19 19
%%EndPageSetup
q 0 -1 19 20 rectclip q
0 18.412 19 -19 re W n
0.0196078 g
10.406 0.002 m 8.461 0.002 l 8.09 0.002 7.98 0.002 6.969 2.502 c 6.297 
2.775 l 4.219 1.834 3.969 1.834 3.859 1.834 c 3.723 1.834 3.566 1.892 
3.473 1.99 c 2.094 3.338 l 1.82 3.607 1.75 3.678 2.84 6.154 c 2.57 
6.799 l 0 7.717 0 7.83 0 8.213 c 0 10.119 l 0 10.502 0 10.6 2.562 
11.592 c 2.832 12.236 l 1.68 14.666 1.758 14.744 2.035 15.017 c 3.414 
16.365 l 3.512 16.459 3.668 16.517 3.801 16.517 c 3.902 16.517 4.164 
16.517 6.277 15.627 c 6.945 15.9 l 7.887 18.412 8.004 18.412 8.379 
18.412 c 10.324 18.412 l 10.695 18.412 10.805 18.412 11.812 15.908 c 
12.488 15.635 l 14.562 16.576 14.812 16.576 14.922 16.576 c 15.059 
16.576 15.211 16.517 15.309 16.424 c 16.691 15.076 l 16.957 14.81 
17.035 14.736 15.941 12.26 c 16.215 11.611 l 18.785 10.693 18.785 
10.584 18.785 10.201 c 18.785 8.295 l 18.785 7.912 18.781 7.814 16.223 
6.822 c 15.953 6.178 l 17.105 3.748 17.023 3.67 16.75 3.396 c 15.367 
2.045 l 15.27 1.951 15.117 1.892 14.98 1.892 c 14.883 1.892 14.625 
1.892 12.512 2.787 c 11.836 2.514 l 10.898 0.002 10.789 0.002 10.406 
0.002 c h
8.738 1.041 m 10.121 1.041 l 10.305 1.435 10.656 2.326 10.941 3.092 c 
10.992 3.228 11.098 3.338 11.234 3.392 c 12.32 3.834 l 12.445 3.885 
12.594 3.881 12.719 3.826 c 13.5 3.498 14.422 3.123 14.84 2.982 c 
15.805 3.932 l 15.652 4.342 15.258 5.209 14.91 5.939 c 14.848 6.072 
14.844 6.228 14.902 6.365 c 15.348 7.428 l 15.402 7.557 15.508 7.662 
15.641 7.709 c 16.426 8.014 17.344 8.389 17.742 8.58 c 17.742 9.904 l 
17.336 10.084 16.43 10.432 15.648 10.709 c 15.512 10.756 15.398 10.861 
15.344 10.998 c 14.895 12.06 l 14.84 12.193 14.84 12.342 14.898 12.475 
c 15.234 13.228 15.605 14.119 15.754 14.537 c 14.785 15.478 l 14.371 
15.33 13.473 14.943 12.715 14.596 c 12.586 14.537 12.434 14.533 12.305 
14.588 c 11.219 15.025 l 11.086 15.08 10.98 15.185 10.93 15.314 c 
10.621 16.084 10.238 16.982 10.043 17.373 c 8.664 17.373 l 8.48 16.978 
8.125 16.088 7.84 15.322 c 7.793 15.185 7.684 15.076 7.551 15.021 c 
6.469 14.58 l 6.34 14.529 6.195 14.529 6.066 14.584 c 5.285 14.916 
4.359 15.287 3.945 15.424 c 2.977 14.482 l 3.133 14.072 3.523 13.205 
3.871 12.471 c 3.938 12.338 3.938 12.182 3.883 12.045 c 3.434 10.982 l 
3.375 10.853 3.273 10.748 3.141 10.701 c 2.355 10.396 1.441 10.021 
1.039 9.834 c 1.039 8.506 l 1.445 8.322 2.352 7.978 3.133 7.701 c 3.273 
7.65 3.383 7.545 3.438 7.412 c 3.887 6.35 l 3.941 6.221 3.938 6.072 
3.883 5.939 c 3.547 5.185 3.176 4.291 3.027 3.877 c 3.996 2.932 l 4.41 
3.084 5.309 3.471 6.066 3.814 c 6.195 3.873 6.344 3.877 6.477 3.826 c 
7.562 3.385 l 7.695 3.33 7.797 3.228 7.852 3.096 c 8.16 2.326 8.543 
1.432 8.738 1.041 c h
9.391 5.9 m 7.535 5.9 6.027 7.385 6.027 9.205 c 6.027 11.025 7.535 
12.506 9.391 12.506 c 11.246 12.506 12.758 11.025 12.758 9.205 c 12.758 
7.385 11.246 5.9 9.391 5.9 c h
9.391 11.467 m 8.109 11.467 7.066 10.451 7.066 9.205 c 7.066 7.955 
8.109 6.943 9.391 6.943 c 10.672 6.943 11.715 7.959 11.715 9.205 c 
11.715 10.451 10.672 11.467 9.391 11.467 c h
9.391 11.467 m f
Q Q
showpage
%%Trailer
count op_count sub {pop} repeat
countdictstack dict_count sub {end} repeat
cairo_eps_state restore
%%EOF
