%!PS-Adobe-3.0 EPSF-3.0
%%Creator: cairo 1.10.2 (http://cairographics.org)
%%CreationDate: Fri Jul  4 09:22:39 2014
%%Pages: 1
%%BoundingBox: 0 -1 410 410
%%DocumentData: Clean7Bit
%%LanguageLevel: 2
%%EndComments
%%BeginProlog
/cairo_eps_state save def
/dict_count countdictstack def
/op_count count 1 sub def
userdict begin
/q { gsave } bind def
/Q { grestore } bind def
/cm { 6 array astore concat } bind def
/w { setlinewidth } bind def
/J { setlinecap } bind def
/j { setlinejoin } bind def
/M { setmiterlimit } bind def
/d { setdash } bind def
/m { moveto } bind def
/l { lineto } bind def
/c { curveto } bind def
/h { closepath } bind def
/re { exch dup neg 3 1 roll 5 3 roll moveto 0 rlineto
      0 exch rlineto 0 rlineto closepath } bind def
/S { stroke } bind def
/f { fill } bind def
/f* { eofill } bind def
/n { newpath } bind def
/W { clip } bind def
/W* { eoclip } bind def
/BT { } bind def
/ET { } bind def
/pdfmark where { pop globaldict /?pdfmark /exec load put }
    { globaldict begin /?pdfmark /pop load def /pdfmark
    /cleartomark load def end } ifelse
/BDC { mark 3 1 roll /BDC pdfmark } bind def
/EMC { mark /EMC pdfmark } bind def
/cairo_store_point { /cairo_point_y exch def /cairo_point_x exch def } def
/Tj { show currentpoint cairo_store_point } bind def
/TJ {
  {
    dup
    type /stringtype eq
    { show } { -0.001 mul 0 cairo_font_matrix dtransform rmoveto } ifelse
  } forall
  currentpoint cairo_store_point
} bind def
/cairo_selectfont { cairo_font_matrix aload pop pop pop 0 0 6 array astore
    cairo_font exch selectfont cairo_point_x cairo_point_y moveto } bind def
/Tf { pop /cairo_font exch def /cairo_font_matrix where
      { pop cairo_selectfont } if } bind def
/Td { matrix translate cairo_font_matrix matrix concatmatrix dup
      /cairo_font_matrix exch def dup 4 get exch 5 get cairo_store_point
      /cairo_font where { pop cairo_selectfont } if } bind def
/Tm { 2 copy 8 2 roll 6 array astore /cairo_font_matrix exch def
      cairo_store_point /cairo_font where { pop cairo_selectfont } if } bind def
/g { setgray } bind def
/rg { setrgbcolor } bind def
/d1 { setcachedevice } bind def
%%EndProlog
%%Page: 1 1
%%BeginPageSetup
%%PageBoundingBox: 0 -1 410 410
%%EndPageSetup
q 0 -1 410 411 rectclip q
0 409.6 410 -410 re W n
0 g
242.699 252.424 m 239.375 333.702 217.75 409.6 179.199 409.6 c 140.648 
409.6 119.023 333.702 115.699 252.424 c 107.898 248.049 102.398 239.998 
102.398 230.401 c 102.398 216.248 113.852 204.799 128 204.799 c 142.148 
204.799 153.602 216.252 153.602 230.401 c 153.602 239.475 148.602 
247.077 141.5 251.623 c 144.852 334.026 166.727 383.998 179.199 383.998 
c 191.676 383.998 213.551 333.998 216.926 251.6 c 209.801 247.077 
204.801 239.475 204.801 230.401 c 204.801 216.248 216.25 204.799 
230.398 204.799 c 244.551 204.799 256 216.252 256 230.401 c 256 239.998 
250.5 248.049 242.699 252.424 c h
242.699 252.424 m f
320 179.202 m 270.5 179.202 230.398 139.1 230.398 89.6 c 230.398 40.1 
270.5 -0.002 320 -0.002 c 369.5 -0.002 409.602 40.1 409.602 89.6 c 
409.602 139.1 369.5 179.202 320 179.202 c h
384 76.799 m 332.801 76.799 l 332.801 25.6 l 307.199 25.6 l 307.199 
76.799 l 256 76.799 l 256 102.401 l 307.199 102.401 l 307.199 153.6 l 
332.801 153.6 l 332.801 102.401 l 384 102.401 l h
384 76.799 m f
298.324 204.799 m 324.273 204.799 l 307.199 307.202 l 256 307.202 l 256 
281.6 l 285.523 281.6 l h
298.324 204.799 m f
30.227 25.6 m 72.898 281.6 l 102.398 281.6 l 102.398 307.202 l 51.199 
307.202 l 0 -0.002 l 230.398 -0.002 l 230.398 25.6 l h
30.227 25.6 m f
Q Q
showpage
%%Trailer
count op_count sub {pop} repeat
countdictstack dict_count sub {end} repeat
cairo_eps_state restore
%%EOF
