%!PS-Adobe-3.0 EPSF-3.0
%%Creator: cairo 1.10.2 (http://cairographics.org)
%%CreationDate: Fri Jul  4 09:32:44 2014
%%Pages: 1
%%BoundingBox: 0 -1 410 410
%%DocumentData: Clean7Bit
%%LanguageLevel: 2
%%EndComments
%%BeginProlog
/cairo_eps_state save def
/dict_count countdictstack def
/op_count count 1 sub def
userdict begin
/q { gsave } bind def
/Q { grestore } bind def
/cm { 6 array astore concat } bind def
/w { setlinewidth } bind def
/J { setlinecap } bind def
/j { setlinejoin } bind def
/M { setmiterlimit } bind def
/d { setdash } bind def
/m { moveto } bind def
/l { lineto } bind def
/c { curveto } bind def
/h { closepath } bind def
/re { exch dup neg 3 1 roll 5 3 roll moveto 0 rlineto
      0 exch rlineto 0 rlineto closepath } bind def
/S { stroke } bind def
/f { fill } bind def
/f* { eofill } bind def
/n { newpath } bind def
/W { clip } bind def
/W* { eoclip } bind def
/BT { } bind def
/ET { } bind def
/pdfmark where { pop globaldict /?pdfmark /exec load put }
    { globaldict begin /?pdfmark /pop load def /pdfmark
    /cleartomark load def end } ifelse
/BDC { mark 3 1 roll /BDC pdfmark } bind def
/EMC { mark /EMC pdfmark } bind def
/cairo_store_point { /cairo_point_y exch def /cairo_point_x exch def } def
/Tj { show currentpoint cairo_store_point } bind def
/TJ {
  {
    dup
    type /stringtype eq
    { show } { -0.001 mul 0 cairo_font_matrix dtransform rmoveto } ifelse
  } forall
  currentpoint cairo_store_point
} bind def
/cairo_selectfont { cairo_font_matrix aload pop pop pop 0 0 6 array astore
    cairo_font exch selectfont cairo_point_x cairo_point_y moveto } bind def
/Tf { pop /cairo_font exch def /cairo_font_matrix where
      { pop cairo_selectfont } if } bind def
/Td { matrix translate cairo_font_matrix matrix concatmatrix dup
      /cairo_font_matrix exch def dup 4 get exch 5 get cairo_store_point
      /cairo_font where { pop cairo_selectfont } if } bind def
/Tm { 2 copy 8 2 roll 6 array astore /cairo_font_matrix exch def
      cairo_store_point /cairo_font where { pop cairo_selectfont } if } bind def
/g { setgray } bind def
/rg { setrgbcolor } bind def
/d1 { setcachedevice } bind def
%%EndProlog
%%Page: 1 1
%%BeginPageSetup
%%PageBoundingBox: 0 -1 410 410
%%EndPageSetup
q 0 -1 410 411 rectclip q
0 409.6 410 -410 re W n
0 g
358.398 102.401 m 145.227 102.401 l 55.625 307.202 l 0 307.202 l 0 
332.799 l 72.375 332.799 l 161.977 127.998 l 358.398 127.998 l h
358.398 102.401 m f
230.398 38.401 m 230.398 17.202 213.199 -0.002 192 -0.002 c 170.789 
-0.002 153.602 17.202 153.602 38.401 c 153.602 59.6 170.789 76.799 192 
76.799 c 213.199 76.799 230.398 59.6 230.398 38.401 c h
230.398 38.401 m f
358.398 38.401 m 358.398 17.202 341.199 -0.002 320 -0.002 c 298.801 
-0.002 281.602 17.202 281.602 38.401 c 281.602 59.6 298.801 76.799 320 
76.799 c 341.199 76.799 358.398 59.6 358.398 38.401 c h
358.398 38.401 m f
320 204.799 m 270 204.799 227.773 236.998 211.875 281.6 c 128 281.6 l 
179.199 153.6 l 358.398 153.6 l 387.949 227.452 l 368.852 213.401 
345.477 204.799 320 204.799 c h
320 204.799 m f
320 409.6 m 270.523 409.6 230.398 369.475 230.398 319.998 c 230.398 
270.526 270.523 230.401 320 230.401 c 369.477 230.401 409.602 270.526 
409.602 319.998 c 409.602 369.475 369.477 409.6 320 409.6 c h
306.426 274.748 m 261.176 319.998 l 279.273 338.1 l 306.426 310.948 l 
360.727 365.248 l 378.824 347.151 l h
306.426 274.748 m f
Q Q
showpage
%%Trailer
count op_count sub {pop} repeat
countdictstack dict_count sub {end} repeat
cairo_eps_state restore
%%EOF
