%!PS-Adobe-3.0 EPSF-3.0
%%Creator: cairo 1.10.2 (http://cairographics.org)
%%CreationDate: Mon Aug 25 07:16:10 2014
%%Pages: 1
%%BoundingBox: 0 -1 760 550
%%DocumentData: Clean7Bit
%%LanguageLevel: 2
%%EndComments
%%BeginProlog
/cairo_eps_state save def
/dict_count countdictstack def
/op_count count 1 sub def
userdict begin
/q { gsave } bind def
/Q { grestore } bind def
/cm { 6 array astore concat } bind def
/w { setlinewidth } bind def
/J { setlinecap } bind def
/j { setlinejoin } bind def
/M { setmiterlimit } bind def
/d { setdash } bind def
/m { moveto } bind def
/l { lineto } bind def
/c { curveto } bind def
/h { closepath } bind def
/re { exch dup neg 3 1 roll 5 3 roll moveto 0 rlineto
      0 exch rlineto 0 rlineto closepath } bind def
/S { stroke } bind def
/f { fill } bind def
/f* { eofill } bind def
/n { newpath } bind def
/W { clip } bind def
/W* { eoclip } bind def
/BT { } bind def
/ET { } bind def
/pdfmark where { pop globaldict /?pdfmark /exec load put }
    { globaldict begin /?pdfmark /pop load def /pdfmark
    /cleartomark load def end } ifelse
/BDC { mark 3 1 roll /BDC pdfmark } bind def
/EMC { mark /EMC pdfmark } bind def
/cairo_store_point { /cairo_point_y exch def /cairo_point_x exch def } def
/Tj { show currentpoint cairo_store_point } bind def
/TJ {
  {
    dup
    type /stringtype eq
    { show } { -0.001 mul 0 cairo_font_matrix dtransform rmoveto } ifelse
  } forall
  currentpoint cairo_store_point
} bind def
/cairo_selectfont { cairo_font_matrix aload pop pop pop 0 0 6 array astore
    cairo_font exch selectfont cairo_point_x cairo_point_y moveto } bind def
/Tf { pop /cairo_font exch def /cairo_font_matrix where
      { pop cairo_selectfont } if } bind def
/Td { matrix translate cairo_font_matrix matrix concatmatrix dup
      /cairo_font_matrix exch def dup 4 get exch 5 get cairo_store_point
      /cairo_font where { pop cairo_selectfont } if } bind def
/Tm { 2 copy 8 2 roll 6 array astore /cairo_font_matrix exch def
      cairo_store_point /cairo_font where { pop cairo_selectfont } if } bind def
/g { setgray } bind def
/rg { setrgbcolor } bind def
/d1 { setcachedevice } bind def
%%EndProlog
%%Page: 1 1
%%BeginPageSetup
%%PageBoundingBox: 0 -1 760 550
%%EndPageSetup
q 0 -1 760 551 rectclip q
0 549.502 760 -550 re W n
0.129412 0.0980392 0.0823529 rg
759.547 475.107 m 289.676 474.927 l 296.324 549.502 l 160.215 549.502 l 
160.215 497.502 l 239.48 497.502 l 237.32 473.271 l 226.117 347.584 l 0 
347.584 l 0 295.584 l 221.48 295.584 l 218.055 257.15 l 114.824 257.15 
l 114.824 205.15 l 213.418 205.15 l 211.281 181.193 l 654.395 181.193 l 
h
268.125 233.193 m 273.688 295.584 l 316.242 295.584 l 316.242 347.584 l 
278.324 347.584 l 285.039 422.927 l 685.707 423.08 l 617.77 233.193 l h
268.125 233.193 m f
501.598 24.959 m 514.988 9.099 535.234 0.002 557.152 0.002 c 600.102 
0.002 639.457 33.509 646.742 76.283 c 650.504 98.38 644.887 120.271 
631.324 136.338 c 617.934 152.201 597.688 161.298 575.77 161.298 c 
276.211 161.298 l 233.258 161.298 193.906 127.791 186.621 85.013 c 
182.855 62.916 188.477 41.029 202.039 24.959 c 215.43 9.099 235.676 
0.002 257.594 0.002 c 300.543 0.002 339.895 33.509 347.18 76.283 c 
349.105 87.595 348.57 98.849 345.773 109.298 c 494.137 109.298 l 
490.363 101.701 487.633 93.545 486.18 85.017 c 482.418 62.916 488.035 
41.029 501.598 24.959 c h
292.027 102.798 m 295.742 98.4 297.125 92.084 295.922 85.017 c 292.926 
67.427 275.016 52.002 257.594 52.002 c 250.836 52.002 245.367 54.248 
241.777 58.502 c 238.062 62.9 236.68 69.216 237.883 76.283 c 240.879 
93.873 258.789 109.298 276.211 109.298 c 282.969 109.298 288.438 
107.052 292.027 102.798 c h
591.586 102.798 m 595.301 98.4 596.684 92.084 595.48 85.017 c 592.484 
67.427 574.574 52.002 557.152 52.002 c 550.395 52.002 544.926 54.248 
541.336 58.502 c 537.621 62.9 536.238 69.216 537.441 76.283 c 540.438 
93.873 558.348 109.298 575.77 109.298 c 582.527 109.298 587.996 107.052 
591.586 102.798 c h
591.586 102.798 m f
63.16 434.603 139.781 -52 re f
Q Q
showpage
%%Trailer
count op_count sub {pop} repeat
countdictstack dict_count sub {end} repeat
cairo_eps_state restore
%%EOF
