%!PS-Adobe-3.0 EPSF-3.0
%%Creator: cairo 1.10.2 (http://cairographics.org)
%%CreationDate: Fri Jul  4 09:48:26 2014
%%Pages: 1
%%BoundingBox: 0 -1 19 22
%%DocumentData: Clean7Bit
%%LanguageLevel: 2
%%EndComments
%%BeginProlog
/cairo_eps_state save def
/dict_count countdictstack def
/op_count count 1 sub def
userdict begin
/q { gsave } bind def
/Q { grestore } bind def
/cm { 6 array astore concat } bind def
/w { setlinewidth } bind def
/J { setlinecap } bind def
/j { setlinejoin } bind def
/M { setmiterlimit } bind def
/d { setdash } bind def
/m { moveto } bind def
/l { lineto } bind def
/c { curveto } bind def
/h { closepath } bind def
/re { exch dup neg 3 1 roll 5 3 roll moveto 0 rlineto
      0 exch rlineto 0 rlineto closepath } bind def
/S { stroke } bind def
/f { fill } bind def
/f* { eofill } bind def
/n { newpath } bind def
/W { clip } bind def
/W* { eoclip } bind def
/BT { } bind def
/ET { } bind def
/pdfmark where { pop globaldict /?pdfmark /exec load put }
    { globaldict begin /?pdfmark /pop load def /pdfmark
    /cleartomark load def end } ifelse
/BDC { mark 3 1 roll /BDC pdfmark } bind def
/EMC { mark /EMC pdfmark } bind def
/cairo_store_point { /cairo_point_y exch def /cairo_point_x exch def } def
/Tj { show currentpoint cairo_store_point } bind def
/TJ {
  {
    dup
    type /stringtype eq
    { show } { -0.001 mul 0 cairo_font_matrix dtransform rmoveto } ifelse
  } forall
  currentpoint cairo_store_point
} bind def
/cairo_selectfont { cairo_font_matrix aload pop pop pop 0 0 6 array astore
    cairo_font exch selectfont cairo_point_x cairo_point_y moveto } bind def
/Tf { pop /cairo_font exch def /cairo_font_matrix where
      { pop cairo_selectfont } if } bind def
/Td { matrix translate cairo_font_matrix matrix concatmatrix dup
      /cairo_font_matrix exch def dup 4 get exch 5 get cairo_store_point
      /cairo_font where { pop cairo_selectfont } if } bind def
/Tm { 2 copy 8 2 roll 6 array astore /cairo_font_matrix exch def
      cairo_store_point /cairo_font where { pop cairo_selectfont } if } bind def
/g { setgray } bind def
/rg { setrgbcolor } bind def
/d1 { setcachedevice } bind def
%%EndProlog
%%Page: 1 1
%%BeginPageSetup
%%PageBoundingBox: 0 -1 19 22
%%EndPageSetup
q 0 -1 19 23 rectclip q
0 21.81 19 -22 re W n
0 g
15.633 21.81 m 2.758 21.81 l 1.234 21.81 0 20.486 0 18.857 c 0 2.951 l 
0 1.318 1.234 0.002 2.758 0.002 c 15.633 0.002 l 17.156 0.002 18.391 
1.318 18.391 2.951 c 18.391 18.857 l 18.391 20.49 17.156 21.81 15.633 
21.81 c h
17.285 2.693 m 17.285 1.849 16.645 1.166 15.859 1.166 c 2.531 1.166 l 
1.742 1.166 1.105 1.849 1.105 2.693 c 1.105 19.115 l 1.105 19.959 1.742 
20.642 2.531 20.642 c 15.859 20.642 l 16.645 20.642 17.285 19.959 
17.285 19.115 c h
17.285 2.693 m f
1.906 12.939 m 16.469 12.939 l 16.469 19.408 l 1.906 19.408 l h
2.254 19.064 m 16.125 19.064 l 16.125 13.287 l 2.254 13.287 l h
2.254 19.064 m f
7.156 18.189 m 5.512 18.189 l 5.277 18.189 5.121 18.033 5.121 17.799 c 
5.121 17.564 5.277 17.408 5.512 17.408 c 7.008 17.408 l 7.008 16.764 l 
7.008 16.564 6.949 16.564 6.918 16.564 c 5.98 16.564 l 5.746 16.564 
5.59 16.404 5.59 16.174 c 5.59 15.939 5.746 15.783 5.98 15.783 c 6.918 
15.783 l 6.949 15.783 7.008 15.783 7.008 15.584 c 7.008 14.939 l 5.512 
14.939 l 5.277 14.939 5.121 14.783 5.121 14.549 c 5.121 14.314 5.277 
14.158 5.512 14.158 c 7.156 14.158 l 7.516 14.158 7.789 14.431 7.789 
14.787 c 7.789 15.709 l 7.789 15.861 7.77 16.017 7.652 16.174 c 7.77 
16.33 7.789 16.486 7.789 16.639 c 7.789 17.56 l 7.789 17.916 7.516 
18.189 7.156 18.189 c h
7.156 18.189 m f
8.863 15.06 m 8.645 15.06 l 8.57 15.06 8.48 15.06 8.41 14.963 c 8.359 
14.892 8.359 14.834 8.359 14.771 c 8.359 14.599 l 8.359 14.537 8.359 
14.478 8.406 14.408 c 8.48 14.31 8.57 14.31 8.645 14.31 c 8.863 14.31 l 
8.934 14.31 9.027 14.31 9.098 14.408 c 9.145 14.478 9.145 14.537 9.145 
14.599 c 9.145 14.771 l 9.145 14.834 9.145 14.892 9.098 14.963 c 9.027 
15.06 8.938 15.06 8.863 15.06 c h
8.863 15.06 m f
11.988 16.146 m 11.75 16.146 11.602 15.998 11.602 15.756 c 11.602 
14.939 l 11.438 14.939 l 11.438 18.189 l 10.102 18.189 l 9.867 18.189 
9.711 18.033 9.711 17.799 c 9.711 17.564 9.867 17.408 10.102 17.408 c 
10.656 17.408 l 10.656 14.939 l 10.102 14.939 l 9.867 14.939 9.711 
14.783 9.711 14.549 c 9.711 14.314 9.867 14.158 10.102 14.158 c 11.988 
14.158 l 12.223 14.158 12.379 14.314 12.379 14.549 c 12.379 15.756 l 
12.379 15.998 12.23 16.146 11.988 16.146 c h
11.988 16.146 m f
12.703 17.799 m 12.703 17.556 l 12.703 17.373 12.852 17.17 13.094 17.17 
c 13.27 17.17 13.398 17.275 13.449 17.408 c 14.59 17.408 l 14.59 16.865 
l 14.59 16.818 14.594 16.767 14.586 16.756 c 14.578 16.74 14.531 16.697 
14.492 16.666 c 13.832 16.096 l 13.68 15.963 13.656 15.908 13.656 
15.705 c 13.656 14.549 l 13.656 14.303 13.801 14.162 14.043 14.162 c 
14.289 14.162 14.434 14.303 14.434 14.549 c 14.434 15.478 l 14.434 
15.502 14.434 15.568 14.441 15.58 c 14.445 15.592 14.484 15.623 14.516 
15.654 c 15.188 16.232 l 15.352 16.373 15.367 16.439 15.367 16.646 c 
15.367 18.189 l 13.09 18.189 l 12.852 18.189 12.703 17.986 12.703 
17.799 c h
12.703 17.799 m f
6.961 11.873 m 2.961 11.873 l 2.379 11.873 1.906 11.4 1.906 10.818 c 
1.906 8.674 l 1.906 8.092 2.379 7.623 2.961 7.623 c 6.961 7.623 l 7.539 
7.623 8.012 8.096 8.012 8.674 c 8.012 10.818 l 8.012 11.4 7.539 11.873 
6.961 11.873 c h
6.566 9.373 m 3.355 9.373 l 3.355 10.123 l 6.566 10.123 l h
6.566 9.373 m f
6.961 6.646 m 2.961 6.646 l 2.379 6.646 1.906 6.178 1.906 5.596 c 1.906 
3.451 l 1.906 2.873 2.379 2.4 2.961 2.4 c 6.961 2.4 l 7.539 2.4 8.012 
2.873 8.012 3.451 c 8.012 5.596 l 8.012 6.178 7.539 6.646 6.961 6.646 c 
h
6.566 4.15 m 5.336 4.15 l 5.336 2.92 l 4.582 2.92 l 4.582 4.15 l 3.355 
4.15 l 3.355 4.9 l 4.586 4.9 l 4.586 6.131 l 5.336 6.131 l 5.336 4.9 l 
6.566 4.9 l h
6.566 4.15 m f
15.344 11.885 m 11.34 11.885 l 10.762 11.885 10.293 11.412 10.293 
10.834 c 10.293 3.467 l 10.293 2.885 10.762 2.416 11.34 2.416 c 15.344 
2.416 l 15.926 2.416 16.395 2.885 16.395 3.467 c 16.395 10.834 l 16.395 
11.412 15.922 11.885 15.344 11.885 c h
14.949 6.041 m 11.734 6.041 l 11.734 6.791 l 14.949 6.791 l h
14.949 7.506 m 11.734 7.506 l 11.734 8.256 l 14.949 8.256 l h
14.949 7.506 m f
Q Q
showpage
%%Trailer
count op_count sub {pop} repeat
countdictstack dict_count sub {end} repeat
cairo_eps_state restore
%%EOF
