%!PS-Adobe-3.0 EPSF-3.0
%%Creator: cairo 1.10.2 (http://cairographics.org)
%%CreationDate: Fri Jul  4 08:58:12 2014
%%Pages: 1
%%BoundingBox: 0 -1 26 26
%%DocumentData: Clean7Bit
%%LanguageLevel: 2
%%EndComments
%%BeginProlog
/cairo_eps_state save def
/dict_count countdictstack def
/op_count count 1 sub def
userdict begin
/q { gsave } bind def
/Q { grestore } bind def
/cm { 6 array astore concat } bind def
/w { setlinewidth } bind def
/J { setlinecap } bind def
/j { setlinejoin } bind def
/M { setmiterlimit } bind def
/d { setdash } bind def
/m { moveto } bind def
/l { lineto } bind def
/c { curveto } bind def
/h { closepath } bind def
/re { exch dup neg 3 1 roll 5 3 roll moveto 0 rlineto
      0 exch rlineto 0 rlineto closepath } bind def
/S { stroke } bind def
/f { fill } bind def
/f* { eofill } bind def
/n { newpath } bind def
/W { clip } bind def
/W* { eoclip } bind def
/BT { } bind def
/ET { } bind def
/pdfmark where { pop globaldict /?pdfmark /exec load put }
    { globaldict begin /?pdfmark /pop load def /pdfmark
    /cleartomark load def end } ifelse
/BDC { mark 3 1 roll /BDC pdfmark } bind def
/EMC { mark /EMC pdfmark } bind def
/cairo_store_point { /cairo_point_y exch def /cairo_point_x exch def } def
/Tj { show currentpoint cairo_store_point } bind def
/TJ {
  {
    dup
    type /stringtype eq
    { show } { -0.001 mul 0 cairo_font_matrix dtransform rmoveto } ifelse
  } forall
  currentpoint cairo_store_point
} bind def
/cairo_selectfont { cairo_font_matrix aload pop pop pop 0 0 6 array astore
    cairo_font exch selectfont cairo_point_x cairo_point_y moveto } bind def
/Tf { pop /cairo_font exch def /cairo_font_matrix where
      { pop cairo_selectfont } if } bind def
/Td { matrix translate cairo_font_matrix matrix concatmatrix dup
      /cairo_font_matrix exch def dup 4 get exch 5 get cairo_store_point
      /cairo_font where { pop cairo_selectfont } if } bind def
/Tm { 2 copy 8 2 roll 6 array astore /cairo_font_matrix exch def
      cairo_store_point /cairo_font where { pop cairo_selectfont } if } bind def
/g { setgray } bind def
/rg { setrgbcolor } bind def
/d1 { setcachedevice } bind def
%%EndProlog
%%Page: 1 1
%%BeginPageSetup
%%PageBoundingBox: 0 -1 26 26
%%EndPageSetup
q 0 -1 26 27 rectclip q
0 25.6 26 -26 re W n
0.2 0.2 0.196078 rg
23.469 23.202 m 20 23.202 l 20 24.799 l 20 25.241 19.641 25.6 19.199 
25.6 c 18.758 25.6 18.398 25.241 18.398 24.799 c 18.398 23.202 l 13.602 
23.202 l 13.602 24.799 l 13.602 25.241 13.242 25.6 12.801 25.6 c 12.359 
25.6 12 25.241 12 24.799 c 12 23.202 l 7.199 23.202 l 7.199 24.799 l 
7.199 25.241 6.84 25.6 6.398 25.6 c 5.957 25.6 5.602 25.241 5.602 
24.799 c 5.602 23.202 l 2.133 23.202 l 0.957 23.202 0 22.245 0 21.069 c 
0 2.135 l 0 0.955 0.957 -0.002 2.133 -0.002 c 23.469 -0.002 l 24.645 
-0.002 25.602 0.955 25.602 2.135 c 25.602 21.069 l 25.602 22.245 24.645 
23.202 23.469 23.202 c h
24 2.135 m 24 1.838 23.762 1.6 23.469 1.6 c 2.133 1.6 l 1.84 1.6 1.602 
1.838 1.602 2.135 c 1.602 21.069 l 1.602 21.362 1.84 21.6 2.133 21.6 c 
5.602 21.6 l 5.602 19.998 l 5.602 19.557 5.957 19.202 6.398 19.202 c 
6.84 19.202 7.199 19.557 7.199 19.998 c 7.199 21.6 l 12 21.6 l 12 
19.998 l 12 19.557 12.359 19.202 12.801 19.202 c 13.242 19.202 13.602 
19.557 13.602 19.998 c 13.602 21.6 l 18.398 21.6 l 18.398 19.998 l 
18.398 19.557 18.758 19.202 19.199 19.202 c 19.641 19.202 20 19.557 20 
19.998 c 20 21.6 l 23.469 21.6 l 23.762 21.6 24 21.362 24 21.069 c h
24 2.135 m f
5.602 15.998 3.199 -2.398 re f
5.602 11.998 3.199 -2.398 re f
5.602 7.998 3.199 -2.398 re f
11.199 7.998 3.199 -2.398 re f
11.199 11.998 3.199 -2.398 re f
11.199 15.998 3.199 -2.398 re f
16.801 7.998 3.199 -2.398 re f
16.801 11.998 3.199 -2.398 re f
16.801 15.998 3.199 -2.398 re f
Q Q
showpage
%%Trailer
count op_count sub {pop} repeat
countdictstack dict_count sub {end} repeat
cairo_eps_state restore
%%EOF
