%!PS-Adobe-3.0 EPSF-3.0
%%Creator: cairo 1.10.2 (http://cairographics.org)
%%CreationDate: Fri Jul  4 09:34:35 2014
%%Pages: 1
%%BoundingBox: 0 -1 85 85
%%DocumentData: Clean7Bit
%%LanguageLevel: 2
%%EndComments
%%BeginProlog
/cairo_eps_state save def
/dict_count countdictstack def
/op_count count 1 sub def
userdict begin
/q { gsave } bind def
/Q { grestore } bind def
/cm { 6 array astore concat } bind def
/w { setlinewidth } bind def
/J { setlinecap } bind def
/j { setlinejoin } bind def
/M { setmiterlimit } bind def
/d { setdash } bind def
/m { moveto } bind def
/l { lineto } bind def
/c { curveto } bind def
/h { closepath } bind def
/re { exch dup neg 3 1 roll 5 3 roll moveto 0 rlineto
      0 exch rlineto 0 rlineto closepath } bind def
/S { stroke } bind def
/f { fill } bind def
/f* { eofill } bind def
/n { newpath } bind def
/W { clip } bind def
/W* { eoclip } bind def
/BT { } bind def
/ET { } bind def
/pdfmark where { pop globaldict /?pdfmark /exec load put }
    { globaldict begin /?pdfmark /pop load def /pdfmark
    /cleartomark load def end } ifelse
/BDC { mark 3 1 roll /BDC pdfmark } bind def
/EMC { mark /EMC pdfmark } bind def
/cairo_store_point { /cairo_point_y exch def /cairo_point_x exch def } def
/Tj { show currentpoint cairo_store_point } bind def
/TJ {
  {
    dup
    type /stringtype eq
    { show } { -0.001 mul 0 cairo_font_matrix dtransform rmoveto } ifelse
  } forall
  currentpoint cairo_store_point
} bind def
/cairo_selectfont { cairo_font_matrix aload pop pop pop 0 0 6 array astore
    cairo_font exch selectfont cairo_point_x cairo_point_y moveto } bind def
/Tf { pop /cairo_font exch def /cairo_font_matrix where
      { pop cairo_selectfont } if } bind def
/Td { matrix translate cairo_font_matrix matrix concatmatrix dup
      /cairo_font_matrix exch def dup 4 get exch 5 get cairo_store_point
      /cairo_font where { pop cairo_selectfont } if } bind def
/Tm { 2 copy 8 2 roll 6 array astore /cairo_font_matrix exch def
      cairo_store_point /cairo_font where { pop cairo_selectfont } if } bind def
/g { setgray } bind def
/rg { setrgbcolor } bind def
/d1 { setcachedevice } bind def
%%EndProlog
%%Page: 1 1
%%BeginPageSetup
%%PageBoundingBox: 0 -1 85 85
%%EndPageSetup
q 0 -1 85 86 rectclip q
0 84.948 85 -85 re W n
0 g
72.488 72.483 m 55.938 89.034 29.012 89.034 12.465 72.487 c -4.086 
55.936 -4.086 29.011 12.465 12.46 c 29.012 -4.087 55.938 -4.087 72.484 
12.464 c 89.035 29.011 89.035 55.936 72.488 72.483 c h
67.855 17.093 m 53.863 3.097 31.09 3.093 17.094 17.089 c 3.094 31.085 
3.098 53.862 17.094 67.858 c 31.09 81.85 53.859 81.854 67.859 67.854 c 
81.852 53.862 81.852 31.085 67.855 17.093 c h
26.645 53.96 m 26.645 56.698 28.863 58.921 31.605 58.921 c 34.344 
58.921 36.562 56.698 36.562 53.96 c 36.562 51.218 34.344 48.999 31.605 
48.999 c 28.863 48.999 26.645 51.218 26.645 53.96 c h
49.137 53.96 m 49.137 56.698 51.359 58.921 54.098 58.921 c 56.836 
58.921 59.059 56.698 59.059 53.96 c 59.059 51.218 56.84 48.999 54.098 
48.999 c 51.359 48.999 49.137 51.218 49.137 53.96 c h
60.863 33.643 m 57.789 26.534 50.59 21.94 42.523 21.94 c 34.281 21.94 
27.039 26.554 24.07 33.702 c 23.562 34.925 24.141 36.331 25.367 36.839 
c 25.668 36.964 25.98 37.022 26.285 37.022 c 27.227 37.022 28.121 
36.464 28.504 35.542 c 30.727 30.194 36.227 26.737 42.523 26.737 c 
48.676 26.737 54.145 30.198 56.461 35.546 c 56.984 36.765 58.398 37.327 
59.613 36.8 c 60.832 36.272 61.391 34.858 60.863 33.643 c h
60.863 33.643 m f
Q Q
showpage
%%Trailer
count op_count sub {pop} repeat
countdictstack dict_count sub {end} repeat
cairo_eps_state restore
%%EOF
