%!PS-Adobe-3.0 EPSF-3.0
%%Creator: cairo 1.10.2 (http://cairographics.org)
%%CreationDate: Fri Jul  4 08:44:19 2014
%%Pages: 1
%%BoundingBox: 0 -1 52 57
%%DocumentData: Clean7Bit
%%LanguageLevel: 2
%%EndComments
%%BeginProlog
/cairo_eps_state save def
/dict_count countdictstack def
/op_count count 1 sub def
userdict begin
/q { gsave } bind def
/Q { grestore } bind def
/cm { 6 array astore concat } bind def
/w { setlinewidth } bind def
/J { setlinecap } bind def
/j { setlinejoin } bind def
/M { setmiterlimit } bind def
/d { setdash } bind def
/m { moveto } bind def
/l { lineto } bind def
/c { curveto } bind def
/h { closepath } bind def
/re { exch dup neg 3 1 roll 5 3 roll moveto 0 rlineto
      0 exch rlineto 0 rlineto closepath } bind def
/S { stroke } bind def
/f { fill } bind def
/f* { eofill } bind def
/n { newpath } bind def
/W { clip } bind def
/W* { eoclip } bind def
/BT { } bind def
/ET { } bind def
/pdfmark where { pop globaldict /?pdfmark /exec load put }
    { globaldict begin /?pdfmark /pop load def /pdfmark
    /cleartomark load def end } ifelse
/BDC { mark 3 1 roll /BDC pdfmark } bind def
/EMC { mark /EMC pdfmark } bind def
/cairo_store_point { /cairo_point_y exch def /cairo_point_x exch def } def
/Tj { show currentpoint cairo_store_point } bind def
/TJ {
  {
    dup
    type /stringtype eq
    { show } { -0.001 mul 0 cairo_font_matrix dtransform rmoveto } ifelse
  } forall
  currentpoint cairo_store_point
} bind def
/cairo_selectfont { cairo_font_matrix aload pop pop pop 0 0 6 array astore
    cairo_font exch selectfont cairo_point_x cairo_point_y moveto } bind def
/Tf { pop /cairo_font exch def /cairo_font_matrix where
      { pop cairo_selectfont } if } bind def
/Td { matrix translate cairo_font_matrix matrix concatmatrix dup
      /cairo_font_matrix exch def dup 4 get exch 5 get cairo_store_point
      /cairo_font where { pop cairo_selectfont } if } bind def
/Tm { 2 copy 8 2 roll 6 array astore /cairo_font_matrix exch def
      cairo_store_point /cairo_font where { pop cairo_selectfont } if } bind def
/g { setgray } bind def
/rg { setrgbcolor } bind def
/d1 { setcachedevice } bind def
%%EndProlog
%%Page: 1 1
%%BeginPageSetup
%%PageBoundingBox: 0 -1 52 57
%%EndPageSetup
q 0 -1 52 58 rectclip q
0 56.502 52 -57 re W n
0 g
50.961 18.139 m 37.234 0.284 l 37.098 0.104 36.883 -0.002 36.656 -0.002 
c 36.43 -0.002 36.215 0.104 36.078 0.284 c 22.352 18.139 l 22.25 18.268 
22.203 18.428 22.203 18.581 c 22.203 18.733 22.25 18.889 22.348 19.022 
c 22.547 19.28 22.895 19.377 23.199 19.26 c 32.285 15.67 l 32.285 
53.725 l 32.285 54.127 32.613 54.452 33.016 54.452 c 40.301 54.452 l 
40.699 54.452 41.027 54.127 41.027 53.725 c 41.027 15.67 l 50.117 19.26 
l 50.422 19.377 50.766 19.28 50.965 19.022 c 51.16 18.76 51.16 18.401 
50.961 18.139 c h
28.762 37.479 m 28.863 37.612 28.91 37.768 28.91 37.92 c 28.91 38.077 
28.859 38.233 28.758 38.366 c 15.031 56.217 l 14.895 56.397 14.68 
56.502 14.457 56.502 c 14.23 56.502 14.016 56.397 13.879 56.217 c 0.152 
38.366 l -0.051 38.104 -0.051 37.745 0.148 37.479 c 0.344 37.221 0.691 
37.123 0.996 37.241 c 10.086 40.834 l 10.086 2.776 l 10.086 2.373 10.41 
2.049 10.812 2.049 c 18.098 2.049 l 18.5 2.049 18.824 2.373 18.824 
2.776 c 18.824 40.834 l 27.914 37.241 l 28.219 37.123 28.566 37.221 
28.762 37.479 c h
28.762 37.479 m f
Q Q
showpage
%%Trailer
count op_count sub {pop} repeat
countdictstack dict_count sub {end} repeat
cairo_eps_state restore
%%EOF
