%!PS-Adobe-3.0 EPSF-3.0
%%Creator: cairo 1.10.2 (http://cairographics.org)
%%CreationDate: Fri Jul  4 09:34:34 2014
%%Pages: 1
%%BoundingBox: 0 -1 71 66
%%DocumentData: Clean7Bit
%%LanguageLevel: 2
%%EndComments
%%BeginProlog
/cairo_eps_state save def
/dict_count countdictstack def
/op_count count 1 sub def
userdict begin
/q { gsave } bind def
/Q { grestore } bind def
/cm { 6 array astore concat } bind def
/w { setlinewidth } bind def
/J { setlinecap } bind def
/j { setlinejoin } bind def
/M { setmiterlimit } bind def
/d { setdash } bind def
/m { moveto } bind def
/l { lineto } bind def
/c { curveto } bind def
/h { closepath } bind def
/re { exch dup neg 3 1 roll 5 3 roll moveto 0 rlineto
      0 exch rlineto 0 rlineto closepath } bind def
/S { stroke } bind def
/f { fill } bind def
/f* { eofill } bind def
/n { newpath } bind def
/W { clip } bind def
/W* { eoclip } bind def
/BT { } bind def
/ET { } bind def
/pdfmark where { pop globaldict /?pdfmark /exec load put }
    { globaldict begin /?pdfmark /pop load def /pdfmark
    /cleartomark load def end } ifelse
/BDC { mark 3 1 roll /BDC pdfmark } bind def
/EMC { mark /EMC pdfmark } bind def
/cairo_store_point { /cairo_point_y exch def /cairo_point_x exch def } def
/Tj { show currentpoint cairo_store_point } bind def
/TJ {
  {
    dup
    type /stringtype eq
    { show } { -0.001 mul 0 cairo_font_matrix dtransform rmoveto } ifelse
  } forall
  currentpoint cairo_store_point
} bind def
/cairo_selectfont { cairo_font_matrix aload pop pop pop 0 0 6 array astore
    cairo_font exch selectfont cairo_point_x cairo_point_y moveto } bind def
/Tf { pop /cairo_font exch def /cairo_font_matrix where
      { pop cairo_selectfont } if } bind def
/Td { matrix translate cairo_font_matrix matrix concatmatrix dup
      /cairo_font_matrix exch def dup 4 get exch 5 get cairo_store_point
      /cairo_font where { pop cairo_selectfont } if } bind def
/Tm { 2 copy 8 2 roll 6 array astore /cairo_font_matrix exch def
      cairo_store_point /cairo_font where { pop cairo_selectfont } if } bind def
/g { setgray } bind def
/rg { setrgbcolor } bind def
/d1 { setcachedevice } bind def
%%EndProlog
%%Page: 1 1
%%BeginPageSetup
%%PageBoundingBox: 0 -1 71 66
%%EndPageSetup
q 0 -1 71 67 rectclip q
0 65.705 71 -66 re W n
0 g
35.043 65.705 m 15.719 65.705 0 52.732 0 36.787 c 0 28.158 4.695 19.97 
12.68 14.502 c 11.594 10.392 9.277 7.97 9.27 7.963 c 8.066 6.763 7.629 
4.951 8.121 3.224 c 8.16 3.088 8.207 2.955 8.266 2.822 c 9.008 1.107 
10.711 0.002 12.602 0.002 c 20.277 0.002 26.617 4.158 30.879 8.076 c 
32.312 7.939 33.707 7.873 35.043 7.873 c 54.367 7.873 70.086 20.842 
70.086 36.787 c 70.086 52.732 54.363 65.705 35.043 65.705 c h
35.043 14.552 m 33.5 14.552 31.844 14.666 30.125 14.884 c 29.09 15.009 
28.051 14.67 27.309 13.935 c 24.809 11.451 21.223 8.603 16.992 7.342 c 
18.141 9.408 19.285 12.205 19.746 15.65 c 19.926 16.978 19.289 18.283 
18.129 18.967 c 10.883 23.232 6.723 29.728 6.723 36.787 c 6.723 49.049 
19.426 59.025 35.043 59.025 c 50.66 59.025 63.359 49.049 63.359 36.787 
c 63.359 24.525 50.66 14.552 35.043 14.552 c h
49.883 43.041 m 21.301 43.041 l 20.375 43.041 19.621 42.295 19.621 
41.369 c 19.621 40.451 20.375 39.701 21.301 39.701 c 49.883 39.701 l 
50.812 39.701 51.566 40.451 51.566 41.369 c 51.566 42.295 50.812 43.041 
49.883 43.041 c h
49.883 33.259 m 21.301 33.259 l 20.375 33.259 19.621 32.509 19.621 
31.584 c 19.621 30.666 20.375 29.916 21.301 29.916 c 49.883 29.916 l 
50.812 29.916 51.566 30.666 51.566 31.584 c 51.566 32.509 50.812 33.259 
49.883 33.259 c h
49.883 33.259 m f
Q Q
showpage
%%Trailer
count op_count sub {pop} repeat
countdictstack dict_count sub {end} repeat
cairo_eps_state restore
%%EOF
