%!PS-Adobe-3.0 EPSF-3.0
%%Creator: cairo 1.10.2 (http://cairographics.org)
%%CreationDate: Fri Jul  4 08:28:56 2014
%%Pages: 1
%%BoundingBox: 0 0 90 56
%%DocumentData: Clean7Bit
%%LanguageLevel: 2
%%EndComments
%%BeginProlog
/cairo_eps_state save def
/dict_count countdictstack def
/op_count count 1 sub def
userdict begin
/q { gsave } bind def
/Q { grestore } bind def
/cm { 6 array astore concat } bind def
/w { setlinewidth } bind def
/J { setlinecap } bind def
/j { setlinejoin } bind def
/M { setmiterlimit } bind def
/d { setdash } bind def
/m { moveto } bind def
/l { lineto } bind def
/c { curveto } bind def
/h { closepath } bind def
/re { exch dup neg 3 1 roll 5 3 roll moveto 0 rlineto
      0 exch rlineto 0 rlineto closepath } bind def
/S { stroke } bind def
/f { fill } bind def
/f* { eofill } bind def
/n { newpath } bind def
/W { clip } bind def
/W* { eoclip } bind def
/BT { } bind def
/ET { } bind def
/pdfmark where { pop globaldict /?pdfmark /exec load put }
    { globaldict begin /?pdfmark /pop load def /pdfmark
    /cleartomark load def end } ifelse
/BDC { mark 3 1 roll /BDC pdfmark } bind def
/EMC { mark /EMC pdfmark } bind def
/cairo_store_point { /cairo_point_y exch def /cairo_point_x exch def } def
/Tj { show currentpoint cairo_store_point } bind def
/TJ {
  {
    dup
    type /stringtype eq
    { show } { -0.001 mul 0 cairo_font_matrix dtransform rmoveto } ifelse
  } forall
  currentpoint cairo_store_point
} bind def
/cairo_selectfont { cairo_font_matrix aload pop pop pop 0 0 6 array astore
    cairo_font exch selectfont cairo_point_x cairo_point_y moveto } bind def
/Tf { pop /cairo_font exch def /cairo_font_matrix where
      { pop cairo_selectfont } if } bind def
/Td { matrix translate cairo_font_matrix matrix concatmatrix dup
      /cairo_font_matrix exch def dup 4 get exch 5 get cairo_store_point
      /cairo_font where { pop cairo_selectfont } if } bind def
/Tm { 2 copy 8 2 roll 6 array astore /cairo_font_matrix exch def
      cairo_store_point /cairo_font where { pop cairo_selectfont } if } bind def
/g { setgray } bind def
/rg { setrgbcolor } bind def
/d1 { setcachedevice } bind def
%%EndProlog
%%Page: 1 1
%%BeginPageSetup
%%PageBoundingBox: 0 0 90 56
%%EndPageSetup
q 0 0 90 56 rectclip q
0 g
69.816 36.051 m 69.816 36.051 58.082 49.773 55.012 53.488 c 53.012 
55.902 50.461 56 48.531 56 c 12.172 56 l 9.758 56 8.43 55.551 7.199 
53.492 c 5.965 51.434 0 32.934 0 29.945 c 0 17.066 l 0 14.039 2.809 
11.199 5.602 11.199 c 7.465 11.199 l 7.465 5.016 12.48 0 18.668 0 c 
24.852 0 29.867 5.016 29.867 11.199 c 63.465 11.199 l 63.465 5.016 
68.48 0 74.668 0 c 80.852 0 85.867 5.016 85.867 11.199 c 85.867 11.508 
85.844 11.812 85.82 12.113 c 87.559 13.453 89.598 15.918 89.598 17.066 
c 89.598 27.457 l 89.602 31.504 82.449 32.938 69.816 36.051 c h
18.668 5.602 m 15.578 5.602 13.066 8.113 13.066 11.199 c 13.066 14.289 
15.578 16.801 18.668 16.801 c 21.754 16.801 24.266 14.289 24.266 11.199 
c 24.266 8.113 21.754 5.602 18.668 5.602 c h
20.418 33.602 m 18.715 33.602 17.449 34.098 18.008 36.867 c 18.594 
39.758 20.391 46.855 20.902 48.133 c 21.488 49.582 22.617 50.062 24.457 
50.062 c 36.531 50.062 l 36.531 33.602 l h
62.918 33.602 m 38.133 33.602 l 38.133 50.062 l 49.105 50.062 l 50.543 
50.062 52.203 49.555 53.109 48.5 c 63.719 35.938 l 64.898 34.367 64.398 
33.602 62.918 33.602 c h
74.668 5.602 m 71.578 5.602 69.066 8.113 69.066 11.199 c 69.066 14.289 
71.578 16.801 74.668 16.801 c 77.754 16.801 80.266 14.289 80.266 11.199 
c 80.266 8.113 77.754 5.602 74.668 5.602 c h
74.668 5.602 m f
Q Q
showpage
%%Trailer
count op_count sub {pop} repeat
countdictstack dict_count sub {end} repeat
cairo_eps_state restore
%%EOF
