%!PS-Adobe-3.0 EPSF-3.0
%%Creator: cairo 1.10.2 (http://cairographics.org)
%%CreationDate: Fri Jul  4 09:28:13 2014
%%Pages: 1
%%BoundingBox: 0 -1 46 63
%%DocumentData: Clean7Bit
%%LanguageLevel: 2
%%EndComments
%%BeginProlog
/cairo_eps_state save def
/dict_count countdictstack def
/op_count count 1 sub def
userdict begin
/q { gsave } bind def
/Q { grestore } bind def
/cm { 6 array astore concat } bind def
/w { setlinewidth } bind def
/J { setlinecap } bind def
/j { setlinejoin } bind def
/M { setmiterlimit } bind def
/d { setdash } bind def
/m { moveto } bind def
/l { lineto } bind def
/c { curveto } bind def
/h { closepath } bind def
/re { exch dup neg 3 1 roll 5 3 roll moveto 0 rlineto
      0 exch rlineto 0 rlineto closepath } bind def
/S { stroke } bind def
/f { fill } bind def
/f* { eofill } bind def
/n { newpath } bind def
/W { clip } bind def
/W* { eoclip } bind def
/BT { } bind def
/ET { } bind def
/pdfmark where { pop globaldict /?pdfmark /exec load put }
    { globaldict begin /?pdfmark /pop load def /pdfmark
    /cleartomark load def end } ifelse
/BDC { mark 3 1 roll /BDC pdfmark } bind def
/EMC { mark /EMC pdfmark } bind def
/cairo_store_point { /cairo_point_y exch def /cairo_point_x exch def } def
/Tj { show currentpoint cairo_store_point } bind def
/TJ {
  {
    dup
    type /stringtype eq
    { show } { -0.001 mul 0 cairo_font_matrix dtransform rmoveto } ifelse
  } forall
  currentpoint cairo_store_point
} bind def
/cairo_selectfont { cairo_font_matrix aload pop pop pop 0 0 6 array astore
    cairo_font exch selectfont cairo_point_x cairo_point_y moveto } bind def
/Tf { pop /cairo_font exch def /cairo_font_matrix where
      { pop cairo_selectfont } if } bind def
/Td { matrix translate cairo_font_matrix matrix concatmatrix dup
      /cairo_font_matrix exch def dup 4 get exch 5 get cairo_store_point
      /cairo_font where { pop cairo_selectfont } if } bind def
/Tm { 2 copy 8 2 roll 6 array astore /cairo_font_matrix exch def
      cairo_store_point /cairo_font where { pop cairo_selectfont } if } bind def
/g { setgray } bind def
/rg { setrgbcolor } bind def
/d1 { setcachedevice } bind def
%%EndProlog
%%Page: 1 1
%%BeginPageSetup
%%PageBoundingBox: 0 -1 46 63
%%EndPageSetup
q 0 -1 46 64 rectclip q
0 62.199 46 -63 re W n
0.00784314 g
35.117 62.199 m 3.812 62.199 l 1.711 62.199 0 60.488 0 58.387 c 0 3.812 
l 0 1.711 1.711 -0 3.812 -0 c 42.16 -0 l 44.262 -0 45.973 1.711 45.973 
3.812 c 45.973 50.406 l h
36.02 56.492 m 40.777 51.32 l 36.02 51.32 l h
42.77 3.816 m 42.77 3.477 42.496 3.203 42.16 3.203 c 3.812 3.203 l 
3.477 3.203 3.203 3.477 3.203 3.816 c 3.203 58.387 l 3.203 58.723 3.477 
58.996 3.812 58.996 c 32.812 58.996 l 32.812 49.719 l 32.812 48.836 
33.535 48.121 34.418 48.121 c 42.77 48.121 l h
8.855 45.164 m 36.055 45.164 l 36.715 45.164 37.254 44.625 37.254 
43.965 c 37.254 43.301 36.715 42.762 36.055 42.762 c 8.855 42.762 l 
8.191 42.762 7.652 43.301 7.652 43.965 c 7.652 44.625 8.191 45.164 
8.855 45.164 c h
37.254 35.898 m 37.254 35.238 36.715 34.699 36.055 34.699 c 8.855 
34.699 l 8.191 34.699 7.652 35.238 7.652 35.898 c 7.652 36.562 8.191 
37.098 8.855 37.098 c 36.055 37.098 l 36.715 37.098 37.254 36.562 
37.254 35.898 c h
37.254 28.098 m 37.254 27.437 36.715 26.898 36.055 26.898 c 8.855 
26.898 l 8.191 26.898 7.652 27.437 7.652 28.098 c 7.652 28.762 8.191 
29.301 8.855 29.301 c 36.055 29.301 l 36.715 29.301 37.254 28.762 
37.254 28.098 c h
37.254 20.168 m 37.254 19.504 36.715 18.965 36.055 18.965 c 8.855 
18.965 l 8.191 18.965 7.652 19.504 7.652 20.168 c 7.652 20.828 8.191 
21.367 8.855 21.367 c 36.055 21.367 l 36.715 21.367 37.254 20.828 
37.254 20.168 c h
37.254 20.168 m f
Q Q
showpage
%%Trailer
count op_count sub {pop} repeat
countdictstack dict_count sub {end} repeat
cairo_eps_state restore
%%EOF
