%!PS-Adobe-3.0 EPSF-3.0
%%Creator: cairo 1.10.2 (http://cairographics.org)
%%CreationDate: Fri Sep  5 08:42:19 2014
%%Pages: 1
%%BoundingBox: 0 0 786 789
%%DocumentData: Clean7Bit
%%LanguageLevel: 2
%%EndComments
%%BeginProlog
/cairo_eps_state save def
/dict_count countdictstack def
/op_count count 1 sub def
userdict begin
/q { gsave } bind def
/Q { grestore } bind def
/cm { 6 array astore concat } bind def
/w { setlinewidth } bind def
/J { setlinecap } bind def
/j { setlinejoin } bind def
/M { setmiterlimit } bind def
/d { setdash } bind def
/m { moveto } bind def
/l { lineto } bind def
/c { curveto } bind def
/h { closepath } bind def
/re { exch dup neg 3 1 roll 5 3 roll moveto 0 rlineto
      0 exch rlineto 0 rlineto closepath } bind def
/S { stroke } bind def
/f { fill } bind def
/f* { eofill } bind def
/n { newpath } bind def
/W { clip } bind def
/W* { eoclip } bind def
/BT { } bind def
/ET { } bind def
/pdfmark where { pop globaldict /?pdfmark /exec load put }
    { globaldict begin /?pdfmark /pop load def /pdfmark
    /cleartomark load def end } ifelse
/BDC { mark 3 1 roll /BDC pdfmark } bind def
/EMC { mark /EMC pdfmark } bind def
/cairo_store_point { /cairo_point_y exch def /cairo_point_x exch def } def
/Tj { show currentpoint cairo_store_point } bind def
/TJ {
  {
    dup
    type /stringtype eq
    { show } { -0.001 mul 0 cairo_font_matrix dtransform rmoveto } ifelse
  } forall
  currentpoint cairo_store_point
} bind def
/cairo_selectfont { cairo_font_matrix aload pop pop pop 0 0 6 array astore
    cairo_font exch selectfont cairo_point_x cairo_point_y moveto } bind def
/Tf { pop /cairo_font exch def /cairo_font_matrix where
      { pop cairo_selectfont } if } bind def
/Td { matrix translate cairo_font_matrix matrix concatmatrix dup
      /cairo_font_matrix exch def dup 4 get exch 5 get cairo_store_point
      /cairo_font where { pop cairo_selectfont } if } bind def
/Tm { 2 copy 8 2 roll 6 array astore /cairo_font_matrix exch def
      cairo_store_point /cairo_font where { pop cairo_selectfont } if } bind def
/g { setgray } bind def
/rg { setrgbcolor } bind def
/d1 { setcachedevice } bind def
%%EndProlog
%%Page: 1 1
%%BeginPageSetup
%%PageBoundingBox: 0 0 786 789
%%EndPageSetup
q 0 0 786 789 rectclip q
0.129412 0.0980392 0.0823529 rg
556.016 651.738 m 442.867 766.059 l 435.766 773.234 427.438 778.844 
418.117 782.734 c 408.797 786.625 398.949 788.594 388.852 788.594 c 
76.398 788.594 l 34.488 788.594 0.398 754.5 0.398 712.594 c 0.398 
118.805 l 0.398 76.898 34.488 42.805 76.398 42.805 c 481.883 42.805 l 
495.723 31.371 511.074 22.051 527.715 15.016 c 550.633 5.32 574.945 
0.406 599.977 0.406 c 625.008 0.406 649.316 5.32 672.238 15.016 c 
694.344 24.363 714.188 37.738 731.215 54.766 c 748.242 71.793 761.617 
91.637 770.969 113.746 c 780.66 136.664 785.574 160.977 785.574 186.008 
c 785.574 211.039 780.66 235.348 770.969 258.27 c 761.617 280.375 
748.242 300.219 731.215 317.246 c 714.188 334.273 694.344 347.648 
672.238 357 c 649.32 366.691 625.008 371.605 599.977 371.605 c 592.578 
371.605 585.25 371.168 577.996 370.312 c 577.996 598.277 l 577.996 
618.43 570.191 637.414 556.016 651.738 c h
496.66 632.102 m 427.727 632.102 l 422.379 632.102 417.355 634.184 
413.578 637.961 c 409.801 641.742 407.723 646.77 407.727 652.113 c 
407.773 721.906 l h
76.398 98.805 m 65.352 98.805 56.398 107.762 56.398 118.805 c 56.398 
712.594 l 56.398 723.641 65.352 732.594 76.398 732.594 c 351.781 
732.594 l 351.727 652.156 l 351.711 631.844 359.609 612.746 373.965 
598.379 c 388.324 584.012 407.414 576.102 427.727 576.102 c 521.996 
576.102 l 521.996 354.453 l 502.18 345.277 484.281 332.789 468.738 
317.246 c 451.711 300.219 438.336 280.375 428.984 258.266 c 419.289 
235.348 414.375 211.035 414.375 186.004 c 414.375 160.973 419.289 
136.664 428.984 113.742 c 431.141 108.641 433.527 103.66 436.109 98.805 
c h
599.977 56.406 m 584.172 56.406 569.027 59.238 555.023 64.418 c 535.316 
71.707 517.867 83.645 504.008 98.906 c 483.109 121.918 470.375 152.473 
470.375 186.004 c 470.375 228.305 490.645 265.871 521.996 289.523 c 
538.141 301.703 557.227 310.191 577.996 313.742 c 585.141 314.961 
592.48 315.605 599.977 315.605 c 671.551 315.605 729.574 257.582 
729.574 186.004 c 729.574 114.43 671.551 56.406 599.977 56.406 c h
599.977 56.406 m f
0 g
0.8 w
0 J
0 j
[] 0.0 d
10 M q 1 0 0 -1 0 789 cm
556.016 137.262 m 442.867 22.941 l 435.766 15.766 427.438 10.156 
418.117 6.266 c 408.797 2.375 398.949 0.406 388.852 0.406 c 76.398 
0.406 l 34.488 0.406 0.398 34.5 0.398 76.406 c 0.398 670.195 l 0.398 
712.102 34.488 746.195 76.398 746.195 c 481.883 746.195 l 495.723 
757.629 511.074 766.949 527.715 773.984 c 550.633 783.68 574.945 
788.594 599.977 788.594 c 625.008 788.594 649.316 783.68 672.238 
773.984 c 694.344 764.637 714.188 751.262 731.215 734.234 c 748.242 
717.207 761.617 697.363 770.969 675.254 c 780.66 652.336 785.574 
628.023 785.574 602.992 c 785.574 577.961 780.66 553.652 770.969 530.73 
c 761.617 508.625 748.242 488.781 731.215 471.754 c 714.188 454.727 
694.344 441.352 672.238 432 c 649.32 422.309 625.008 417.395 599.977 
417.395 c 592.578 417.395 585.25 417.832 577.996 418.688 c 577.996 
190.723 l 577.996 170.57 570.191 151.586 556.016 137.262 c h
496.66 156.898 m 427.727 156.898 l 422.379 156.898 417.355 154.816 
413.578 151.039 c 409.801 147.258 407.723 142.23 407.727 136.887 c 
407.773 67.094 l h
76.398 690.195 m 65.352 690.195 56.398 681.238 56.398 670.195 c 56.398 
76.406 l 56.398 65.359 65.352 56.406 76.398 56.406 c 351.781 56.406 l 
351.727 136.844 l 351.711 157.156 359.609 176.254 373.965 190.621 c 
388.324 204.988 407.414 212.898 427.727 212.898 c 521.996 212.898 l 
521.996 434.547 l 502.18 443.723 484.281 456.211 468.738 471.754 c 
451.711 488.781 438.336 508.625 428.984 530.734 c 419.289 553.652 
414.375 577.965 414.375 602.996 c 414.375 628.027 419.289 652.336 
428.984 675.258 c 431.141 680.359 433.527 685.34 436.109 690.195 c h
599.977 732.594 m 584.172 732.594 569.027 729.762 555.023 724.582 c 
535.316 717.293 517.867 705.355 504.008 690.094 c 483.109 667.082 
470.375 636.527 470.375 602.996 c 470.375 560.695 490.645 523.129 
521.996 499.477 c 538.141 487.297 557.227 478.809 577.996 475.258 c 
585.141 474.039 592.48 473.395 599.977 473.395 c 671.551 473.395 
729.574 531.418 729.574 602.996 c 729.574 674.57 671.551 732.594 
599.977 732.594 c h
599.977 732.594 m S Q
0.129412 0.0980392 0.0823529 rg
137.598 587.012 m 279.996 587.012 l 295.461 587.012 307.996 599.547 
307.996 615.012 c 307.996 630.473 295.461 643.012 279.996 643.012 c 
137.598 643.012 l 122.133 643.012 109.598 630.473 109.598 615.012 c 
109.598 599.547 122.133 587.012 137.598 587.012 c h
137.598 587.012 m f
0 g
q 1 0 0 -1 0 789 cm
137.598 201.988 m 279.996 201.988 l 295.461 201.988 307.996 189.453 
307.996 173.988 c 307.996 158.527 295.461 145.988 279.996 145.988 c 
137.598 145.988 l 122.133 145.988 109.598 158.527 109.598 173.988 c 
109.598 189.453 122.133 201.988 137.598 201.988 c h
137.598 201.988 m S Q
0.129412 0.0980392 0.0823529 rg
137.598 388.102 m 440.039 388.102 l 455.504 388.102 468.039 400.637 
468.039 416.102 c 468.039 431.562 455.504 444.102 440.039 444.102 c 
137.598 444.102 l 122.133 444.102 109.598 431.562 109.598 416.102 c 
109.598 400.637 122.133 388.102 137.598 388.102 c h
137.598 388.102 m f
0 g
q 1 0 0 -1 0 789 cm
137.598 400.898 m 440.039 400.898 l 455.504 400.898 468.039 388.363 
468.039 372.898 c 468.039 357.438 455.504 344.898 440.039 344.898 c 
137.598 344.898 l 122.133 344.898 109.598 357.438 109.598 372.898 c 
109.598 388.363 122.133 400.898 137.598 400.898 c h
137.598 400.898 m S Q
0.129412 0.0980392 0.0823529 rg
353.5 244.391 m 137.598 244.391 l 122.133 244.391 109.598 231.855 
109.598 216.391 c 109.598 200.926 122.133 188.391 137.598 188.391 c 
353.5 188.391 l 368.965 188.391 381.5 200.926 381.5 216.391 c 381.5 
231.855 368.965 244.391 353.5 244.391 c h
353.5 244.391 m f
0 g
q 1 0 0 -1 0 789 cm
353.5 544.609 m 137.598 544.609 l 122.133 544.609 109.598 557.145 
109.598 572.609 c 109.598 588.074 122.133 600.609 137.598 600.609 c 
353.5 600.609 l 368.965 600.609 381.5 588.074 381.5 572.609 c 381.5 
557.145 368.965 544.609 353.5 544.609 c h
353.5 544.609 m S Q
0.129412 0.0980392 0.0823529 rg
663.176 214.004 m 627.977 214.004 l 627.977 249.207 l 627.977 264.668 
615.438 277.207 599.977 277.207 c 591.059 277.207 583.125 273.035 
577.996 266.543 c 574.23 261.773 571.977 255.754 571.977 249.207 c 
571.977 214.004 l 536.773 214.004 l 531.348 214.004 526.285 212.457 
521.996 209.785 c 514.062 204.844 508.773 196.043 508.773 186.004 c 
508.773 175.969 514.062 167.168 521.996 162.227 c 526.285 159.555 
531.348 158.004 536.773 158.004 c 571.977 158.004 l 571.977 122.805 l 
571.977 116.832 573.852 111.301 577.039 106.758 c 582.102 99.531 
590.484 94.805 599.977 94.805 c 615.438 94.805 627.977 107.34 627.977 
122.805 c 627.977 158.004 l 663.176 158.004 l 678.641 158.004 691.176 
170.543 691.176 186.004 c 691.176 201.469 678.641 214.004 663.176 
214.004 c h
663.176 214.004 m f
0 g
q 1 0 0 -1 0 789 cm
663.176 574.996 m 627.977 574.996 l 627.977 539.793 l 627.977 524.332 
615.438 511.793 599.977 511.793 c 591.059 511.793 583.125 515.965 
577.996 522.457 c 574.23 527.227 571.977 533.246 571.977 539.793 c 
571.977 574.996 l 536.773 574.996 l 531.348 574.996 526.285 576.543 
521.996 579.215 c 514.062 584.156 508.773 592.957 508.773 602.996 c 
508.773 613.031 514.062 621.832 521.996 626.773 c 526.285 629.445 
531.348 630.996 536.773 630.996 c 571.977 630.996 l 571.977 666.195 l 
571.977 672.168 573.852 677.699 577.039 682.242 c 582.102 689.469 
590.484 694.195 599.977 694.195 c 615.438 694.195 627.977 681.66 
627.977 666.195 c 627.977 630.996 l 663.176 630.996 l 678.641 630.996 
691.176 618.457 691.176 602.996 c 691.176 587.531 678.641 574.996 
663.176 574.996 c h
663.176 574.996 m S Q
Q Q
showpage
%%Trailer
count op_count sub {pop} repeat
countdictstack dict_count sub {end} repeat
cairo_eps_state restore
%%EOF
