%!PS-Adobe-3.0 EPSF-3.0
%%Creator: cairo 1.10.2 (http://cairographics.org)
%%CreationDate: Fri Jul  4 09:16:07 2014
%%Pages: 1
%%BoundingBox: 0 -1 25 21
%%DocumentData: Clean7Bit
%%LanguageLevel: 2
%%EndComments
%%BeginProlog
/cairo_eps_state save def
/dict_count countdictstack def
/op_count count 1 sub def
userdict begin
/q { gsave } bind def
/Q { grestore } bind def
/cm { 6 array astore concat } bind def
/w { setlinewidth } bind def
/J { setlinecap } bind def
/j { setlinejoin } bind def
/M { setmiterlimit } bind def
/d { setdash } bind def
/m { moveto } bind def
/l { lineto } bind def
/c { curveto } bind def
/h { closepath } bind def
/re { exch dup neg 3 1 roll 5 3 roll moveto 0 rlineto
      0 exch rlineto 0 rlineto closepath } bind def
/S { stroke } bind def
/f { fill } bind def
/f* { eofill } bind def
/n { newpath } bind def
/W { clip } bind def
/W* { eoclip } bind def
/BT { } bind def
/ET { } bind def
/pdfmark where { pop globaldict /?pdfmark /exec load put }
    { globaldict begin /?pdfmark /pop load def /pdfmark
    /cleartomark load def end } ifelse
/BDC { mark 3 1 roll /BDC pdfmark } bind def
/EMC { mark /EMC pdfmark } bind def
/cairo_store_point { /cairo_point_y exch def /cairo_point_x exch def } def
/Tj { show currentpoint cairo_store_point } bind def
/TJ {
  {
    dup
    type /stringtype eq
    { show } { -0.001 mul 0 cairo_font_matrix dtransform rmoveto } ifelse
  } forall
  currentpoint cairo_store_point
} bind def
/cairo_selectfont { cairo_font_matrix aload pop pop pop 0 0 6 array astore
    cairo_font exch selectfont cairo_point_x cairo_point_y moveto } bind def
/Tf { pop /cairo_font exch def /cairo_font_matrix where
      { pop cairo_selectfont } if } bind def
/Td { matrix translate cairo_font_matrix matrix concatmatrix dup
      /cairo_font_matrix exch def dup 4 get exch 5 get cairo_store_point
      /cairo_font where { pop cairo_selectfont } if } bind def
/Tm { 2 copy 8 2 roll 6 array astore /cairo_font_matrix exch def
      cairo_store_point /cairo_font where { pop cairo_selectfont } if } bind def
/g { setgray } bind def
/rg { setrgbcolor } bind def
/d1 { setcachedevice } bind def
%%EndProlog
%%Page: 1 1
%%BeginPageSetup
%%PageBoundingBox: 0 -1 25 21
%%EndPageSetup
q 0 -1 25 22 rectclip q
0 20.107 25 -21 re W n
0 g
19.832 18.865 m 19.848 19.623 19.82 20.103 19.82 20.103 c 12.41 20.107 
l 12.332 20.107 l 4.922 20.103 l 4.922 20.103 4.895 19.623 4.91 18.865 
c 0 18.865 l 0 18.053 l 0 17.869 0.031 13.51 2.723 11.123 c 3.844 
10.127 5.242 9.627 6.895 9.627 c 7.145 9.627 7.402 9.642 7.66 9.662 c 
8.598 8.381 9.68 7.478 10.898 7.033 c 10.898 3.474 l 7.324 3.474 l 
7.324 1.248 l 6.141 1.248 l 6.141 0.002 l 18.602 0.002 l 18.602 1.248 l 
17.418 1.248 l 17.418 3.474 l 13.844 3.474 l 13.844 7.033 l 15.059 
7.478 16.145 8.381 17.082 9.662 c 17.344 9.642 17.598 9.627 17.848 
9.627 c 19.5 9.627 20.898 10.127 22.02 11.123 c 24.711 13.51 24.742 
17.869 24.742 18.053 c 24.742 18.865 l h
3.801 12.33 m 2.266 13.689 1.809 16.017 1.676 17.244 c 5.004 17.244 l 
5.145 15.717 5.473 13.81 6.238 12.138 c 6.379 11.83 6.527 11.537 6.676 
11.252 c 5.531 11.299 4.566 11.654 3.801 12.33 c h
20.941 12.33 m 20.176 11.654 19.211 11.299 18.066 11.252 c 18.219 
11.537 18.363 11.83 18.504 12.138 c 19.27 13.81 19.602 15.717 19.738 
17.244 c 23.066 17.244 l 22.934 16.017 22.477 13.689 20.941 12.33 c h
20.941 12.33 m f
Q Q
showpage
%%Trailer
count op_count sub {pop} repeat
countdictstack dict_count sub {end} repeat
cairo_eps_state restore
%%EOF
