%!PS-Adobe-3.0 EPSF-3.0
%%Creator: cairo 1.10.2 (http://cairographics.org)
%%CreationDate: Fri Jul  4 08:42:12 2014
%%Pages: 1
%%BoundingBox: 0 -1 26 20
%%DocumentData: Clean7Bit
%%LanguageLevel: 2
%%EndComments
%%BeginProlog
/cairo_eps_state save def
/dict_count countdictstack def
/op_count count 1 sub def
userdict begin
/q { gsave } bind def
/Q { grestore } bind def
/cm { 6 array astore concat } bind def
/w { setlinewidth } bind def
/J { setlinecap } bind def
/j { setlinejoin } bind def
/M { setmiterlimit } bind def
/d { setdash } bind def
/m { moveto } bind def
/l { lineto } bind def
/c { curveto } bind def
/h { closepath } bind def
/re { exch dup neg 3 1 roll 5 3 roll moveto 0 rlineto
      0 exch rlineto 0 rlineto closepath } bind def
/S { stroke } bind def
/f { fill } bind def
/f* { eofill } bind def
/n { newpath } bind def
/W { clip } bind def
/W* { eoclip } bind def
/BT { } bind def
/ET { } bind def
/pdfmark where { pop globaldict /?pdfmark /exec load put }
    { globaldict begin /?pdfmark /pop load def /pdfmark
    /cleartomark load def end } ifelse
/BDC { mark 3 1 roll /BDC pdfmark } bind def
/EMC { mark /EMC pdfmark } bind def
/cairo_store_point { /cairo_point_y exch def /cairo_point_x exch def } def
/Tj { show currentpoint cairo_store_point } bind def
/TJ {
  {
    dup
    type /stringtype eq
    { show } { -0.001 mul 0 cairo_font_matrix dtransform rmoveto } ifelse
  } forall
  currentpoint cairo_store_point
} bind def
/cairo_selectfont { cairo_font_matrix aload pop pop pop 0 0 6 array astore
    cairo_font exch selectfont cairo_point_x cairo_point_y moveto } bind def
/Tf { pop /cairo_font exch def /cairo_font_matrix where
      { pop cairo_selectfont } if } bind def
/Td { matrix translate cairo_font_matrix matrix concatmatrix dup
      /cairo_font_matrix exch def dup 4 get exch 5 get cairo_store_point
      /cairo_font where { pop cairo_selectfont } if } bind def
/Tm { 2 copy 8 2 roll 6 array astore /cairo_font_matrix exch def
      cairo_store_point /cairo_font where { pop cairo_selectfont } if } bind def
/g { setgray } bind def
/rg { setrgbcolor } bind def
/d1 { setcachedevice } bind def
%%EndProlog
%%Page: 1 1
%%BeginPageSetup
%%PageBoundingBox: 0 -1 26 20
%%EndPageSetup
q 0 -1 26 21 rectclip q
0 19.2 26 -20 re W n
0 g
20.801 9.598 m 16 4.802 l 19.199 4.802 l 19.199 3.919 18.48 3.2 17.602 
3.2 c 8 3.2 l 7.117 3.2 6.398 3.919 6.398 4.802 c 6.398 6.399 l 3.199 
6.399 l 3.199 4.802 l 3.199 2.153 5.352 0.001 8 0.001 c 17.602 0.001 l 
20.246 0.001 22.398 2.153 22.398 4.802 c 25.602 4.802 l h
20.801 9.598 m f
17.602 19.2 m 8 19.2 l 5.352 19.2 3.199 17.048 3.199 14.399 c 3.199 
14.352 l 0 14.352 l 4.801 9.598 l 9.602 14.352 l 6.398 14.352 l 6.398 
14.399 l 6.398 15.282 7.117 16.001 8 16.001 c 17.602 16.001 l 18.48 
16.001 19.199 15.282 19.199 14.399 c 19.199 12.802 l 22.398 12.802 l 
22.398 14.399 l 22.398 17.048 20.246 19.2 17.602 19.2 c h
17.602 19.2 m f
Q Q
showpage
%%Trailer
count op_count sub {pop} repeat
countdictstack dict_count sub {end} repeat
cairo_eps_state restore
%%EOF
