%!PS-Adobe-3.0 EPSF-3.0
%%Creator: cairo 1.10.2 (http://cairographics.org)
%%CreationDate: Thu Jul 31 07:30:09 2014
%%Pages: 1
%%BoundingBox: 0 -1 393 300
%%DocumentData: Clean7Bit
%%LanguageLevel: 2
%%EndComments
%%BeginProlog
/cairo_eps_state save def
/dict_count countdictstack def
/op_count count 1 sub def
userdict begin
/q { gsave } bind def
/Q { grestore } bind def
/cm { 6 array astore concat } bind def
/w { setlinewidth } bind def
/J { setlinecap } bind def
/j { setlinejoin } bind def
/M { setmiterlimit } bind def
/d { setdash } bind def
/m { moveto } bind def
/l { lineto } bind def
/c { curveto } bind def
/h { closepath } bind def
/re { exch dup neg 3 1 roll 5 3 roll moveto 0 rlineto
      0 exch rlineto 0 rlineto closepath } bind def
/S { stroke } bind def
/f { fill } bind def
/f* { eofill } bind def
/n { newpath } bind def
/W { clip } bind def
/W* { eoclip } bind def
/BT { } bind def
/ET { } bind def
/pdfmark where { pop globaldict /?pdfmark /exec load put }
    { globaldict begin /?pdfmark /pop load def /pdfmark
    /cleartomark load def end } ifelse
/BDC { mark 3 1 roll /BDC pdfmark } bind def
/EMC { mark /EMC pdfmark } bind def
/cairo_store_point { /cairo_point_y exch def /cairo_point_x exch def } def
/Tj { show currentpoint cairo_store_point } bind def
/TJ {
  {
    dup
    type /stringtype eq
    { show } { -0.001 mul 0 cairo_font_matrix dtransform rmoveto } ifelse
  } forall
  currentpoint cairo_store_point
} bind def
/cairo_selectfont { cairo_font_matrix aload pop pop pop 0 0 6 array astore
    cairo_font exch selectfont cairo_point_x cairo_point_y moveto } bind def
/Tf { pop /cairo_font exch def /cairo_font_matrix where
      { pop cairo_selectfont } if } bind def
/Td { matrix translate cairo_font_matrix matrix concatmatrix dup
      /cairo_font_matrix exch def dup 4 get exch 5 get cairo_store_point
      /cairo_font where { pop cairo_selectfont } if } bind def
/Tm { 2 copy 8 2 roll 6 array astore /cairo_font_matrix exch def
      cairo_store_point /cairo_font where { pop cairo_selectfont } if } bind def
/g { setgray } bind def
/rg { setrgbcolor } bind def
/d1 { setcachedevice } bind def
%%EndProlog
%%Page: 1 1
%%BeginPageSetup
%%PageBoundingBox: 0 -1 393 300
%%EndPageSetup
q 0 -1 393 301 rectclip q
0 299.962 393 -300 re W n
0 g
208.09 190.896 m 208.16 192.185 208.199 193.478 208.199 194.763 c 
208.199 238.955 167.422 276.291 119.148 276.291 c 70.879 276.291 30.098 
238.955 30.098 194.763 c 30.098 193.478 30.137 192.185 30.211 190.896 c 
12.441 183.228 0 165.56 0 144.978 c 0 49.994 l 0 22.38 22.383 0.001 
49.992 0.001 c 188.305 0.001 l 215.918 0.001 238.301 22.38 238.301 
49.994 c 238.301 144.978 l 238.301 165.56 225.859 183.228 208.09 
190.896 c h
119.152 246.294 m 150.531 246.294 178.059 222.337 178.199 194.97 c 
60.102 194.97 l 60.242 222.337 87.77 246.294 119.152 246.294 c h
94.031 62.9 m 82.117 84.033 l 78.184 79.759 l 78.184 62.9 l 55.926 62.9 
l 55.926 143.154 l 78.184 143.154 l 78.184 104.376 l 92.344 121.236 l 
117.523 121.236 l 96.727 99.205 l 120.781 62.9 l h
183.613 70.431 m 183.613 68.482 183.5 66.443 183.277 64.306 c 183.051 
62.169 182.562 60.072 181.816 58.009 c 181.066 55.951 180.016 53.982 
178.668 52.111 c 177.32 50.236 175.52 48.587 173.273 47.166 c 171.027 
45.744 168.27 44.619 165.012 43.791 c 161.754 42.97 157.836 42.556 
153.266 42.556 c 149.816 42.556 146.391 42.837 142.98 43.4 c 139.57 
43.962 136.461 44.955 133.652 46.376 c 130.84 47.802 128.461 49.771 
126.516 52.279 c 124.566 54.791 123.328 58.029 122.805 62.001 c 144.836 
62.001 l 144.984 61.705 145.172 61.384 145.398 61.044 c 145.625 60.708 
145.848 60.353 146.074 59.978 c 146.746 58.931 147.645 57.955 148.77 
57.056 c 149.895 56.154 151.168 55.705 152.59 55.705 c 154.391 55.705 
155.852 56.173 156.977 57.111 c 158.102 58.048 159 59.208 159.672 
60.595 c 160.348 61.982 160.797 63.443 161.023 64.978 c 161.246 66.513 
161.359 67.88 161.359 69.083 c 161.359 74.478 l 161.137 74.478 l 
159.336 71.853 157.125 69.849 154.504 68.462 c 151.879 67.076 148.883 
66.384 145.512 66.384 c 141.238 66.384 137.531 67.13 134.383 68.63 c 
131.234 70.13 128.633 72.173 126.57 74.759 c 124.512 77.341 122.992 
80.357 122.02 83.806 c 121.043 87.251 120.559 90.923 120.559 94.822 c 
120.559 98.642 121.102 102.24 122.188 105.611 c 123.273 108.982 124.867 
111.923 126.965 114.435 c 129.062 116.947 131.688 118.947 134.832 
120.447 c 137.98 121.947 141.652 122.697 145.848 122.697 c 149.145 
122.697 152.199 122.021 155.008 120.673 c 157.82 119.322 159.859 117.15 
161.137 114.154 c 161.359 114.154 l 161.359 121.236 l 183.613 121.236 l 
h
183.613 70.431 m f
149.055 106.513 m 147.48 106.513 146.094 106.193 144.895 105.556 c 
143.695 104.919 142.703 104.076 141.914 103.029 c 141.129 101.978 
140.547 100.759 140.172 99.376 c 139.797 97.986 139.609 96.509 139.609 
94.935 c 139.609 93.287 139.762 91.619 140.062 89.931 c 140.359 88.248 
140.887 86.708 141.633 85.326 c 142.383 83.939 143.395 82.814 144.668 
81.955 c 145.941 81.091 147.59 80.662 149.617 80.662 c 151.637 80.662 
153.27 81.107 154.504 82.009 c 155.742 82.908 156.656 84.048 157.258 
85.439 c 157.859 86.822 158.25 88.361 158.438 90.044 c 158.625 91.732 
158.719 93.396 158.719 95.048 c 158.719 98.267 157.934 100.986 156.359 
103.197 c 154.785 105.404 152.352 106.513 149.055 106.513 c h
149.055 106.513 m f
325.082 174.017 m 323.914 174.017 322.887 173.779 321.996 173.31 c 
321.105 172.837 320.371 172.208 319.789 171.431 c 319.207 170.654 
318.773 169.751 318.496 168.724 c 318.219 167.693 318.078 166.599 
318.078 165.431 c 318.078 164.205 318.191 162.97 318.414 161.72 c 
318.637 160.47 319.023 159.33 319.582 158.302 c 320.137 157.275 320.887 
156.439 321.832 155.802 c 322.777 155.162 324 154.841 325.5 154.841 c 
327 154.841 328.211 155.177 329.129 155.841 c 330.043 156.509 330.723 
157.357 331.168 158.388 c 331.613 159.416 331.906 160.552 332.043 
161.802 c 332.18 163.056 332.254 164.291 332.254 165.513 c 332.254 
167.904 331.668 169.919 330.504 171.556 c 329.336 173.197 327.527 
174.017 325.082 174.017 c h
325.082 174.017 m f
369.688 236.603 m 369.738 237.56 369.77 238.517 369.77 239.47 c 369.77 
272.259 339.523 299.962 303.723 299.962 c 267.926 299.962 237.68 
272.259 237.68 239.47 c 237.68 238.517 237.711 237.56 237.766 236.603 c 
229.586 233.076 222.926 226.689 219.055 218.701 c 221.062 212.072 
222.238 205.142 222.457 198.001 c 240.969 187.314 252.594 167.501 
252.594 145.771 c 252.594 95.021 l 355.016 95.021 l 375.492 95.021 
392.094 111.623 392.094 132.099 c 392.094 202.548 l 392.094 217.81 
382.867 230.919 369.688 236.603 c h
303.723 277.716 m 326.996 277.716 347.414 259.935 347.52 239.623 c 
259.93 239.623 l 260.035 259.935 280.453 277.716 303.723 277.716 c h
285.094 141.673 m 276.258 157.345 l 273.34 154.177 l 273.34 141.673 l 
256.836 141.673 l 256.836 201.193 l 273.34 201.193 l 273.34 172.435 l 
283.844 184.939 l 302.52 184.939 l 287.094 168.599 l 304.934 141.673 l 
h
351.535 147.259 m 351.535 145.81 351.453 144.298 351.285 142.716 c 
351.117 141.13 350.754 139.576 350.199 138.048 c 349.645 136.517 
348.867 135.06 347.867 133.669 c 346.867 132.283 345.531 131.056 
343.863 130.001 c 342.199 128.947 340.156 128.115 337.738 127.501 c 
335.32 126.888 332.414 126.583 329.027 126.583 c 326.469 126.583 
323.926 126.791 321.398 127.208 c 318.867 127.626 316.562 128.365 
314.48 129.419 c 312.395 130.474 310.629 131.935 309.188 133.794 c 
307.738 135.658 306.824 138.06 306.434 141.005 c 322.773 141.005 l 
322.883 140.787 323.023 140.548 323.191 140.298 c 323.359 140.048 
323.523 139.787 323.691 139.505 c 324.191 138.728 324.855 138.005 
325.691 137.337 c 326.523 136.669 327.469 136.337 328.523 136.337 c 
329.859 136.337 330.941 136.685 331.777 137.38 c 332.609 138.076 
333.277 138.935 333.777 139.962 c 334.277 140.994 334.609 142.076 
334.777 143.216 c 334.945 144.353 335.027 145.369 335.027 146.259 c 
335.027 150.259 l 334.859 150.259 l 333.527 148.314 331.887 146.826 
329.941 145.798 c 327.996 144.771 325.773 144.255 323.273 144.255 c 
320.105 144.255 317.355 144.81 315.02 145.923 c 312.688 147.037 310.754 
148.552 309.227 150.466 c 307.699 152.384 306.574 154.623 305.852 
157.177 c 305.129 159.732 304.77 162.458 304.77 165.349 c 304.77 
168.181 305.172 170.849 305.977 173.349 c 306.781 175.853 307.961 
178.033 309.52 179.896 c 311.074 181.755 313.02 183.244 315.355 184.357 
c 317.688 185.466 320.41 186.021 323.523 186.021 c 325.969 186.021 
328.234 185.525 330.316 184.521 c 332.402 183.521 333.918 181.908 
334.863 179.685 c 335.027 179.685 l 335.027 184.939 l 351.535 184.939 l 
h
351.535 147.259 m f
Q Q
showpage
%%Trailer
count op_count sub {pop} repeat
countdictstack dict_count sub {end} repeat
cairo_eps_state restore
%%EOF
