%!PS-Adobe-3.0 EPSF-3.0
%%Creator: cairo 1.10.2 (http://cairographics.org)
%%CreationDate: Mon Aug 25 07:16:44 2014
%%Pages: 1
%%BoundingBox: 0 -1 655 761
%%DocumentData: Clean7Bit
%%LanguageLevel: 2
%%EndComments
%%BeginProlog
/cairo_eps_state save def
/dict_count countdictstack def
/op_count count 1 sub def
userdict begin
/q { gsave } bind def
/Q { grestore } bind def
/cm { 6 array astore concat } bind def
/w { setlinewidth } bind def
/J { setlinecap } bind def
/j { setlinejoin } bind def
/M { setmiterlimit } bind def
/d { setdash } bind def
/m { moveto } bind def
/l { lineto } bind def
/c { curveto } bind def
/h { closepath } bind def
/re { exch dup neg 3 1 roll 5 3 roll moveto 0 rlineto
      0 exch rlineto 0 rlineto closepath } bind def
/S { stroke } bind def
/f { fill } bind def
/f* { eofill } bind def
/n { newpath } bind def
/W { clip } bind def
/W* { eoclip } bind def
/BT { } bind def
/ET { } bind def
/pdfmark where { pop globaldict /?pdfmark /exec load put }
    { globaldict begin /?pdfmark /pop load def /pdfmark
    /cleartomark load def end } ifelse
/BDC { mark 3 1 roll /BDC pdfmark } bind def
/EMC { mark /EMC pdfmark } bind def
/cairo_store_point { /cairo_point_y exch def /cairo_point_x exch def } def
/Tj { show currentpoint cairo_store_point } bind def
/TJ {
  {
    dup
    type /stringtype eq
    { show } { -0.001 mul 0 cairo_font_matrix dtransform rmoveto } ifelse
  } forall
  currentpoint cairo_store_point
} bind def
/cairo_selectfont { cairo_font_matrix aload pop pop pop 0 0 6 array astore
    cairo_font exch selectfont cairo_point_x cairo_point_y moveto } bind def
/Tf { pop /cairo_font exch def /cairo_font_matrix where
      { pop cairo_selectfont } if } bind def
/Td { matrix translate cairo_font_matrix matrix concatmatrix dup
      /cairo_font_matrix exch def dup 4 get exch 5 get cairo_store_point
      /cairo_font where { pop cairo_selectfont } if } bind def
/Tm { 2 copy 8 2 roll 6 array astore /cairo_font_matrix exch def
      cairo_store_point /cairo_font where { pop cairo_selectfont } if } bind def
/g { setgray } bind def
/rg { setrgbcolor } bind def
/d1 { setcachedevice } bind def
%%EndProlog
%%Page: 1 1
%%BeginPageSetup
%%PageBoundingBox: 0 -1 655 761
%%EndPageSetup
q 0 -1 655 762 rectclip q
0 760.225 655 -761 re W n
0.117647 0.0705882 0.0509804 rg
654.516 582.154 m 476.445 760.225 l 0 760.225 l 0 -0.002 l 654.516 
-0.002 l h
492.379 667.358 m 561.648 598.088 l 492.379 598.088 l h
600.113 54.401 m 54.398 54.401 l 54.398 705.826 l 437.977 705.826 l 
437.977 543.69 l 600.113 543.69 l h
600.113 54.401 m f
290.531 463.912 263.988 -54.402 re f
148.324 327.936 m 126.945 349.315 l 88.48 310.846 l 148.324 251.002 l 
247.184 349.858 l 208.715 388.326 l h
148.324 327.936 m f
148.324 192.428 m 126.945 213.807 l 88.48 175.342 l 148.324 115.494 l 
247.184 214.354 l 208.715 252.819 l h
148.324 192.428 m f
148.324 463.44 m 126.945 484.819 l 88.48 446.354 l 148.324 386.506 l 
247.184 485.365 l 208.715 523.83 l h
148.324 463.44 m f
290.531 328.319 263.988 -54.402 re f
290.531 192.725 263.988 -54.398 re f
Q Q
showpage
%%Trailer
count op_count sub {pop} repeat
countdictstack dict_count sub {end} repeat
cairo_eps_state restore
%%EOF
