%!PS-Adobe-3.0 EPSF-3.0
%%Creator: cairo 1.10.2 (http://cairographics.org)
%%CreationDate: Fri Jul  4 09:43:16 2014
%%Pages: 1
%%BoundingBox: 0 -1 75 42
%%DocumentData: Clean7Bit
%%LanguageLevel: 2
%%EndComments
%%BeginProlog
/cairo_eps_state save def
/dict_count countdictstack def
/op_count count 1 sub def
userdict begin
/q { gsave } bind def
/Q { grestore } bind def
/cm { 6 array astore concat } bind def
/w { setlinewidth } bind def
/J { setlinecap } bind def
/j { setlinejoin } bind def
/M { setmiterlimit } bind def
/d { setdash } bind def
/m { moveto } bind def
/l { lineto } bind def
/c { curveto } bind def
/h { closepath } bind def
/re { exch dup neg 3 1 roll 5 3 roll moveto 0 rlineto
      0 exch rlineto 0 rlineto closepath } bind def
/S { stroke } bind def
/f { fill } bind def
/f* { eofill } bind def
/n { newpath } bind def
/W { clip } bind def
/W* { eoclip } bind def
/BT { } bind def
/ET { } bind def
/pdfmark where { pop globaldict /?pdfmark /exec load put }
    { globaldict begin /?pdfmark /pop load def /pdfmark
    /cleartomark load def end } ifelse
/BDC { mark 3 1 roll /BDC pdfmark } bind def
/EMC { mark /EMC pdfmark } bind def
/cairo_store_point { /cairo_point_y exch def /cairo_point_x exch def } def
/Tj { show currentpoint cairo_store_point } bind def
/TJ {
  {
    dup
    type /stringtype eq
    { show } { -0.001 mul 0 cairo_font_matrix dtransform rmoveto } ifelse
  } forall
  currentpoint cairo_store_point
} bind def
/cairo_selectfont { cairo_font_matrix aload pop pop pop 0 0 6 array astore
    cairo_font exch selectfont cairo_point_x cairo_point_y moveto } bind def
/Tf { pop /cairo_font exch def /cairo_font_matrix where
      { pop cairo_selectfont } if } bind def
/Td { matrix translate cairo_font_matrix matrix concatmatrix dup
      /cairo_font_matrix exch def dup 4 get exch 5 get cairo_store_point
      /cairo_font where { pop cairo_selectfont } if } bind def
/Tm { 2 copy 8 2 roll 6 array astore /cairo_font_matrix exch def
      cairo_store_point /cairo_font where { pop cairo_selectfont } if } bind def
/g { setgray } bind def
/rg { setrgbcolor } bind def
/d1 { setcachedevice } bind def
%%EndProlog
%%Page: 1 1
%%BeginPageSetup
%%PageBoundingBox: 0 -1 75 42
%%EndPageSetup
q 0 -1 75 43 rectclip q
0 41.17 75 -42 re W n
0 0.00392157 0 rg
37.391 41.17 m 23.32 41.17 9.977 34.354 1.699 22.932 c 0 20.584 l 1.699 
18.237 l 9.977 6.819 23.32 -0.001 37.391 -0.001 c 51.465 -0.001 64.809 
6.819 73.082 18.237 c 74.785 20.584 l 73.082 22.932 l 64.809 34.35 
51.465 41.17 37.391 41.17 c h
48.383 26.061 m 48.383 23.838 46.578 22.034 44.355 22.034 c 42.129 
22.034 40.324 23.838 40.324 26.061 c 40.324 28.288 42.129 30.092 44.355 
30.092 c 46.578 30.092 48.383 28.288 48.383 26.061 c h
37.391 7.999 m 26.875 7.999 16.852 12.655 10.035 20.584 c 13.848 25.022 
18.668 28.432 24.016 30.577 c 23.195 28.745 22.727 26.721 22.727 24.584 
c 22.727 16.483 29.293 9.916 37.391 9.916 c 45.492 9.916 52.059 16.483 
52.059 24.584 c 52.059 26.721 51.59 28.745 50.77 30.577 c 56.117 28.432 
60.934 25.022 64.75 20.584 c 57.93 12.655 47.91 7.999 37.391 7.999 c h
37.391 7.999 m f
Q Q
showpage
%%Trailer
count op_count sub {pop} repeat
countdictstack dict_count sub {end} repeat
cairo_eps_state restore
%%EOF
