%!PS-Adobe-3.0 EPSF-3.0
%%Creator: cairo 1.10.2 (http://cairographics.org)
%%CreationDate: Wed Jul 30 08:47:35 2014
%%Pages: 1
%%BoundingBox: 0 -1 23 23
%%DocumentData: Clean7Bit
%%LanguageLevel: 2
%%EndComments
%%BeginProlog
/cairo_eps_state save def
/dict_count countdictstack def
/op_count count 1 sub def
userdict begin
/q { gsave } bind def
/Q { grestore } bind def
/cm { 6 array astore concat } bind def
/w { setlinewidth } bind def
/J { setlinecap } bind def
/j { setlinejoin } bind def
/M { setmiterlimit } bind def
/d { setdash } bind def
/m { moveto } bind def
/l { lineto } bind def
/c { curveto } bind def
/h { closepath } bind def
/re { exch dup neg 3 1 roll 5 3 roll moveto 0 rlineto
      0 exch rlineto 0 rlineto closepath } bind def
/S { stroke } bind def
/f { fill } bind def
/f* { eofill } bind def
/n { newpath } bind def
/W { clip } bind def
/W* { eoclip } bind def
/BT { } bind def
/ET { } bind def
/pdfmark where { pop globaldict /?pdfmark /exec load put }
    { globaldict begin /?pdfmark /pop load def /pdfmark
    /cleartomark load def end } ifelse
/BDC { mark 3 1 roll /BDC pdfmark } bind def
/EMC { mark /EMC pdfmark } bind def
/cairo_store_point { /cairo_point_y exch def /cairo_point_x exch def } def
/Tj { show currentpoint cairo_store_point } bind def
/TJ {
  {
    dup
    type /stringtype eq
    { show } { -0.001 mul 0 cairo_font_matrix dtransform rmoveto } ifelse
  } forall
  currentpoint cairo_store_point
} bind def
/cairo_selectfont { cairo_font_matrix aload pop pop pop 0 0 6 array astore
    cairo_font exch selectfont cairo_point_x cairo_point_y moveto } bind def
/Tf { pop /cairo_font exch def /cairo_font_matrix where
      { pop cairo_selectfont } if } bind def
/Td { matrix translate cairo_font_matrix matrix concatmatrix dup
      /cairo_font_matrix exch def dup 4 get exch 5 get cairo_store_point
      /cairo_font where { pop cairo_selectfont } if } bind def
/Tm { 2 copy 8 2 roll 6 array astore /cairo_font_matrix exch def
      cairo_store_point /cairo_font where { pop cairo_selectfont } if } bind def
/g { setgray } bind def
/rg { setrgbcolor } bind def
/d1 { setcachedevice } bind def
%%EndProlog
%%Page: 1 1
%%BeginPageSetup
%%PageBoundingBox: 0 -1 23 23
%%EndPageSetup
q 0 -1 23 24 rectclip q
0 22.4 23 -23 re W n
0 g
8 9.599 m 1.602 9.599 l 0.715 9.599 0 8.884 0 8.002 c 0 1.599 l 0 0.716 
0.715 0.002 1.602 0.002 c 8 0.002 l 8.883 0.002 9.602 0.716 9.602 1.599 
c 9.602 8.002 l 9.602 8.884 8.883 9.599 8 9.599 c h
8 2.4 m 8 1.959 7.641 1.599 7.199 1.599 c 2.398 1.599 l 1.957 1.599 
1.602 1.959 1.602 2.4 c 1.602 7.201 l 1.602 7.642 1.957 8.002 2.398 
8.002 c 7.199 8.002 l 7.641 8.002 8 7.642 8 7.201 c h
20.801 22.4 m 14.398 22.4 l 13.516 22.4 12.801 21.685 12.801 20.798 c 
12.801 14.4 l 12.801 13.517 13.516 12.798 14.398 12.798 c 20.801 12.798 
l 21.684 12.798 22.398 13.517 22.398 14.4 c 22.398 20.798 l 22.398 
21.685 21.684 22.4 20.801 22.4 c h
20.801 15.201 m 20.801 14.759 20.441 14.4 20 14.4 c 15.199 14.4 l 
14.758 14.4 14.398 14.759 14.398 15.201 c 14.398 20.002 l 14.398 20.443 
14.758 20.798 15.199 20.798 c 20 20.798 l 20.441 20.798 20.801 20.443 
20.801 20.002 c h
20.801 9.599 m 14.398 9.599 l 13.516 9.599 12.801 8.884 12.801 8.002 c 
12.801 1.599 l 12.801 0.716 13.516 0.002 14.398 0.002 c 20.801 0.002 l 
21.684 0.002 22.398 0.716 22.398 1.599 c 22.398 8.002 l 22.398 8.884 
21.684 9.599 20.801 9.599 c h
20.801 2.4 m 20.801 1.959 20.441 1.599 20 1.599 c 15.199 1.599 l 14.758 
1.599 14.398 1.959 14.398 2.4 c 14.398 7.201 l 14.398 7.642 14.758 
8.002 15.199 8.002 c 20 8.002 l 20.441 8.002 20.801 7.642 20.801 7.201 
c h
8 22.4 m 1.602 22.4 l 0.715 22.4 0 21.685 0 20.798 c 0 14.4 l 0 13.517 
0.715 12.798 1.602 12.798 c 8 12.798 l 8.883 12.798 9.602 13.517 9.602 
14.4 c 9.602 20.798 l 9.602 21.685 8.883 22.4 8 22.4 c h
8 15.201 m 8 14.759 7.641 14.4 7.199 14.4 c 2.398 14.4 l 1.957 14.4 
1.602 14.759 1.602 15.201 c 1.602 20.002 l 1.602 20.443 1.957 20.798 
2.398 20.798 c 7.199 20.798 l 7.641 20.798 8 20.443 8 20.002 c h
8 15.201 m f*
Q Q
showpage
%%Trailer
count op_count sub {pop} repeat
countdictstack dict_count sub {end} repeat
cairo_eps_state restore
%%EOF
