%!PS-Adobe-3.0 EPSF-3.0
%%Creator: cairo 1.10.2 (http://cairographics.org)
%%CreationDate: Fri Jul  4 08:58:45 2014
%%Pages: 1
%%BoundingBox: 0 -1 26 25
%%DocumentData: Clean7Bit
%%LanguageLevel: 2
%%EndComments
%%BeginProlog
/cairo_eps_state save def
/dict_count countdictstack def
/op_count count 1 sub def
userdict begin
/q { gsave } bind def
/Q { grestore } bind def
/cm { 6 array astore concat } bind def
/w { setlinewidth } bind def
/J { setlinecap } bind def
/j { setlinejoin } bind def
/M { setmiterlimit } bind def
/d { setdash } bind def
/m { moveto } bind def
/l { lineto } bind def
/c { curveto } bind def
/h { closepath } bind def
/re { exch dup neg 3 1 roll 5 3 roll moveto 0 rlineto
      0 exch rlineto 0 rlineto closepath } bind def
/S { stroke } bind def
/f { fill } bind def
/f* { eofill } bind def
/n { newpath } bind def
/W { clip } bind def
/W* { eoclip } bind def
/BT { } bind def
/ET { } bind def
/pdfmark where { pop globaldict /?pdfmark /exec load put }
    { globaldict begin /?pdfmark /pop load def /pdfmark
    /cleartomark load def end } ifelse
/BDC { mark 3 1 roll /BDC pdfmark } bind def
/EMC { mark /EMC pdfmark } bind def
/cairo_store_point { /cairo_point_y exch def /cairo_point_x exch def } def
/Tj { show currentpoint cairo_store_point } bind def
/TJ {
  {
    dup
    type /stringtype eq
    { show } { -0.001 mul 0 cairo_font_matrix dtransform rmoveto } ifelse
  } forall
  currentpoint cairo_store_point
} bind def
/cairo_selectfont { cairo_font_matrix aload pop pop pop 0 0 6 array astore
    cairo_font exch selectfont cairo_point_x cairo_point_y moveto } bind def
/Tf { pop /cairo_font exch def /cairo_font_matrix where
      { pop cairo_selectfont } if } bind def
/Td { matrix translate cairo_font_matrix matrix concatmatrix dup
      /cairo_font_matrix exch def dup 4 get exch 5 get cairo_store_point
      /cairo_font where { pop cairo_selectfont } if } bind def
/Tm { 2 copy 8 2 roll 6 array astore /cairo_font_matrix exch def
      cairo_store_point /cairo_font where { pop cairo_selectfont } if } bind def
/g { setgray } bind def
/rg { setrgbcolor } bind def
/d1 { setcachedevice } bind def
%%EndProlog
%%Page: 1 1
%%BeginPageSetup
%%PageBoundingBox: 0 -1 26 25
%%EndPageSetup
q 0 -1 26 26 rectclip q
0 24.8 26 -25 re W n
0.2 0.2 0.196078 rg
16 9.601 m 16 8.718 15.285 7.999 14.398 7.999 c 13.516 7.999 12.801 
8.718 12.801 9.601 c 12.801 10.484 13.516 11.198 14.398 11.198 c 15.285 
11.198 16 10.484 16 9.601 c h
16 9.601 m f
23.199 15.198 m 23.199 15.198 23.199 15.198 23.199 15.198 c 23.199 
22.402 l 23.199 23.726 22.125 24.8 20.801 24.8 c 4.398 24.8 l 1.973 
24.8 0 22.827 0 20.402 c 0 4.402 l 0 1.976 1.973 -0.001 4.398 -0.001 c 
18.801 -0.001 l 21.227 -0.001 23.199 1.976 23.199 4.402 c 23.199 5.601 
l 26.398 7.999 26.398 12.8 23.199 15.198 c h
4.398 23.198 m 20.801 23.198 l 21.242 23.198 21.602 22.843 21.602 
22.402 c 21.602 17.452 l 21.348 17.542 21.082 17.601 20.801 17.601 c 
20.801 21.601 l 20.801 22.042 20.441 22.402 20 22.402 c 3.199 22.402 l 
2.758 22.402 2.398 22.042 2.398 21.601 c 2.398 18.445 l 1.906 18.952 
1.602 19.64 1.602 20.402 c 1.602 21.945 2.852 23.198 4.398 23.198 c h
20 20.8 m 3.199 20.8 l 3.199 21.601 l 20 21.601 l h
20 19.999 m 20 19.198 l 3.199 19.198 l 3.199 19.999 l h
20 18.402 m 20 17.601 l 4.398 17.601 l 3.969 17.601 3.566 17.706 3.199 
17.878 c 3.199 18.402 l h
21.602 4.402 m 21.602 2.855 20.348 1.601 18.801 1.601 c 4.398 1.601 l 
2.852 1.601 1.602 2.855 1.602 4.402 c 1.602 17.007 l 2.359 16.378 3.336 
15.999 4.398 15.999 c 20.801 15.999 l 21.242 15.999 21.602 15.64 21.602 
15.198 c 21.602 13.601 l 14.398 13.601 l 12.191 13.601 10.398 11.808 
10.398 9.601 c 10.398 7.39 12.191 5.601 14.398 5.601 c 21.602 5.601 l h
22.621 7.198 m 14.398 7.198 l 13.078 7.198 12 8.277 12 9.601 c 12 
10.925 13.078 11.999 14.398 11.999 c 21.602 11.999 l 22.094 12.007 
22.582 12.245 22.883 12.644 c 22.965 12.757 23.031 12.882 23.082 13.011 
c 23.09 13.03 23.102 13.042 23.109 13.062 c 23.684 12.308 24 11.382 24 
10.402 c 24 9.171 23.504 8.027 22.621 7.198 c h
22.621 7.198 m f
Q Q
showpage
%%Trailer
count op_count sub {pop} repeat
countdictstack dict_count sub {end} repeat
cairo_eps_state restore
%%EOF
