%!PS-Adobe-3.0 EPSF-3.0
%%Creator: cairo 1.10.2 (http://cairographics.org)
%%CreationDate: Mon Sep  1 07:11:23 2014
%%Pages: 1
%%BoundingBox: 0 -1 790 792
%%DocumentData: Clean7Bit
%%LanguageLevel: 2
%%EndComments
%%BeginProlog
/cairo_eps_state save def
/dict_count countdictstack def
/op_count count 1 sub def
userdict begin
/q { gsave } bind def
/Q { grestore } bind def
/cm { 6 array astore concat } bind def
/w { setlinewidth } bind def
/J { setlinecap } bind def
/j { setlinejoin } bind def
/M { setmiterlimit } bind def
/d { setdash } bind def
/m { moveto } bind def
/l { lineto } bind def
/c { curveto } bind def
/h { closepath } bind def
/re { exch dup neg 3 1 roll 5 3 roll moveto 0 rlineto
      0 exch rlineto 0 rlineto closepath } bind def
/S { stroke } bind def
/f { fill } bind def
/f* { eofill } bind def
/n { newpath } bind def
/W { clip } bind def
/W* { eoclip } bind def
/BT { } bind def
/ET { } bind def
/pdfmark where { pop globaldict /?pdfmark /exec load put }
    { globaldict begin /?pdfmark /pop load def /pdfmark
    /cleartomark load def end } ifelse
/BDC { mark 3 1 roll /BDC pdfmark } bind def
/EMC { mark /EMC pdfmark } bind def
/cairo_store_point { /cairo_point_y exch def /cairo_point_x exch def } def
/Tj { show currentpoint cairo_store_point } bind def
/TJ {
  {
    dup
    type /stringtype eq
    { show } { -0.001 mul 0 cairo_font_matrix dtransform rmoveto } ifelse
  } forall
  currentpoint cairo_store_point
} bind def
/cairo_selectfont { cairo_font_matrix aload pop pop pop 0 0 6 array astore
    cairo_font exch selectfont cairo_point_x cairo_point_y moveto } bind def
/Tf { pop /cairo_font exch def /cairo_font_matrix where
      { pop cairo_selectfont } if } bind def
/Td { matrix translate cairo_font_matrix matrix concatmatrix dup
      /cairo_font_matrix exch def dup 4 get exch 5 get cairo_store_point
      /cairo_font where { pop cairo_selectfont } if } bind def
/Tm { 2 copy 8 2 roll 6 array astore /cairo_font_matrix exch def
      cairo_store_point /cairo_font where { pop cairo_selectfont } if } bind def
/g { setgray } bind def
/rg { setrgbcolor } bind def
/d1 { setcachedevice } bind def
%%EndProlog
%%Page: 1 1
%%BeginPageSetup
%%PageBoundingBox: 0 -1 790 792
%%EndPageSetup
q 0 -1 790 793 rectclip q
0 791.9 790 -792 re W n
0.129412 0.0980392 0.0823529 rg
712.961 791.502 m 588.32 791.502 l 546.414 791.502 512.32 757.412 
512.32 715.502 c 512.32 76.404 l 512.32 34.498 546.414 0.404 588.32 
0.404 c 712.961 0.404 l 754.867 0.404 788.961 34.498 788.961 76.404 c 
788.961 715.502 l 788.961 757.412 754.867 791.502 712.961 791.502 c h
732.961 76.404 m 732.961 65.357 724.008 56.404 712.961 56.404 c 588.32 
56.404 l 577.273 56.404 568.32 65.357 568.32 76.404 c 568.32 715.502 l 
568.32 726.548 577.273 735.502 588.32 735.502 c 712.961 735.502 l 
724.008 735.502 732.961 726.548 732.961 715.502 c h
732.961 76.404 m f
0 g
0.8 w
0 J
0 j
[] 0.0 d
10 M q 1 0 0 -1 0 791.900024 cm
712.961 0.398 m 588.32 0.398 l 546.414 0.398 512.32 34.488 512.32 
76.398 c 512.32 715.496 l 512.32 757.402 546.414 791.496 588.32 791.496 
c 712.961 791.496 l 754.867 791.496 788.961 757.402 788.961 715.496 c 
788.961 76.398 l 788.961 34.488 754.867 0.398 712.961 0.398 c h
732.961 715.496 m 732.961 726.543 724.008 735.496 712.961 735.496 c 
588.32 735.496 l 577.273 735.496 568.32 726.543 568.32 715.496 c 568.32 
76.398 l 568.32 65.352 577.273 56.398 588.32 56.398 c 712.961 56.398 l 
724.008 56.398 732.961 65.352 732.961 76.398 c h
732.961 715.496 m S Q
0.129412 0.0980392 0.0823529 rg
0.391 622.861 m 0.391 580.955 34.484 546.861 76.391 546.861 c 410.996 
546.861 l 452.902 546.861 486.996 580.955 486.996 622.861 c 486.996 
715.502 l 486.996 757.412 452.902 791.502 410.996 791.502 c 76.391 
791.502 l 34.484 791.502 0.391 757.412 0.391 715.502 c h
56.391 715.502 m 56.391 726.548 65.344 735.502 76.391 735.502 c 410.996 
735.502 l 422.043 735.502 430.996 726.548 430.996 715.502 c 430.996 
622.861 l 430.996 611.818 422.043 602.861 410.996 602.861 c 76.391 
602.861 l 65.344 602.861 56.391 611.818 56.391 622.861 c h
56.391 715.502 m f
0 g
q 1 0 0 -1 0 791.900024 cm
0.391 169.039 m 0.391 210.945 34.484 245.039 76.391 245.039 c 410.996 
245.039 l 452.902 245.039 486.996 210.945 486.996 169.039 c 486.996 
76.398 l 486.996 34.488 452.902 0.398 410.996 0.398 c 76.391 0.398 l 
34.484 0.398 0.391 34.488 0.391 76.398 c h
56.391 76.398 m 56.391 65.352 65.344 56.398 76.391 56.398 c 410.996 
56.398 l 422.043 56.398 430.996 65.352 430.996 76.398 c 430.996 169.039 
l 430.996 180.082 422.043 189.039 410.996 189.039 c 76.391 189.039 l 
65.344 189.039 56.391 180.082 56.391 169.039 c h
56.391 76.398 m S Q
0.129412 0.0980392 0.0823529 rg
0.391 349.63 m 0.391 307.724 34.484 273.63 76.391 273.63 c 410.996 
273.63 l 452.902 273.63 486.996 307.724 486.996 349.63 c 486.996 
442.275 l 486.996 484.181 452.902 518.275 410.996 518.275 c 76.391 
518.275 l 34.484 518.275 0.391 484.181 0.391 442.275 c h
56.391 442.275 m 56.391 453.318 65.344 462.275 76.391 462.275 c 410.996 
462.275 l 422.043 462.275 430.996 453.318 430.996 442.275 c 430.996 
349.634 l 430.996 338.588 422.043 329.634 410.996 329.634 c 76.391 
329.634 l 65.344 329.634 56.391 338.588 56.391 349.634 c h
56.391 442.275 m f
0 g
q 1 0 0 -1 0 791.900024 cm
0.391 442.27 m 0.391 484.176 34.484 518.27 76.391 518.27 c 410.996 
518.27 l 452.902 518.27 486.996 484.176 486.996 442.27 c 486.996 
349.625 l 486.996 307.719 452.902 273.625 410.996 273.625 c 76.391 
273.625 l 34.484 273.625 0.391 307.719 0.391 349.625 c h
56.391 349.625 m 56.391 338.582 65.344 329.625 76.391 329.625 c 410.996 
329.625 l 422.043 329.625 430.996 338.582 430.996 349.625 c 430.996 
442.266 l 430.996 453.312 422.043 462.266 410.996 462.266 c 76.391 
462.266 l 65.344 462.266 56.391 453.312 56.391 442.266 c h
56.391 349.625 m S Q
0.129412 0.0980392 0.0823529 rg
0.391 76.404 m 0.391 34.498 34.484 0.404 76.391 0.404 c 410.996 0.404 l 
452.902 0.404 486.996 34.498 486.996 76.404 c 486.996 169.045 l 486.996 
210.951 452.902 245.045 410.996 245.045 c 76.391 245.045 l 34.484 
245.045 0.391 210.951 0.391 169.045 c h
56.391 169.045 m 56.391 180.088 65.344 189.045 76.391 189.045 c 410.996 
189.045 l 422.043 189.045 430.996 180.088 430.996 169.045 c 430.996 
76.4 l 430.996 65.357 422.043 56.4 410.996 56.4 c 76.391 56.4 l 65.344 
56.4 56.391 65.357 56.391 76.4 c h
56.391 169.045 m f
0 g
q 1 0 0 -1 0 791.900024 cm
0.391 715.496 m 0.391 757.402 34.484 791.496 76.391 791.496 c 410.996 
791.496 l 452.902 791.496 486.996 757.402 486.996 715.496 c 486.996 
622.855 l 486.996 580.949 452.902 546.855 410.996 546.855 c 76.391 
546.855 l 34.484 546.855 0.391 580.949 0.391 622.855 c h
56.391 622.855 m 56.391 611.812 65.344 602.855 76.391 602.855 c 410.996 
602.855 l 422.043 602.855 430.996 611.812 430.996 622.855 c 430.996 
715.5 l 430.996 726.543 422.043 735.5 410.996 735.5 c 76.391 735.5 l 
65.344 735.5 56.391 726.543 56.391 715.5 c h
56.391 622.855 m S Q
Q Q
showpage
%%Trailer
count op_count sub {pop} repeat
countdictstack dict_count sub {end} repeat
cairo_eps_state restore
%%EOF
