%!PS-Adobe-3.0 EPSF-3.0
%%Creator: cairo 1.10.2 (http://cairographics.org)
%%CreationDate: Thu Aug  7 07:20:24 2014
%%Pages: 1
%%BoundingBox: 0 -1 18 18
%%DocumentData: Clean7Bit
%%LanguageLevel: 2
%%EndComments
%%BeginProlog
/cairo_eps_state save def
/dict_count countdictstack def
/op_count count 1 sub def
userdict begin
/q { gsave } bind def
/Q { grestore } bind def
/cm { 6 array astore concat } bind def
/w { setlinewidth } bind def
/J { setlinecap } bind def
/j { setlinejoin } bind def
/M { setmiterlimit } bind def
/d { setdash } bind def
/m { moveto } bind def
/l { lineto } bind def
/c { curveto } bind def
/h { closepath } bind def
/re { exch dup neg 3 1 roll 5 3 roll moveto 0 rlineto
      0 exch rlineto 0 rlineto closepath } bind def
/S { stroke } bind def
/f { fill } bind def
/f* { eofill } bind def
/n { newpath } bind def
/W { clip } bind def
/W* { eoclip } bind def
/BT { } bind def
/ET { } bind def
/pdfmark where { pop globaldict /?pdfmark /exec load put }
    { globaldict begin /?pdfmark /pop load def /pdfmark
    /cleartomark load def end } ifelse
/BDC { mark 3 1 roll /BDC pdfmark } bind def
/EMC { mark /EMC pdfmark } bind def
/cairo_store_point { /cairo_point_y exch def /cairo_point_x exch def } def
/Tj { show currentpoint cairo_store_point } bind def
/TJ {
  {
    dup
    type /stringtype eq
    { show } { -0.001 mul 0 cairo_font_matrix dtransform rmoveto } ifelse
  } forall
  currentpoint cairo_store_point
} bind def
/cairo_selectfont { cairo_font_matrix aload pop pop pop 0 0 6 array astore
    cairo_font exch selectfont cairo_point_x cairo_point_y moveto } bind def
/Tf { pop /cairo_font exch def /cairo_font_matrix where
      { pop cairo_selectfont } if } bind def
/Td { matrix translate cairo_font_matrix matrix concatmatrix dup
      /cairo_font_matrix exch def dup 4 get exch 5 get cairo_store_point
      /cairo_font where { pop cairo_selectfont } if } bind def
/Tm { 2 copy 8 2 roll 6 array astore /cairo_font_matrix exch def
      cairo_store_point /cairo_font where { pop cairo_selectfont } if } bind def
/g { setgray } bind def
/rg { setrgbcolor } bind def
/d1 { setcachedevice } bind def
%%EndProlog
%%Page: 1 1
%%BeginPageSetup
%%PageBoundingBox: 0 -1 18 18
%%EndPageSetup
q 0 -1 18 19 rectclip q
0 17.1 18 -18 re W n
0 g
7.199 13.901 m 6.398 13.901 l 6.398 10.702 l 3.199 10.702 l 3.199 9.901 
l 6.398 9.901 l 6.398 6.702 l 7.199 6.702 l 7.199 9.901 l 10.398 9.901 
l 10.398 10.702 l 7.199 10.702 l h
7.199 13.901 m f
16.801 1.901 m 12.32 6.381 l 13.121 7.498 13.602 8.862 13.602 10.299 c 
13.602 14.061 10.559 17.1 6.801 17.1 c 3.039 17.1 0 14.061 0 10.299 c 0 
6.541 3.039 3.498 6.801 3.498 c 8.238 3.498 9.602 3.979 10.719 4.78 c 
15.199 0.299 l 15.602 -0.099 16.32 -0.099 16.801 0.299 c 17.281 0.78 
17.281 1.42 16.801 1.901 c h
6.801 5.1 m 3.922 5.1 1.602 7.42 1.602 10.299 c 1.602 13.178 3.922 
15.498 6.801 15.498 c 9.68 15.498 12 13.178 12 10.299 c 12 7.42 9.68 
5.1 6.801 5.1 c h
6.801 5.1 m f
Q Q
showpage
%%Trailer
count op_count sub {pop} repeat
countdictstack dict_count sub {end} repeat
cairo_eps_state restore
%%EOF
